%!PS-Adobe-3.0 EPSF-3.0 
%%BoundingBox: 0 0 716 412
%%Pages: 0
%%Creator: Sun Microsystems, Inc.
%%Title: none
%%CreationDate: none
%%LanguageLevel: 2
%%EndComments
%%BeginProlog
%%BeginResource: procset SDRes-Prolog 1.0 0
/b4_inc_state save def
/dict_count countdictstack def
/op_count count 1 sub def
userdict begin
0 setgray 0 setlinecap 1 setlinewidth 0 setlinejoin 10 setmiterlimit[] 0 setdash newpath
/languagelevel where {pop languagelevel 1 ne {false setstrokeadjust false setoverprint} if} if
/bdef {bind def} bind def
/c {setgray} bdef
/l {neg lineto} bdef
/rl {neg rlineto} bdef
/lc {setlinecap} bdef
/lj {setlinejoin} bdef
/lw {setlinewidth} bdef
/ml {setmiterlimit} bdef
/ld {setdash} bdef
/m {neg moveto} bdef
/ct {6 2 roll neg 6 2 roll neg 6 2 roll neg curveto} bdef
/r {rotate} bdef
/t {neg translate} bdef
/s {scale} bdef
/sw {show} bdef
/gs {gsave} bdef
/gr {grestore} bdef
/f {findfont dup length dict begin
{1 index /FID ne {def} {pop pop} ifelse} forall /Encoding ISOLatin1Encoding def
currentdict end /NFont exch definefont pop /NFont findfont} bdef
/p {closepath} bdef
/sf {scalefont setfont} bdef
/ef {eofill}bdef
/pc {closepath stroke}bdef
/ps {stroke}bdef
/pum {matrix currentmatrix}bdef
/pom {setmatrix}bdef
/bs {/aString exch def /nXOfs exch def /nWidth exch def currentpoint nXOfs 0 rmoveto pum nWidth aString stringwidth pop div 1 scale aString show pom moveto} bdef
%%EndResource
%%EndProlog
%%BeginSetup
%%EndSetup
%%Page: 1 1
%%BeginPageSetup
%%EndPageSetup
pum
0.02835 0.02831 s 
0 -14552 t
/tm matrix currentmatrix def
tm setmatrix
-2250 -4999 t 
1 1 s 
0 lw 1 lj 0.000 c 12150 14000 m  8800 14000 l  8800 11500 l  15500 11500 l 
15500 14000 l  12150 14000 l  pc
pum
10685 12615 t
115 0 m  53 0 l  53 -454 l  250 -454 l  289 -454 319 -450 339 -442 ct 359 -434 375 -420 388 -399 ct 
400 -378 406 -356 406 -331 ct 406 -298 396 -271 376 -249 ct 356 -227 325 -213 283 -207 ct 
298 -200 310 -192 317 -185 ct 334 -168 350 -148 365 -124 ct 441 0 l  369 0 l 
311 -95 l  294 -122 280 -143 269 -158 ct 259 -172 249 -182 240 -188 ct 231 -194 223 -198 214 -201 ct 
207 -202 197 -203 182 -203 ct 115 -203 l  115 0 l  p
115 -401 m  115 -256 l  239 -256 l  265 -256 286 -259 300 -264 ct 314 -270 325 -278 333 -290 ct 
340 -303 344 -316 344 -330 ct 344 -351 337 -368 322 -381 ct 307 -395 284 -401 253 -401 ct 
115 -401 l  p ef
727 -106 m  783 -97 l  774 -65 757 -40 733 -22 ct 708 -4 677 4 638 4 ct 590 4 552 -10 523 -39 ct 
495 -69 481 -110 481 -163 ct 481 -217 495 -260 524 -290 ct 553 -320 590 -335 635 -335 ct 
679 -335 715 -320 743 -290 ct 771 -261 785 -219 785 -165 ct 785 -161 785 -156 785 -150 ct 
538 -150 l  540 -117 551 -92 570 -75 ct 588 -57 611 -49 639 -49 ct 660 -49 678 -53 692 -62 ct 
707 -71 719 -86 727 -106 ct p
538 -203 m  728 -203 l  725 -226 718 -244 706 -255 ct 688 -273 664 -282 635 -282 ct 
609 -282 586 -275 568 -261 ct 550 -246 540 -227 538 -203 ct p ef
909 128 m  852 128 l  852 -331 l  909 -331 l  909 -276 l  921 -296 934 -311 949 -320 ct 
963 -330 981 -335 1002 -335 ct 1030 -335 1054 -328 1075 -314 ct 1096 -299 1112 -279 1122 -253 ct 
1133 -227 1138 -199 1138 -168 ct 1138 -135 1132 -105 1120 -78 ct 1108 -51 1091 -31 1068 -17 ct 
1045 -3 1021 4 995 4 ct 977 4 960 0 945 -9 ct 931 -18 918 -30 909 -44 ct 909 128 l 
p
909 -163 m  909 -124 917 -95 934 -76 ct 950 -58 970 -49 994 -49 ct 1018 -49 1038 -58 1055 -77 ct 
1072 -97 1081 -127 1081 -167 ct 1081 -205 1073 -234 1056 -253 ct 1039 -273 1019 -282 996 -282 ct 
973 -282 953 -272 935 -252 ct 918 -231 909 -202 909 -163 ct p ef
1191 -165 m  1191 -226 1208 -270 1241 -299 ct 1268 -323 1302 -335 1342 -335 ct 
1386 -335 1421 -321 1449 -291 ct 1477 -262 1491 -222 1491 -170 ct 1491 -128 1485 -95 1473 -71 ct 
1460 -47 1442 -29 1419 -15 ct 1395 -2 1369 4 1342 4 ct 1297 4 1261 -10 1233 -39 ct 
1205 -69 1191 -111 1191 -165 ct p
1249 -166 m  1249 -126 1258 -97 1275 -78 ct 1293 -58 1315 -49 1342 -49 ct 1368 -49 1390 -58 1408 -78 ct 
1425 -97 1434 -127 1434 -167 ct 1434 -205 1425 -234 1407 -253 ct 1390 -272 1368 -282 1342 -282 ct 
1315 -282 1293 -273 1275 -253 ct 1258 -234 1249 -205 1249 -166 ct p ef
1619 0 m  1562 0 l  1562 -331 l  1611 -331 l  1611 -283 l  1623 -304 1635 -318 1646 -325 ct 
1657 -332 1669 -335 1682 -335 ct 1700 -335 1719 -330 1738 -321 ct 1719 -269 l 
1706 -278 1693 -282 1680 -282 ct 1668 -282 1658 -279 1648 -271 ct 1639 -264 1632 -253 1628 -240 ct 
1622 -220 1619 -198 1619 -174 ct 1619 0 l  p ef
1893 -50 m  1902 -1 l  1886 3 1872 4 1860 4 ct 1840 4 1824 1 1813 -5 ct 1802 -11 1794 -19 1790 -29 ct 
1785 -40 1783 -61 1783 -94 ct 1783 -278 l  1743 -278 l  1743 -331 l  1783 -331 l 
1783 -412 l  1840 -446 l  1840 -331 l  1893 -331 l  1893 -278 l  1840 -278 l 
1840 -92 l  1840 -77 1841 -67 1843 -63 ct 1845 -58 1848 -55 1852 -52 ct 1856 -50 1862 -49 1870 -49 ct 
1876 -49 1884 -49 1893 -50 ct p ef
2007 -397 m  1950 -397 l  1950 -454 l  2007 -454 l  2007 -397 l  p
2007 0 m  1950 0 l  1950 -331 l  2007 -331 l  2007 0 l  p ef
2148 0 m  2091 0 l  2091 -331 l  2148 -331 l  2148 -284 l  2171 -318 2205 -335 2248 -335 ct 
2267 -335 2285 -332 2301 -324 ct 2316 -317 2328 -308 2336 -297 ct 2344 -285 2350 -271 2353 -255 ct 
2355 -245 2356 -227 2356 -202 ct 2356 0 l  2298 0 l  2298 -196 l  2298 -218 2296 -235 2292 -246 ct 
2288 -257 2280 -266 2270 -272 ct 2259 -279 2247 -282 2232 -282 ct 2210 -282 2190 -275 2173 -260 ct 
2157 -245 2148 -217 2148 -176 ct 2148 0 l  p ef
2427 22 m  2485 31 l  2487 46 2493 58 2503 65 ct 2516 75 2535 79 2558 79 ct 
2583 79 2602 75 2616 65 ct 2630 56 2639 43 2644 26 ct 2647 15 2648 -7 2648 -40 ct 
2624 -13 2594 0 2558 0 ct 2514 0 2479 -16 2455 -49 ct 2431 -81 2418 -120 2418 -166 ct 
2418 -197 2424 -226 2435 -252 ct 2446 -279 2462 -299 2482 -314 ct 2503 -328 2527 -335 2555 -335 ct 
2593 -335 2623 -319 2648 -287 ct 2648 -331 l  2705 -331 l  2705 -46 l  2705 5 2700 42 2689 63 ct 
2679 84 2663 101 2640 114 ct 2618 126 2590 132 2557 132 ct 2518 132 2486 123 2462 105 ct 
2438 86 2426 59 2427 22 ct p
2476 -170 m  2476 -129 2484 -99 2500 -81 ct 2517 -62 2537 -53 2562 -53 ct 2586 -53 2606 -62 2623 -81 ct 
2639 -99 2648 -128 2648 -168 ct 2648 -206 2639 -234 2622 -253 ct 2605 -273 2585 -282 2561 -282 ct 
2537 -282 2517 -273 2500 -254 ct 2484 -235 2476 -207 2476 -170 ct p ef
pom
pum
9491 13326 t
250 0 m  183 0 l  1 -454 l  66 -454 l  189 -129 l  199 -102 207 -78 214 -55 ct 
221 -80 229 -104 238 -129 ct 362 -454 l  427 -454 l  250 0 l  p ef
513 -397 m  456 -397 l  456 -454 l  513 -454 l  513 -397 l  p
513 0 m  456 0 l  456 -331 l  513 -331 l  513 0 l  p ef
821 -106 m  877 -97 l  868 -65 851 -40 827 -22 ct 802 -4 771 4 732 4 ct 684 4 646 -10 617 -39 ct 
589 -69 575 -110 575 -163 ct 575 -217 589 -260 618 -290 ct 647 -320 684 -335 729 -335 ct 
773 -335 809 -320 837 -290 ct 865 -261 879 -219 879 -165 ct 879 -161 879 -156 879 -150 ct 
632 -150 l  634 -117 645 -92 664 -75 ct 682 -57 705 -49 733 -49 ct 754 -49 772 -53 786 -62 ct 
801 -71 813 -86 821 -106 ct p
632 -203 m  822 -203 l  819 -226 812 -244 800 -255 ct 782 -273 758 -282 729 -282 ct 
703 -282 680 -275 662 -261 ct 644 -246 634 -227 632 -203 ct p ef
1068 0 m  1005 0 l  904 -331 l  964 -331 l  1018 -139 l  1035 -69 l  1036 -72 1041 -95 1052 -137 ct 
1103 -331 l  1164 -331 l  1215 -139 l  1230 -76 l  1248 -139 l  1303 -331 l 
1362 -331 l  1261 0 l  1198 0 l  1147 -197 l  1133 -254 l  1068 0 l  p ef
1563 0 m  1498 0 l  1679 -454 l  1743 -454 l  1924 0 l  1859 0 l  1807 -141 l 
1615 -141 l  1563 0 l  p
1686 -320 m  1635 -194 l  1787 -194 l  1744 -313 l  1729 -351 1719 -381 1711 -401 ct 
1705 -376 1696 -349 1686 -320 ct p ef
2186 -123 m  2243 -115 l  2237 -77 2222 -48 2197 -27 ct 2172 -6 2142 4 2106 4 ct 
2061 4 2025 -10 1998 -39 ct 1970 -68 1956 -110 1956 -164 ct 1956 -199 1962 -230 1974 -256 ct 
1986 -283 2003 -302 2027 -315 ct 2051 -329 2077 -335 2105 -335 ct 2140 -335 2169 -326 2191 -309 ct 
2214 -291 2228 -266 2234 -234 ct 2177 -225 l  2172 -244 2163 -258 2151 -268 ct 
2138 -277 2123 -282 2105 -282 ct 2078 -282 2056 -273 2039 -254 ct 2022 -236 2014 -206 2014 -166 ct 
2014 -125 2022 -95 2039 -76 ct 2056 -58 2077 -49 2104 -49 ct 2126 -49 2144 -55 2158 -67 ct 
2173 -79 2182 -98 2186 -123 ct p ef
2503 -123 m  2560 -115 l  2554 -77 2539 -48 2514 -27 ct 2489 -6 2459 4 2423 4 ct 
2378 4 2342 -10 2315 -39 ct 2287 -68 2273 -110 2273 -164 ct 2273 -199 2279 -230 2291 -256 ct 
2303 -283 2320 -302 2344 -315 ct 2368 -329 2394 -335 2422 -335 ct 2457 -335 2486 -326 2508 -309 ct 
2531 -291 2545 -266 2551 -234 ct 2494 -225 l  2489 -244 2480 -258 2468 -268 ct 
2455 -277 2440 -282 2422 -282 ct 2395 -282 2373 -273 2356 -254 ct 2339 -236 2331 -206 2331 -166 ct 
2331 -125 2339 -95 2356 -76 ct 2373 -58 2394 -49 2421 -49 ct 2443 -49 2461 -55 2475 -67 ct 
2490 -79 2499 -98 2503 -123 ct p ef
2833 -106 m  2889 -97 l  2880 -65 2863 -40 2839 -22 ct 2814 -4 2783 4 2744 4 ct 
2696 4 2658 -10 2629 -39 ct 2601 -69 2587 -110 2587 -163 ct 2587 -217 2601 -260 2630 -290 ct 
2659 -320 2696 -335 2741 -335 ct 2785 -335 2821 -320 2849 -290 ct 2877 -261 2891 -219 2891 -165 ct 
2891 -161 2891 -156 2891 -150 ct 2644 -150 l  2646 -117 2657 -92 2676 -75 ct 
2694 -57 2717 -49 2745 -49 ct 2766 -49 2784 -53 2798 -62 ct 2813 -71 2825 -86 2833 -106 ct 
p
2644 -203 m  2834 -203 l  2831 -226 2824 -244 2812 -255 ct 2794 -273 2770 -282 2741 -282 ct 
2715 -282 2692 -275 2674 -261 ct 2656 -246 2646 -227 2644 -203 ct p ef
2940 -101 m  2997 -110 l  3000 -90 3009 -75 3022 -64 ct 3036 -54 3055 -49 3079 -49 ct 
3104 -49 3122 -53 3134 -62 ct 3146 -71 3152 -82 3152 -94 ct 3152 -105 3145 -114 3132 -120 ct 
3122 -125 3104 -130 3077 -137 ct 3041 -147 3014 -156 2998 -164 ct 2982 -171 2970 -182 2961 -195 ct 
2953 -209 2949 -223 2949 -240 ct 2949 -255 2952 -268 2959 -281 ct 2965 -293 2974 -304 2985 -312 ct 
2993 -318 3005 -324 3019 -328 ct 3034 -333 3049 -335 3066 -335 ct 3091 -335 3112 -331 3131 -323 ct 
3150 -316 3164 -305 3173 -292 ct 3182 -278 3188 -260 3191 -238 ct 3134 -229 l 
3132 -246 3125 -259 3115 -268 ct 3104 -278 3089 -282 3070 -282 ct 3047 -282 3031 -279 3021 -271 ct 
3011 -264 3006 -255 3006 -245 ct 3006 -239 3008 -234 3012 -229 ct 3016 -223 3023 -219 3031 -216 ct 
3036 -214 3051 -210 3075 -203 ct 3111 -193 3137 -184 3154 -177 ct 3171 -171 3185 -161 3194 -148 ct 
3204 -135 3209 -119 3209 -100 ct 3209 -81 3204 -64 3193 -47 ct 3182 -31 3167 -18 3147 -9 ct 
3127 0 3104 4 3079 4 ct 3036 4 3004 -4 2982 -22 ct 2960 -40 2946 -66 2940 -101 ct 
p ef
3257 -101 m  3314 -110 l  3317 -90 3326 -75 3339 -64 ct 3353 -54 3372 -49 3396 -49 ct 
3421 -49 3439 -53 3451 -62 ct 3463 -71 3469 -82 3469 -94 ct 3469 -105 3462 -114 3449 -120 ct 
3439 -125 3421 -130 3394 -137 ct 3358 -147 3331 -156 3315 -164 ct 3299 -171 3287 -182 3278 -195 ct 
3270 -209 3266 -223 3266 -240 ct 3266 -255 3269 -268 3276 -281 ct 3282 -293 3291 -304 3302 -312 ct 
3310 -318 3322 -324 3336 -328 ct 3351 -333 3366 -335 3383 -335 ct 3408 -335 3429 -331 3448 -323 ct 
3467 -316 3481 -305 3490 -292 ct 3499 -278 3505 -260 3508 -238 ct 3451 -229 l 
3449 -246 3442 -259 3432 -268 ct 3421 -278 3406 -282 3387 -282 ct 3364 -282 3348 -279 3338 -271 ct 
3328 -264 3323 -255 3323 -245 ct 3323 -239 3325 -234 3329 -229 ct 3333 -223 3340 -219 3348 -216 ct 
3353 -214 3368 -210 3392 -203 ct 3428 -193 3454 -184 3471 -177 ct 3488 -171 3502 -161 3511 -148 ct 
3521 -135 3526 -119 3526 -100 ct 3526 -81 3521 -64 3510 -47 ct 3499 -31 3484 -18 3464 -9 ct 
3444 0 3421 4 3396 4 ct 3353 4 3321 -4 3299 -22 ct 3277 -40 3263 -66 3257 -101 ct 
p ef
4060 0 m  3782 0 l  3782 -454 l  3844 -454 l  3844 -53 l  4060 -53 l  4060 0 l 
p ef
4334 -40 m  4314 -24 4295 -12 4277 -6 ct 4258 1 4239 4 4218 4 ct 4183 4 4156 -4 4137 -22 ct 
4119 -39 4109 -61 4109 -88 ct 4109 -104 4113 -118 4120 -131 ct 4127 -144 4136 -154 4148 -162 ct 
4159 -170 4172 -176 4186 -180 ct 4197 -183 4213 -186 4234 -188 ct 4277 -194 4309 -200 4330 -207 ct 
4330 -214 4330 -219 4330 -221 ct 4330 -242 4325 -256 4315 -265 ct 4302 -276 4282 -282 4256 -282 ct 
4231 -282 4213 -278 4202 -270 ct 4190 -261 4181 -246 4176 -225 ct 4118 -234 l 
4123 -257 4131 -276 4143 -290 ct 4154 -305 4170 -316 4191 -323 ct 4213 -331 4237 -335 4265 -335 ct 
4293 -335 4316 -332 4333 -325 ct 4351 -318 4364 -310 4372 -300 ct 4380 -289 4386 -276 4389 -261 ct 
4391 -251 4392 -235 4392 -212 ct 4392 -143 l  4392 -94 4393 -62 4395 -46 ct 
4398 -30 4402 -15 4409 0 ct 4352 0 l  4343 -11 4337 -25 4334 -40 ct p
4330 -138 m  4330 -154 l  4310 -148 4281 -142 4242 -137 ct 4220 -134 4205 -131 4195 -128 ct 
4186 -124 4179 -120 4174 -113 ct 4169 -106 4167 -99 4167 -91 ct 4167 -79 4172 -69 4183 -61 ct 
4194 -53 4210 -49 4231 -49 ct 4251 -49 4269 -53 4286 -61 ct 4302 -70 4313 -81 4321 -94 ct 
4327 -104 4330 -119 4330 -138 ct p ef
4476 126 m  4467 74 l  4478 78 4489 79 4497 79 ct 4509 79 4518 77 4526 73 ct 
4533 69 4538 63 4543 56 ct 4546 50 4552 36 4559 14 ct 4560 11 4562 6 4564 0 ct 
4440 -331 l  4501 -331 l  4568 -150 l  4576 -127 4584 -103 4591 -77 ct 4597 -95 4604 -116 4613 -140 ct 
4679 -331 l  4739 -331 l  4621 9 l  4608 44 4598 68 4590 81 ct 4581 99 4569 112 4557 120 ct 
4544 128 4529 132 4511 132 ct 4501 132 4489 130 4476 126 ct p ef
5021 -106 m  5077 -97 l  5068 -65 5051 -40 5027 -22 ct 5002 -4 4971 4 4932 4 ct 
4884 4 4846 -10 4817 -39 ct 4789 -69 4775 -110 4775 -163 ct 4775 -217 4789 -260 4818 -290 ct 
4847 -320 4884 -335 4929 -335 ct 4973 -335 5009 -320 5037 -290 ct 5065 -261 5079 -219 5079 -165 ct 
5079 -161 5079 -156 5079 -150 ct 4832 -150 l  4834 -117 4845 -92 4864 -75 ct 
4882 -57 4905 -49 4933 -49 ct 4954 -49 4972 -53 4986 -62 ct 5001 -71 5013 -86 5021 -106 ct 
p
4832 -203 m  5022 -203 l  5019 -226 5012 -244 5000 -255 ct 4982 -273 4958 -282 4929 -282 ct 
4903 -282 4880 -275 4862 -261 ct 4844 -246 4834 -227 4832 -203 ct p ef
5207 0 m  5150 0 l  5150 -331 l  5199 -331 l  5199 -283 l  5211 -304 5223 -318 5234 -325 ct 
5245 -332 5257 -335 5270 -335 ct 5288 -335 5307 -330 5326 -321 ct 5307 -269 l 
5294 -278 5281 -282 5268 -282 ct 5256 -282 5246 -279 5236 -271 ct 5227 -264 5220 -253 5216 -240 ct 
5210 -220 5207 -198 5207 -174 ct 5207 0 l  p ef
pom
9500 16051 m  9500 15775 10750 15500 12000 15500 ct 13250 15500 14501 15775 14501 16051 ct 
14501 18449 l  14501 18725 13250 19001 12000 19001 ct 10750 19001 9500 18725 9500 18449 ct 
9500 16051 l  pc
9500 16051 m  9500 16326 10750 16602 12000 16602 ct 13250 16602 14501 16326 14501 16051 ct 
ps
pum
9778 17746 t
216 0 m  53 0 l  53 -454 l  209 -454 l  244 -454 271 -452 290 -448 ct 316 -442 338 -431 356 -415 ct 
380 -395 398 -369 410 -338 ct 422 -306 428 -270 428 -230 ct 428 -195 424 -165 416 -138 ct 
408 -111 397 -89 385 -72 ct 372 -54 358 -41 343 -31 ct 328 -21 310 -13 289 -8 ct 
268 -3 244 0 216 0 ct p
115 -401 m  115 -53 l  211 -53 l  241 -53 264 -56 281 -61 ct 298 -67 311 -75 321 -85 ct 
335 -99 346 -118 354 -143 ct 362 -167 366 -196 366 -231 ct 366 -278 358 -315 343 -340 ct 
327 -366 309 -383 286 -392 ct 270 -398 245 -401 209 -401 ct 115 -401 l  p ef
485 -165 m  485 -226 502 -270 535 -299 ct 562 -323 596 -335 636 -335 ct 680 -335 715 -321 743 -291 ct 
771 -262 785 -222 785 -170 ct 785 -128 779 -95 767 -71 ct 754 -47 736 -29 713 -15 ct 
689 -2 663 4 636 4 ct 591 4 555 -10 527 -39 ct 499 -69 485 -111 485 -165 ct p
543 -166 m  543 -126 552 -97 569 -78 ct 587 -58 609 -49 636 -49 ct 662 -49 684 -58 702 -78 ct 
719 -97 728 -127 728 -167 ct 728 -205 719 -234 701 -253 ct 684 -272 662 -282 636 -282 ct 
609 -282 587 -273 569 -253 ct 552 -234 543 -205 543 -166 ct p ef
911 0 m  854 0 l  854 -331 l  911 -331 l  911 -277 l  921 -295 934 -309 951 -319 ct 
967 -330 986 -335 1007 -335 ct 1030 -335 1050 -330 1065 -319 ct 1080 -308 1090 -293 1096 -273 ct 
1122 -314 1156 -335 1198 -335 ct 1230 -335 1255 -326 1273 -308 ct 1291 -290 1299 -262 1299 -225 ct 
1299 0 l  1242 0 l  1242 -203 l  1242 -225 1240 -241 1237 -250 ct 1233 -260 1227 -268 1217 -273 ct 
1208 -279 1197 -282 1184 -282 ct 1162 -282 1143 -275 1128 -260 ct 1113 -245 1105 -220 1105 -187 ct 
1105 0 l  1048 0 l  1048 -209 l  1048 -234 1043 -252 1035 -264 ct 1026 -276 1011 -282 991 -282 ct 
976 -282 961 -278 948 -270 ct 935 -262 926 -250 920 -235 ct 914 -219 911 -197 911 -167 ct 
911 0 l  p ef
1591 -40 m  1571 -24 1552 -12 1534 -6 ct 1515 1 1496 4 1475 4 ct 1440 4 1413 -4 1394 -22 ct 
1376 -39 1366 -61 1366 -88 ct 1366 -104 1370 -118 1377 -131 ct 1384 -144 1393 -154 1405 -162 ct 
1416 -170 1429 -176 1443 -180 ct 1454 -183 1470 -186 1491 -188 ct 1534 -194 1566 -200 1587 -207 ct 
1587 -214 1587 -219 1587 -221 ct 1587 -242 1582 -256 1572 -265 ct 1559 -276 1539 -282 1513 -282 ct 
1488 -282 1470 -278 1459 -270 ct 1447 -261 1438 -246 1433 -225 ct 1375 -234 l 
1380 -257 1388 -276 1400 -290 ct 1411 -305 1427 -316 1448 -323 ct 1470 -331 1494 -335 1522 -335 ct 
1550 -335 1573 -332 1590 -325 ct 1608 -318 1621 -310 1629 -300 ct 1637 -289 1643 -276 1646 -261 ct 
1648 -251 1649 -235 1649 -212 ct 1649 -143 l  1649 -94 1650 -62 1652 -46 ct 
1655 -30 1659 -15 1666 0 ct 1609 0 l  1600 -11 1594 -25 1591 -40 ct p
1587 -138 m  1587 -154 l  1567 -148 1538 -142 1499 -137 ct 1477 -134 1462 -131 1452 -128 ct 
1443 -124 1436 -120 1431 -113 ct 1426 -106 1424 -99 1424 -91 ct 1424 -79 1429 -69 1440 -61 ct 
1451 -53 1467 -49 1488 -49 ct 1508 -49 1526 -53 1543 -61 ct 1559 -70 1570 -81 1578 -94 ct 
1584 -104 1587 -119 1587 -138 ct p ef
1795 -397 m  1738 -397 l  1738 -454 l  1795 -454 l  1795 -397 l  p
1795 0 m  1738 0 l  1738 -331 l  1795 -331 l  1795 0 l  p ef
1936 0 m  1879 0 l  1879 -331 l  1936 -331 l  1936 -284 l  1959 -318 1993 -335 2036 -335 ct 
2055 -335 2073 -332 2089 -324 ct 2104 -317 2116 -308 2124 -297 ct 2132 -285 2138 -271 2141 -255 ct 
2143 -245 2144 -227 2144 -202 ct 2144 0 l  2086 0 l  2086 -196 l  2086 -218 2084 -235 2080 -246 ct 
2076 -257 2068 -266 2058 -272 ct 2047 -279 2035 -282 2020 -282 ct 1998 -282 1978 -275 1961 -260 ct 
1945 -245 1936 -217 1936 -176 ct 1936 0 l  p ef
2752 0 m  2417 0 l  2417 -454 l  2743 -454 l  2743 -401 l  2479 -401 l 
2479 -260 l  2726 -260 l  2726 -207 l  2479 -207 l  2479 -53 l  2752 -53 l 
2752 0 l  p ef
2889 0 m  2832 0 l  2832 -331 l  2889 -331 l  2889 -284 l  2912 -318 2946 -335 2989 -335 ct 
3008 -335 3026 -332 3042 -324 ct 3057 -317 3069 -308 3077 -297 ct 3085 -285 3091 -271 3094 -255 ct 
3096 -245 3097 -227 3097 -202 ct 3097 0 l  3039 0 l  3039 -196 l  3039 -218 3037 -235 3033 -246 ct 
3029 -257 3021 -266 3011 -272 ct 3000 -279 2988 -282 2973 -282 ct 2951 -282 2931 -275 2914 -260 ct 
2898 -245 2889 -217 2889 -176 ct 2889 0 l  p ef
3304 -50 m  3313 -1 l  3297 3 3283 4 3271 4 ct 3251 4 3235 1 3224 -5 ct 3213 -11 3205 -19 3201 -29 ct 
3196 -40 3194 -61 3194 -94 ct 3194 -278 l  3154 -278 l  3154 -331 l  3194 -331 l 
3194 -412 l  3251 -446 l  3251 -331 l  3304 -331 l  3304 -278 l  3251 -278 l 
3251 -92 l  3251 -77 3252 -67 3254 -63 ct 3256 -58 3259 -55 3263 -52 ct 3267 -50 3273 -49 3281 -49 ct 
3287 -49 3295 -49 3304 -50 ct p ef
3418 -397 m  3361 -397 l  3361 -454 l  3418 -454 l  3418 -397 l  p
3418 0 m  3361 0 l  3361 -331 l  3418 -331 l  3418 0 l  p ef
3621 -50 m  3630 -1 l  3614 3 3600 4 3588 4 ct 3568 4 3552 1 3541 -5 ct 3530 -11 3522 -19 3518 -29 ct 
3513 -40 3511 -61 3511 -94 ct 3511 -278 l  3471 -278 l  3471 -331 l  3511 -331 l 
3511 -412 l  3568 -446 l  3568 -331 l  3621 -331 l  3621 -278 l  3568 -278 l 
3568 -92 l  3568 -77 3569 -67 3571 -63 ct 3573 -58 3576 -55 3580 -52 ct 3584 -50 3590 -49 3598 -49 ct 
3604 -49 3612 -49 3621 -50 ct p ef
3735 -397 m  3678 -397 l  3678 -454 l  3735 -454 l  3735 -397 l  p
3735 0 m  3678 0 l  3678 -331 l  3735 -331 l  3735 0 l  p ef
4043 -106 m  4099 -97 l  4090 -65 4073 -40 4049 -22 ct 4024 -4 3993 4 3954 4 ct 
3906 4 3868 -10 3839 -39 ct 3811 -69 3797 -110 3797 -163 ct 3797 -217 3811 -260 3840 -290 ct 
3869 -320 3906 -335 3951 -335 ct 3995 -335 4031 -320 4059 -290 ct 4087 -261 4101 -219 4101 -165 ct 
4101 -161 4101 -156 4101 -150 ct 3854 -150 l  3856 -117 3867 -92 3886 -75 ct 
3904 -57 3927 -49 3955 -49 ct 3976 -49 3994 -53 4008 -62 ct 4023 -71 4035 -86 4043 -106 ct 
p
3854 -203 m  4044 -203 l  4041 -226 4034 -244 4022 -255 ct 4004 -273 3980 -282 3951 -282 ct 
3925 -282 3902 -275 3884 -261 ct 3866 -246 3856 -227 3854 -203 ct p ef
4151 -101 m  4208 -110 l  4211 -90 4220 -75 4233 -64 ct 4247 -54 4266 -49 4290 -49 ct 
4315 -49 4333 -53 4345 -62 ct 4357 -71 4363 -82 4363 -94 ct 4363 -105 4356 -114 4343 -120 ct 
4333 -125 4315 -130 4288 -137 ct 4252 -147 4225 -156 4209 -164 ct 4193 -171 4181 -182 4172 -195 ct 
4164 -209 4160 -223 4160 -240 ct 4160 -255 4163 -268 4170 -281 ct 4176 -293 4185 -304 4196 -312 ct 
4204 -318 4216 -324 4230 -328 ct 4245 -333 4260 -335 4277 -335 ct 4302 -335 4323 -331 4342 -323 ct 
4361 -316 4375 -305 4384 -292 ct 4393 -278 4399 -260 4402 -238 ct 4345 -229 l 
4343 -246 4336 -259 4326 -268 ct 4315 -278 4300 -282 4281 -282 ct 4258 -282 4242 -279 4232 -271 ct 
4222 -264 4217 -255 4217 -245 ct 4217 -239 4219 -234 4223 -229 ct 4227 -223 4234 -219 4242 -216 ct 
4247 -214 4262 -210 4286 -203 ct 4322 -193 4348 -184 4365 -177 ct 4382 -171 4396 -161 4405 -148 ct 
4415 -135 4420 -119 4420 -100 ct 4420 -81 4415 -64 4404 -47 ct 4393 -31 4378 -18 4358 -9 ct 
4338 0 4315 4 4290 4 ct 4247 4 4215 -4 4193 -22 ct 4171 -40 4157 -66 4151 -101 ct 
p ef
pom
1 lw 0 lj 12150 14000 m  12150 14000 l  12000 14000 l  12000 15140 l  ps
12000 15500 m  12150 15050 l  11850 15050 l  12000 15500 l  p ef
0 lw 1 lj 3300 11551 m  3300 11275 4425 11000 5550 11000 ct 6675 11000 7801 11275 7801 11551 ct 
7801 13949 l  7801 14225 6675 14501 5550 14501 ct 4425 14501 3300 14225 3300 13949 ct 
3300 11551 l  pc
3300 11551 m  3300 11826 4425 12102 5550 12102 ct 6675 12102 7801 11826 7801 11551 ct 
ps
pum
4086 12891 t
115 0 m  53 0 l  53 -454 l  250 -454 l  289 -454 319 -450 339 -442 ct 359 -434 375 -420 388 -399 ct 
400 -378 406 -356 406 -331 ct 406 -298 396 -271 376 -249 ct 356 -227 325 -213 283 -207 ct 
298 -200 310 -192 317 -185 ct 334 -168 350 -148 365 -124 ct 441 0 l  369 0 l 
311 -95 l  294 -122 280 -143 269 -158 ct 259 -172 249 -182 240 -188 ct 231 -194 223 -198 214 -201 ct 
207 -202 197 -203 182 -203 ct 115 -203 l  115 0 l  p
115 -401 m  115 -256 l  239 -256 l  265 -256 286 -259 300 -264 ct 314 -270 325 -278 333 -290 ct 
340 -303 344 -316 344 -330 ct 344 -351 337 -368 322 -381 ct 307 -395 284 -401 253 -401 ct 
115 -401 l  p ef
727 -106 m  783 -97 l  774 -65 757 -40 733 -22 ct 708 -4 677 4 638 4 ct 590 4 552 -10 523 -39 ct 
495 -69 481 -110 481 -163 ct 481 -217 495 -260 524 -290 ct 553 -320 590 -335 635 -335 ct 
679 -335 715 -320 743 -290 ct 771 -261 785 -219 785 -165 ct 785 -161 785 -156 785 -150 ct 
538 -150 l  540 -117 551 -92 570 -75 ct 588 -57 611 -49 639 -49 ct 660 -49 678 -53 692 -62 ct 
707 -71 719 -86 727 -106 ct p
538 -203 m  728 -203 l  725 -226 718 -244 706 -255 ct 688 -273 664 -282 635 -282 ct 
609 -282 586 -275 568 -261 ct 550 -246 540 -227 538 -203 ct p ef
909 128 m  852 128 l  852 -331 l  909 -331 l  909 -276 l  921 -296 934 -311 949 -320 ct 
963 -330 981 -335 1002 -335 ct 1030 -335 1054 -328 1075 -314 ct 1096 -299 1112 -279 1122 -253 ct 
1133 -227 1138 -199 1138 -168 ct 1138 -135 1132 -105 1120 -78 ct 1108 -51 1091 -31 1068 -17 ct 
1045 -3 1021 4 995 4 ct 977 4 960 0 945 -9 ct 931 -18 918 -30 909 -44 ct 909 128 l 
p
909 -163 m  909 -124 917 -95 934 -76 ct 950 -58 970 -49 994 -49 ct 1018 -49 1038 -58 1055 -77 ct 
1072 -97 1081 -127 1081 -167 ct 1081 -205 1073 -234 1056 -253 ct 1039 -273 1019 -282 996 -282 ct 
973 -282 953 -272 935 -252 ct 918 -231 909 -202 909 -163 ct p ef
1191 -165 m  1191 -226 1208 -270 1241 -299 ct 1268 -323 1302 -335 1342 -335 ct 
1386 -335 1421 -321 1449 -291 ct 1477 -262 1491 -222 1491 -170 ct 1491 -128 1485 -95 1473 -71 ct 
1460 -47 1442 -29 1419 -15 ct 1395 -2 1369 4 1342 4 ct 1297 4 1261 -10 1233 -39 ct 
1205 -69 1191 -111 1191 -165 ct p
1249 -166 m  1249 -126 1258 -97 1275 -78 ct 1293 -58 1315 -49 1342 -49 ct 1368 -49 1390 -58 1408 -78 ct 
1425 -97 1434 -127 1434 -167 ct 1434 -205 1425 -234 1407 -253 ct 1390 -272 1368 -282 1342 -282 ct 
1315 -282 1293 -273 1275 -253 ct 1258 -234 1249 -205 1249 -166 ct p ef
1619 0 m  1562 0 l  1562 -331 l  1611 -331 l  1611 -283 l  1623 -304 1635 -318 1646 -325 ct 
1657 -332 1669 -335 1682 -335 ct 1700 -335 1719 -330 1738 -321 ct 1719 -269 l 
1706 -278 1693 -282 1680 -282 ct 1668 -282 1658 -279 1648 -271 ct 1639 -264 1632 -253 1628 -240 ct 
1622 -220 1619 -198 1619 -174 ct 1619 0 l  p ef
1893 -50 m  1902 -1 l  1886 3 1872 4 1860 4 ct 1840 4 1824 1 1813 -5 ct 1802 -11 1794 -19 1790 -29 ct 
1785 -40 1783 -61 1783 -94 ct 1783 -278 l  1743 -278 l  1743 -331 l  1783 -331 l 
1783 -412 l  1840 -446 l  1840 -331 l  1893 -331 l  1893 -278 l  1840 -278 l 
1840 -92 l  1840 -77 1841 -67 1843 -63 ct 1845 -58 1848 -55 1852 -52 ct 1856 -50 1862 -49 1870 -49 ct 
1876 -49 1884 -49 1893 -50 ct p ef
2007 -397 m  1950 -397 l  1950 -454 l  2007 -454 l  2007 -397 l  p
2007 0 m  1950 0 l  1950 -331 l  2007 -331 l  2007 0 l  p ef
2148 0 m  2091 0 l  2091 -331 l  2148 -331 l  2148 -284 l  2171 -318 2205 -335 2248 -335 ct 
2267 -335 2285 -332 2301 -324 ct 2316 -317 2328 -308 2336 -297 ct 2344 -285 2350 -271 2353 -255 ct 
2355 -245 2356 -227 2356 -202 ct 2356 0 l  2298 0 l  2298 -196 l  2298 -218 2296 -235 2292 -246 ct 
2288 -257 2280 -266 2270 -272 ct 2259 -279 2247 -282 2232 -282 ct 2210 -282 2190 -275 2173 -260 ct 
2157 -245 2148 -217 2148 -176 ct 2148 0 l  p ef
2427 22 m  2485 31 l  2487 46 2493 58 2503 65 ct 2516 75 2535 79 2558 79 ct 
2583 79 2602 75 2616 65 ct 2630 56 2639 43 2644 26 ct 2647 15 2648 -7 2648 -40 ct 
2624 -13 2594 0 2558 0 ct 2514 0 2479 -16 2455 -49 ct 2431 -81 2418 -120 2418 -166 ct 
2418 -197 2424 -226 2435 -252 ct 2446 -279 2462 -299 2482 -314 ct 2503 -328 2527 -335 2555 -335 ct 
2593 -335 2623 -319 2648 -287 ct 2648 -331 l  2705 -331 l  2705 -46 l  2705 5 2700 42 2689 63 ct 
2679 84 2663 101 2640 114 ct 2618 126 2590 132 2557 132 ct 2518 132 2486 123 2462 105 ct 
2438 86 2426 59 2427 22 ct p
2476 -170 m  2476 -129 2484 -99 2500 -81 ct 2517 -62 2537 -53 2562 -53 ct 2586 -53 2606 -62 2623 -81 ct 
2639 -99 2648 -128 2648 -168 ct 2648 -206 2639 -234 2622 -253 ct 2605 -273 2585 -282 2561 -282 ct 
2537 -282 2517 -273 2500 -254 ct 2484 -235 2476 -207 2476 -170 ct p ef
pom
pum
3838 13602 t
115 0 m  53 0 l  53 -454 l  221 -454 l  250 -454 273 -453 288 -450 ct 310 -446 329 -439 343 -429 ct 
358 -418 370 -404 379 -385 ct 388 -366 392 -346 392 -323 ct 392 -285 381 -252 357 -225 ct 
333 -199 290 -185 228 -185 ct 115 -185 l  115 0 l  p
115 -401 m  115 -238 l  228 -238 l  265 -238 292 -245 307 -260 ct 323 -274 331 -295 331 -321 ct 
331 -340 326 -357 317 -370 ct 308 -384 295 -393 280 -397 ct 271 -400 253 -401 226 -401 ct 
115 -401 l  p ef
525 0 m  468 0 l  468 -331 l  517 -331 l  517 -283 l  529 -304 541 -318 552 -325 ct 
563 -332 575 -335 588 -335 ct 606 -335 625 -330 644 -321 ct 625 -269 l  612 -278 599 -282 586 -282 ct 
574 -282 564 -279 554 -271 ct 545 -264 538 -253 534 -240 ct 528 -220 525 -198 525 -174 ct 
525 0 l  p ef
661 -165 m  661 -226 678 -270 711 -299 ct 738 -323 772 -335 812 -335 ct 856 -335 891 -321 919 -291 ct 
947 -262 961 -222 961 -170 ct 961 -128 955 -95 943 -71 ct 930 -47 912 -29 889 -15 ct 
865 -2 839 4 812 4 ct 767 4 731 -10 703 -39 ct 675 -69 661 -111 661 -165 ct p
719 -166 m  719 -126 728 -97 745 -78 ct 763 -58 785 -49 812 -49 ct 838 -49 860 -58 878 -78 ct 
895 -97 904 -127 904 -167 ct 904 -205 895 -234 877 -253 ct 860 -272 838 -282 812 -282 ct 
785 -282 763 -273 745 -253 ct 728 -234 719 -205 719 -166 ct p ef
1244 -123 m  1301 -115 l  1295 -77 1280 -48 1255 -27 ct 1230 -6 1200 4 1164 4 ct 
1119 4 1083 -10 1056 -39 ct 1028 -68 1014 -110 1014 -164 ct 1014 -199 1020 -230 1032 -256 ct 
1044 -283 1061 -302 1085 -315 ct 1109 -329 1135 -335 1163 -335 ct 1198 -335 1227 -326 1249 -309 ct 
1272 -291 1286 -266 1292 -234 ct 1235 -225 l  1230 -244 1221 -258 1209 -268 ct 
1196 -277 1181 -282 1163 -282 ct 1136 -282 1114 -273 1097 -254 ct 1080 -236 1072 -206 1072 -166 ct 
1072 -125 1080 -95 1097 -76 ct 1114 -58 1135 -49 1162 -49 ct 1184 -49 1202 -55 1216 -67 ct 
1231 -79 1240 -98 1244 -123 ct p ef
1574 -106 m  1630 -97 l  1621 -65 1604 -40 1580 -22 ct 1555 -4 1524 4 1485 4 ct 
1437 4 1399 -10 1370 -39 ct 1342 -69 1328 -110 1328 -163 ct 1328 -217 1342 -260 1371 -290 ct 
1400 -320 1437 -335 1482 -335 ct 1526 -335 1562 -320 1590 -290 ct 1618 -261 1632 -219 1632 -165 ct 
1632 -161 1632 -156 1632 -150 ct 1385 -150 l  1387 -117 1398 -92 1417 -75 ct 
1435 -57 1458 -49 1486 -49 ct 1507 -49 1525 -53 1539 -62 ct 1554 -71 1566 -86 1574 -106 ct 
p
1385 -203 m  1575 -203 l  1572 -226 1565 -244 1553 -255 ct 1535 -273 1511 -282 1482 -282 ct 
1456 -282 1433 -275 1415 -261 ct 1397 -246 1387 -227 1385 -203 ct p ef
1968 0 m  1910 0 l  1910 -52 l  1890 -14 1860 4 1820 4 ct 1794 4 1771 -3 1749 -17 ct 
1727 -31 1711 -51 1699 -77 ct 1687 -102 1681 -132 1681 -165 ct 1681 -197 1687 -227 1697 -253 ct 
1708 -280 1725 -300 1747 -314 ct 1768 -328 1793 -335 1820 -335 ct 1840 -335 1857 -330 1873 -321 ct 
1888 -311 1901 -299 1910 -283 ct 1910 -454 l  1968 -454 l  1968 0 l  p
1738 -165 m  1738 -126 1747 -97 1764 -78 ct 1781 -58 1802 -49 1825 -49 ct 1849 -49 1869 -58 1886 -76 ct 
1902 -95 1910 -123 1910 -161 ct 1910 -203 1902 -233 1885 -253 ct 1868 -272 1848 -282 1823 -282 ct 
1799 -282 1779 -273 1763 -254 ct 1746 -235 1738 -206 1738 -165 ct p ef
2321 0 m  2263 0 l  2263 -56 l  2239 -16 2206 4 2164 4 ct 2145 4 2128 1 2112 -7 ct 
2095 -14 2084 -23 2076 -35 ct 2068 -46 2063 -60 2059 -76 ct 2057 -87 2056 -104 2056 -128 ct 
2056 -331 l  2113 -331 l  2113 -152 l  2113 -124 2115 -104 2117 -95 ct 2120 -80 2127 -69 2138 -61 ct 
2149 -53 2163 -49 2179 -49 ct 2195 -49 2210 -53 2224 -61 ct 2239 -70 2249 -81 2255 -95 ct 
2260 -110 2263 -131 2263 -158 ct 2263 -331 l  2321 -331 l  2321 0 l  p ef
2466 0 m  2409 0 l  2409 -331 l  2458 -331 l  2458 -283 l  2470 -304 2482 -318 2493 -325 ct 
2504 -332 2516 -335 2529 -335 ct 2547 -335 2566 -330 2585 -321 ct 2566 -269 l 
2553 -278 2540 -282 2527 -282 ct 2515 -282 2505 -279 2495 -271 ct 2486 -264 2479 -253 2475 -240 ct 
2469 -220 2466 -198 2466 -174 ct 2466 0 l  p ef
2845 -106 m  2901 -97 l  2892 -65 2875 -40 2851 -22 ct 2826 -4 2795 4 2756 4 ct 
2708 4 2670 -10 2641 -39 ct 2613 -69 2599 -110 2599 -163 ct 2599 -217 2613 -260 2642 -290 ct 
2671 -320 2708 -335 2753 -335 ct 2797 -335 2833 -320 2861 -290 ct 2889 -261 2903 -219 2903 -165 ct 
2903 -161 2903 -156 2903 -150 ct 2656 -150 l  2658 -117 2669 -92 2688 -75 ct 
2706 -57 2729 -49 2757 -49 ct 2778 -49 2796 -53 2810 -62 ct 2825 -71 2837 -86 2845 -106 ct 
p
2656 -203 m  2846 -203 l  2843 -226 2836 -244 2824 -255 ct 2806 -273 2782 -282 2753 -282 ct 
2727 -282 2704 -275 2686 -261 ct 2668 -246 2658 -227 2656 -203 ct p ef
2952 -101 m  3009 -110 l  3012 -90 3021 -75 3034 -64 ct 3048 -54 3067 -49 3091 -49 ct 
3116 -49 3134 -53 3146 -62 ct 3158 -71 3164 -82 3164 -94 ct 3164 -105 3157 -114 3144 -120 ct 
3134 -125 3116 -130 3089 -137 ct 3053 -147 3026 -156 3010 -164 ct 2994 -171 2982 -182 2973 -195 ct 
2965 -209 2961 -223 2961 -240 ct 2961 -255 2964 -268 2971 -281 ct 2977 -293 2986 -304 2997 -312 ct 
3005 -318 3017 -324 3031 -328 ct 3046 -333 3061 -335 3078 -335 ct 3103 -335 3124 -331 3143 -323 ct 
3162 -316 3176 -305 3185 -292 ct 3194 -278 3200 -260 3203 -238 ct 3146 -229 l 
3144 -246 3137 -259 3127 -268 ct 3116 -278 3101 -282 3082 -282 ct 3059 -282 3043 -279 3033 -271 ct 
3023 -264 3018 -255 3018 -245 ct 3018 -239 3020 -234 3024 -229 ct 3028 -223 3035 -219 3043 -216 ct 
3048 -214 3063 -210 3087 -203 ct 3123 -193 3149 -184 3166 -177 ct 3183 -171 3197 -161 3206 -148 ct 
3216 -135 3221 -119 3221 -100 ct 3221 -81 3216 -64 3205 -47 ct 3194 -31 3179 -18 3159 -9 ct 
3139 0 3116 4 3091 4 ct 3048 4 3016 -4 2994 -22 ct 2972 -40 2958 -66 2952 -101 ct 
p ef
pom
9550 8000 m  8307 8000 7300 7328 7300 6500 ct 7300 5672 8307 5000 9550 5000 ct 
10793 5000 11800 5672 11800 6500 ct 11800 7328 10793 8000 9550 8000 ct pc
pum
8174 6365 t
115 0 m  53 0 l  53 -454 l  250 -454 l  289 -454 319 -450 339 -442 ct 359 -434 375 -420 388 -399 ct 
400 -378 406 -356 406 -331 ct 406 -298 396 -271 376 -249 ct 356 -227 325 -213 283 -207 ct 
298 -200 310 -192 317 -185 ct 334 -168 350 -148 365 -124 ct 441 0 l  369 0 l 
311 -95 l  294 -122 280 -143 269 -158 ct 259 -172 249 -182 240 -188 ct 231 -194 223 -198 214 -201 ct 
207 -202 197 -203 182 -203 ct 115 -203 l  115 0 l  p
115 -401 m  115 -256 l  239 -256 l  265 -256 286 -259 300 -264 ct 314 -270 325 -278 333 -290 ct 
340 -303 344 -316 344 -330 ct 344 -351 337 -368 322 -381 ct 307 -395 284 -401 253 -401 ct 
115 -401 l  p ef
727 -106 m  783 -97 l  774 -65 757 -40 733 -22 ct 708 -4 677 4 638 4 ct 590 4 552 -10 523 -39 ct 
495 -69 481 -110 481 -163 ct 481 -217 495 -260 524 -290 ct 553 -320 590 -335 635 -335 ct 
679 -335 715 -320 743 -290 ct 771 -261 785 -219 785 -165 ct 785 -161 785 -156 785 -150 ct 
538 -150 l  540 -117 551 -92 570 -75 ct 588 -57 611 -49 639 -49 ct 660 -49 678 -53 692 -62 ct 
707 -71 719 -86 727 -106 ct p
538 -203 m  728 -203 l  725 -226 718 -244 706 -255 ct 688 -273 664 -282 635 -282 ct 
609 -282 586 -275 568 -261 ct 550 -246 540 -227 538 -203 ct p ef
909 128 m  852 128 l  852 -331 l  909 -331 l  909 -276 l  921 -296 934 -311 949 -320 ct 
963 -330 981 -335 1002 -335 ct 1030 -335 1054 -328 1075 -314 ct 1096 -299 1112 -279 1122 -253 ct 
1133 -227 1138 -199 1138 -168 ct 1138 -135 1132 -105 1120 -78 ct 1108 -51 1091 -31 1068 -17 ct 
1045 -3 1021 4 995 4 ct 977 4 960 0 945 -9 ct 931 -18 918 -30 909 -44 ct 909 128 l 
p
909 -163 m  909 -124 917 -95 934 -76 ct 950 -58 970 -49 994 -49 ct 1018 -49 1038 -58 1055 -77 ct 
1072 -97 1081 -127 1081 -167 ct 1081 -205 1073 -234 1056 -253 ct 1039 -273 1019 -282 996 -282 ct 
973 -282 953 -272 935 -252 ct 918 -231 909 -202 909 -163 ct p ef
1191 -165 m  1191 -226 1208 -270 1241 -299 ct 1268 -323 1302 -335 1342 -335 ct 
1386 -335 1421 -321 1449 -291 ct 1477 -262 1491 -222 1491 -170 ct 1491 -128 1485 -95 1473 -71 ct 
1460 -47 1442 -29 1419 -15 ct 1395 -2 1369 4 1342 4 ct 1297 4 1261 -10 1233 -39 ct 
1205 -69 1191 -111 1191 -165 ct p
1249 -166 m  1249 -126 1258 -97 1275 -78 ct 1293 -58 1315 -49 1342 -49 ct 1368 -49 1390 -58 1408 -78 ct 
1425 -97 1434 -127 1434 -167 ct 1434 -205 1425 -234 1407 -253 ct 1390 -272 1368 -282 1342 -282 ct 
1315 -282 1293 -273 1275 -253 ct 1258 -234 1249 -205 1249 -166 ct p ef
1619 0 m  1562 0 l  1562 -331 l  1611 -331 l  1611 -283 l  1623 -304 1635 -318 1646 -325 ct 
1657 -332 1669 -335 1682 -335 ct 1700 -335 1719 -330 1738 -321 ct 1719 -269 l 
1706 -278 1693 -282 1680 -282 ct 1668 -282 1658 -279 1648 -271 ct 1639 -264 1632 -253 1628 -240 ct 
1622 -220 1619 -198 1619 -174 ct 1619 0 l  p ef
1893 -50 m  1902 -1 l  1886 3 1872 4 1860 4 ct 1840 4 1824 1 1813 -5 ct 1802 -11 1794 -19 1790 -29 ct 
1785 -40 1783 -61 1783 -94 ct 1783 -278 l  1743 -278 l  1743 -331 l  1783 -331 l 
1783 -412 l  1840 -446 l  1840 -331 l  1893 -331 l  1893 -278 l  1840 -278 l 
1840 -92 l  1840 -77 1841 -67 1843 -63 ct 1845 -58 1848 -55 1852 -52 ct 1856 -50 1862 -49 1870 -49 ct 
1876 -49 1884 -49 1893 -50 ct p ef
2007 -397 m  1950 -397 l  1950 -454 l  2007 -454 l  2007 -397 l  p
2007 0 m  1950 0 l  1950 -331 l  2007 -331 l  2007 0 l  p ef
2148 0 m  2091 0 l  2091 -331 l  2148 -331 l  2148 -284 l  2171 -318 2205 -335 2248 -335 ct 
2267 -335 2285 -332 2301 -324 ct 2316 -317 2328 -308 2336 -297 ct 2344 -285 2350 -271 2353 -255 ct 
2355 -245 2356 -227 2356 -202 ct 2356 0 l  2298 0 l  2298 -196 l  2298 -218 2296 -235 2292 -246 ct 
2288 -257 2280 -266 2270 -272 ct 2259 -279 2247 -282 2232 -282 ct 2210 -282 2190 -275 2173 -260 ct 
2157 -245 2148 -217 2148 -176 ct 2148 0 l  p ef
2427 22 m  2485 31 l  2487 46 2493 58 2503 65 ct 2516 75 2535 79 2558 79 ct 
2583 79 2602 75 2616 65 ct 2630 56 2639 43 2644 26 ct 2647 15 2648 -7 2648 -40 ct 
2624 -13 2594 0 2558 0 ct 2514 0 2479 -16 2455 -49 ct 2431 -81 2418 -120 2418 -166 ct 
2418 -197 2424 -226 2435 -252 ct 2446 -279 2462 -299 2482 -314 ct 2503 -328 2527 -335 2555 -335 ct 
2593 -335 2623 -319 2648 -287 ct 2648 -331 l  2705 -331 l  2705 -46 l  2705 5 2700 42 2689 63 ct 
2679 84 2663 101 2640 114 ct 2618 126 2590 132 2557 132 ct 2518 132 2486 123 2462 105 ct 
2438 86 2426 59 2427 22 ct p
2476 -170 m  2476 -129 2484 -99 2500 -81 ct 2517 -62 2537 -53 2562 -53 ct 2586 -53 2606 -62 2623 -81 ct 
2639 -99 2648 -128 2648 -168 ct 2648 -206 2639 -234 2622 -253 ct 2605 -273 2585 -282 2561 -282 ct 
2537 -282 2517 -273 2500 -254 ct 2484 -235 2476 -207 2476 -170 ct p ef
pom
pum
8879 7076 t
344 -193 m  344 -454 l  406 -454 l  406 -191 l  406 -145 401 -109 390 -82 ct 
380 -55 362 -33 335 -17 ct 309 0 274 9 230 9 ct 188 9 154 1 127 -13 ct 101 -28 81 -49 70 -77 ct 
59 -105 53 -143 53 -191 ct 53 -454 l  115 -454 l  115 -193 l  115 -154 118 -125 125 -107 ct 
132 -88 145 -74 162 -64 ct 179 -54 200 -49 225 -49 ct 268 -49 298 -58 317 -78 ct 
335 -98 344 -137 344 -193 ct p ef
481 -101 m  538 -110 l  541 -90 550 -75 563 -64 ct 577 -54 596 -49 620 -49 ct 
645 -49 663 -53 675 -62 ct 687 -71 693 -82 693 -94 ct 693 -105 686 -114 673 -120 ct 
663 -125 645 -130 618 -137 ct 582 -147 555 -156 539 -164 ct 523 -171 511 -182 502 -195 ct 
494 -209 490 -223 490 -240 ct 490 -255 493 -268 500 -281 ct 506 -293 515 -304 526 -312 ct 
534 -318 546 -324 560 -328 ct 575 -333 590 -335 607 -335 ct 632 -335 653 -331 672 -323 ct 
691 -316 705 -305 714 -292 ct 723 -278 729 -260 732 -238 ct 675 -229 l  673 -246 666 -259 656 -268 ct 
645 -278 630 -282 611 -282 ct 588 -282 572 -279 562 -271 ct 552 -264 547 -255 547 -245 ct 
547 -239 549 -234 553 -229 ct 557 -223 564 -219 572 -216 ct 577 -214 592 -210 616 -203 ct 
652 -193 678 -184 695 -177 ct 712 -171 726 -161 735 -148 ct 745 -135 750 -119 750 -100 ct 
750 -81 745 -64 734 -47 ct 723 -31 708 -18 688 -9 ct 668 0 645 4 620 4 ct 577 4 545 -4 523 -22 ct 
501 -40 487 -66 481 -101 ct p ef
1044 -106 m  1100 -97 l  1091 -65 1074 -40 1050 -22 ct 1025 -4 994 4 955 4 ct 
907 4 869 -10 840 -39 ct 812 -69 798 -110 798 -163 ct 798 -217 812 -260 841 -290 ct 
870 -320 907 -335 952 -335 ct 996 -335 1032 -320 1060 -290 ct 1088 -261 1102 -219 1102 -165 ct 
1102 -161 1102 -156 1102 -150 ct 855 -150 l  857 -117 868 -92 887 -75 ct 905 -57 928 -49 956 -49 ct 
977 -49 995 -53 1009 -62 ct 1024 -71 1036 -86 1044 -106 ct p
855 -203 m  1045 -203 l  1042 -226 1035 -244 1023 -255 ct 1005 -273 981 -282 952 -282 ct 
926 -282 903 -275 885 -261 ct 867 -246 857 -227 855 -203 ct p ef
1230 0 m  1173 0 l  1173 -331 l  1222 -331 l  1222 -283 l  1234 -304 1246 -318 1257 -325 ct 
1268 -332 1280 -335 1293 -335 ct 1311 -335 1330 -330 1349 -321 ct 1330 -269 l 
1317 -278 1304 -282 1291 -282 ct 1279 -282 1269 -279 1259 -271 ct 1250 -264 1243 -253 1239 -240 ct 
1233 -220 1230 -198 1230 -174 ct 1230 0 l  p ef
pom
0.500 c 11900 19550 m  11703 19550 l  11703 19500 l  11703 19450 l  11900 19450 l 
11900 19500 l  11900 19550 l  p ef
11506 19550 m  11309 19550 l  11309 19500 l  11309 19450 l  11506 19450 l 
11506 19500 l  11506 19550 l  p ef
11112 19550 m  10915 19550 l  10915 19500 l  10915 19450 l  11112 19450 l 
11112 19500 l  11112 19550 l  p ef
10718 19550 m  10521 19550 l  10521 19500 l  10521 19450 l  10718 19450 l 
10718 19500 l  10718 19550 l  p ef
10324 19550 m  10127 19550 l  10127 19500 l  10127 19450 l  10324 19450 l 
10324 19500 l  10324 19550 l  p ef
9930 19550 m  9733 19550 l  9733 19500 l  9733 19450 l  9930 19450 l  9930 19500 l 
9930 19550 l  p ef
9536 19550 m  9339 19550 l  9339 19500 l  9339 19450 l  9536 19450 l  9536 19500 l 
9536 19550 l  p ef
9142 19550 m  8945 19550 l  8945 19500 l  8945 19450 l  9142 19450 l  9142 19500 l 
9142 19550 l  p ef
8748 19550 m  8551 19550 l  8551 19500 l  8551 19450 l  8748 19450 l  8748 19500 l 
8748 19550 l  p ef
8354 19550 m  8157 19550 l  8157 19500 l  8157 19450 l  8354 19450 l  8354 19500 l 
8354 19550 l  p ef
7960 19550 m  7763 19550 l  7763 19500 l  7763 19450 l  7960 19450 l  7960 19500 l 
7960 19550 l  p ef
7566 19550 m  7369 19550 l  7369 19500 l  7369 19450 l  7566 19450 l  7566 19500 l 
7566 19550 l  p ef
7172 19550 m  6975 19550 l  6975 19500 l  6975 19450 l  7172 19450 l  7172 19500 l 
7172 19550 l  p ef
6778 19550 m  6581 19550 l  6581 19500 l  6581 19450 l  6778 19450 l  6778 19500 l 
6778 19550 l  p ef
6384 19550 m  6187 19550 l  6187 19500 l  6187 19450 l  6384 19450 l  6384 19500 l 
6384 19550 l  p ef
5990 19550 m  5793 19550 l  5793 19500 l  5793 19450 l  5990 19450 l  5990 19500 l 
5990 19550 l  p ef
5596 19550 m  5399 19550 l  5399 19500 l  5399 19450 l  5596 19450 l  5596 19500 l 
5596 19550 l  p ef
5202 19550 m  5005 19550 l  5005 19500 l  5005 19450 l  5202 19450 l  5202 19500 l 
5202 19550 l  p ef
4808 19550 m  4611 19550 l  4611 19500 l  4611 19450 l  4808 19450 l  4808 19500 l 
4808 19550 l  p ef
4414 19550 m  4217 19550 l  4217 19500 l  4217 19450 l  4414 19450 l  4414 19500 l 
4414 19550 l  p ef
4020 19550 m  3823 19550 l  3823 19500 l  3823 19450 l  4020 19450 l  4020 19500 l 
4020 19550 l  p ef
3626 19550 m  3429 19550 l  3429 19500 l  3429 19450 l  3626 19450 l  3626 19500 l 
3626 19550 l  p ef
3232 19550 m  3035 19550 l  3035 19500 l  3035 19450 l  3232 19450 l  3232 19500 l 
3232 19550 l  p ef
2838 19550 m  2641 19550 l  2641 19500 l  2641 19450 l  2838 19450 l  2838 19500 l 
2838 19550 l  p ef
2444 19550 m  2300 19550 l  2300 19500 l  2300 19450 l  2444 19450 l  2444 19500 l 
2444 19550 l  p ef
2300 19550 m  2272 19550 2250 19528 2250 19500 ct 2300 19500 l  2300 19550 l 
p ef
2250 19500 m  2250 19447 l  2300 19447 l  2350 19447 l  2350 19500 l  2300 19500 l 
2250 19500 l  p ef
2250 19250 m  2250 19053 l  2300 19053 l  2350 19053 l  2350 19250 l  2300 19250 l 
2250 19250 l  p ef
2250 18856 m  2250 18659 l  2300 18659 l  2350 18659 l  2350 18856 l  2300 18856 l 
2250 18856 l  p ef
2250 18462 m  2250 18265 l  2300 18265 l  2350 18265 l  2350 18462 l  2300 18462 l 
2250 18462 l  p ef
2250 18068 m  2250 17871 l  2300 17871 l  2350 17871 l  2350 18068 l  2300 18068 l 
2250 18068 l  p ef
2250 17674 m  2250 17477 l  2300 17477 l  2350 17477 l  2350 17674 l  2300 17674 l 
2250 17674 l  p ef
2250 17280 m  2250 17083 l  2300 17083 l  2350 17083 l  2350 17280 l  2300 17280 l 
2250 17280 l  p ef
2250 16886 m  2250 16689 l  2300 16689 l  2350 16689 l  2350 16886 l  2300 16886 l 
2250 16886 l  p ef
2250 16492 m  2250 16295 l  2300 16295 l  2350 16295 l  2350 16492 l  2300 16492 l 
2250 16492 l  p ef
2250 16098 m  2250 15901 l  2300 15901 l  2350 15901 l  2350 16098 l  2300 16098 l 
2250 16098 l  p ef
2250 15704 m  2250 15507 l  2300 15507 l  2350 15507 l  2350 15704 l  2300 15704 l 
2250 15704 l  p ef
2250 15310 m  2250 15113 l  2300 15113 l  2350 15113 l  2350 15310 l  2300 15310 l 
2250 15310 l  p ef
2250 14916 m  2250 14719 l  2300 14719 l  2350 14719 l  2350 14916 l  2300 14916 l 
2250 14916 l  p ef
2250 14522 m  2250 14325 l  2300 14325 l  2350 14325 l  2350 14522 l  2300 14522 l 
2250 14522 l  p ef
2250 14128 m  2250 13931 l  2300 13931 l  2350 13931 l  2350 14128 l  2300 14128 l 
2250 14128 l  p ef
2250 13734 m  2250 13537 l  2300 13537 l  2350 13537 l  2350 13734 l  2300 13734 l 
2250 13734 l  p ef
2250 13340 m  2250 13143 l  2300 13143 l  2350 13143 l  2350 13340 l  2300 13340 l 
2250 13340 l  p ef
2250 12946 m  2250 12749 l  2300 12749 l  2350 12749 l  2350 12946 l  2300 12946 l 
2250 12946 l  p ef
2250 12552 m  2250 12355 l  2300 12355 l  2350 12355 l  2350 12552 l  2300 12552 l 
2250 12552 l  p ef
2250 12158 m  2250 11961 l  2300 11961 l  2350 11961 l  2350 12158 l  2300 12158 l 
2250 12158 l  p ef
2250 11764 m  2250 11567 l  2300 11567 l  2350 11567 l  2350 11764 l  2300 11764 l 
2250 11764 l  p ef
2250 11370 m  2250 11173 l  2300 11173 l  2350 11173 l  2350 11370 l  2300 11370 l 
2250 11370 l  p ef
2250 10976 m  2250 10779 l  2300 10779 l  2350 10779 l  2350 10976 l  2300 10976 l 
2250 10976 l  p ef
2250 10582 m  2250 10385 l  2300 10385 l  2350 10385 l  2350 10582 l  2300 10582 l 
2250 10582 l  p ef
2250 10188 m  2250 10000 l  2300 10000 l  2350 10000 l  2350 10188 l  2300 10188 l 
2250 10188 l  p ef
2250 10000 m  2250 9972 2272 9950 2300 9950 ct 2300 10000 l  2250 10000 l 
p ef
2300 9950 m  2309 9950 l  2309 10000 l  2309 10050 l  2300 10050 l  2300 10000 l 
2300 9950 l  p ef
2506 9950 m  2703 9950 l  2703 10000 l  2703 10050 l  2506 10050 l  2506 10000 l 
2506 9950 l  p ef
2900 9950 m  3097 9950 l  3097 10000 l  3097 10050 l  2900 10050 l  2900 10000 l 
2900 9950 l  p ef
3294 9950 m  3491 9950 l  3491 10000 l  3491 10050 l  3294 10050 l  3294 10000 l 
3294 9950 l  p ef
3688 9950 m  3885 9950 l  3885 10000 l  3885 10050 l  3688 10050 l  3688 10000 l 
3688 9950 l  p ef
4082 9950 m  4279 9950 l  4279 10000 l  4279 10050 l  4082 10050 l  4082 10000 l 
4082 9950 l  p ef
4476 9950 m  4673 9950 l  4673 10000 l  4673 10050 l  4476 10050 l  4476 10000 l 
4476 9950 l  p ef
4870 9950 m  5067 9950 l  5067 10000 l  5067 10050 l  4870 10050 l  4870 10000 l 
4870 9950 l  p ef
5264 9950 m  5461 9950 l  5461 10000 l  5461 10050 l  5264 10050 l  5264 10000 l 
5264 9950 l  p ef
5658 9950 m  5855 9950 l  5855 10000 l  5855 10050 l  5658 10050 l  5658 10000 l 
5658 9950 l  p ef
6052 9950 m  6249 9950 l  6249 10000 l  6249 10050 l  6052 10050 l  6052 10000 l 
6052 9950 l  p ef
6446 9950 m  6643 9950 l  6643 10000 l  6643 10050 l  6446 10050 l  6446 10000 l 
6446 9950 l  p ef
6840 9950 m  7037 9950 l  7037 10000 l  7037 10050 l  6840 10050 l  6840 10000 l 
6840 9950 l  p ef
7234 9950 m  7431 9950 l  7431 10000 l  7431 10050 l  7234 10050 l  7234 10000 l 
7234 9950 l  p ef
7628 9950 m  7825 9950 l  7825 10000 l  7825 10050 l  7628 10050 l  7628 10000 l 
7628 9950 l  p ef
8022 9950 m  8219 9950 l  8219 10000 l  8219 10050 l  8022 10050 l  8022 10000 l 
8022 9950 l  p ef
8416 9950 m  8613 9950 l  8613 10000 l  8613 10050 l  8416 10050 l  8416 10000 l 
8416 9950 l  p ef
8810 9950 m  9007 9950 l  9007 10000 l  9007 10050 l  8810 10050 l  8810 10000 l 
8810 9950 l  p ef
9204 9950 m  9401 9950 l  9401 10000 l  9401 10050 l  9204 10050 l  9204 10000 l 
9204 9950 l  p ef
9598 9950 m  9795 9950 l  9795 10000 l  9795 10050 l  9598 10050 l  9598 10000 l 
9598 9950 l  p ef
9992 9950 m  10189 9950 l  10189 10000 l  10189 10050 l  9992 10050 l 
9992 10000 l  9992 9950 l  p ef
10386 9950 m  10583 9950 l  10583 10000 l  10583 10050 l  10386 10050 l 
10386 10000 l  10386 9950 l  p ef
10780 9950 m  10977 9950 l  10977 10000 l  10977 10050 l  10780 10050 l 
10780 10000 l  10780 9950 l  p ef
11174 9950 m  11371 9950 l  11371 10000 l  11371 10050 l  11174 10050 l 
11174 10000 l  11174 9950 l  p ef
11568 9950 m  11765 9950 l  11765 10000 l  11765 10050 l  11568 10050 l 
11568 10000 l  11568 9950 l  p ef
11962 9950 m  12159 9950 l  12159 10000 l  12159 10050 l  11962 10050 l 
11962 10000 l  11962 9950 l  p ef
12356 9950 m  12553 9950 l  12553 10000 l  12553 10050 l  12356 10050 l 
12356 10000 l  12356 9950 l  p ef
12750 9950 m  12947 9950 l  12947 10000 l  12947 10050 l  12750 10050 l 
12750 10000 l  12750 9950 l  p ef
13144 9950 m  13341 9950 l  13341 10000 l  13341 10050 l  13144 10050 l 
13144 10000 l  13144 9950 l  p ef
13538 9950 m  13735 9950 l  13735 10000 l  13735 10050 l  13538 10050 l 
13538 10000 l  13538 9950 l  p ef
13932 9950 m  14129 9950 l  14129 10000 l  14129 10050 l  13932 10050 l 
13932 10000 l  13932 9950 l  p ef
14326 9950 m  14523 9950 l  14523 10000 l  14523 10050 l  14326 10050 l 
14326 10000 l  14326 9950 l  p ef
14720 9950 m  14917 9950 l  14917 10000 l  14917 10050 l  14720 10050 l 
14720 10000 l  14720 9950 l  p ef
15114 9950 m  15311 9950 l  15311 10000 l  15311 10050 l  15114 10050 l 
15114 10000 l  15114 9950 l  p ef
15508 9950 m  15705 9950 l  15705 10000 l  15705 10050 l  15508 10050 l 
15508 10000 l  15508 9950 l  p ef
15902 9950 m  16099 9950 l  16099 10000 l  16099 10050 l  15902 10050 l 
15902 10000 l  15902 9950 l  p ef
16296 9950 m  16493 9950 l  16493 10000 l  16493 10050 l  16296 10050 l 
16296 10000 l  16296 9950 l  p ef
16690 9950 m  16887 9950 l  16887 10000 l  16887 10050 l  16690 10050 l 
16690 10000 l  16690 9950 l  p ef
17084 9950 m  17281 9950 l  17281 10000 l  17281 10050 l  17084 10050 l 
17084 10000 l  17084 9950 l  p ef
17478 9950 m  17675 9950 l  17675 10000 l  17675 10050 l  17478 10050 l 
17478 10000 l  17478 9950 l  p ef
17872 9950 m  18069 9950 l  18069 10000 l  18069 10050 l  17872 10050 l 
17872 10000 l  17872 9950 l  p ef
18266 9950 m  18463 9950 l  18463 10000 l  18463 10050 l  18266 10050 l 
18266 10000 l  18266 9950 l  p ef
18660 9950 m  18857 9950 l  18857 10000 l  18857 10050 l  18660 10050 l 
18660 10000 l  18660 9950 l  p ef
19054 9950 m  19251 9950 l  19251 10000 l  19251 10050 l  19054 10050 l 
19054 10000 l  19054 9950 l  p ef
19448 9950 m  19645 9950 l  19645 10000 l  19645 10050 l  19448 10050 l 
19448 10000 l  19448 9950 l  p ef
19842 9950 m  20039 9950 l  20039 10000 l  20039 10050 l  19842 10050 l 
19842 10000 l  19842 9950 l  p ef
20236 9950 m  20433 9950 l  20433 10000 l  20433 10050 l  20236 10050 l 
20236 10000 l  20236 9950 l  p ef
20630 9950 m  20827 9950 l  20827 10000 l  20827 10050 l  20630 10050 l 
20630 10000 l  20630 9950 l  p ef
21024 9950 m  21221 9950 l  21221 10000 l  21221 10050 l  21024 10050 l 
21024 10000 l  21024 9950 l  p ef
21418 9950 m  21500 9950 l  21500 10000 l  21500 10050 l  21418 10050 l 
21418 10000 l  21418 9950 l  p ef
21500 9950 m  21528 9950 21550 9972 21550 10000 ct 21500 10000 l  21500 9950 l 
p ef
21550 10000 m  21550 10115 l  21500 10115 l  21450 10115 l  21450 10000 l 
21500 10000 l  21550 10000 l  p ef
21550 10312 m  21550 10509 l  21500 10509 l  21450 10509 l  21450 10312 l 
21500 10312 l  21550 10312 l  p ef
21550 10706 m  21550 10903 l  21500 10903 l  21450 10903 l  21450 10706 l 
21500 10706 l  21550 10706 l  p ef
21550 11100 m  21550 11297 l  21500 11297 l  21450 11297 l  21450 11100 l 
21500 11100 l  21550 11100 l  p ef
21550 11494 m  21550 11691 l  21500 11691 l  21450 11691 l  21450 11494 l 
21500 11494 l  21550 11494 l  p ef
21550 11888 m  21550 12085 l  21500 12085 l  21450 12085 l  21450 11888 l 
21500 11888 l  21550 11888 l  p ef
21550 12282 m  21550 12479 l  21500 12479 l  21450 12479 l  21450 12282 l 
21500 12282 l  21550 12282 l  p ef
21550 12676 m  21550 12873 l  21500 12873 l  21450 12873 l  21450 12676 l 
21500 12676 l  21550 12676 l  p ef
21550 13070 m  21550 13267 l  21500 13267 l  21450 13267 l  21450 13070 l 
21500 13070 l  21550 13070 l  p ef
21550 13464 m  21550 13661 l  21500 13661 l  21450 13661 l  21450 13464 l 
21500 13464 l  21550 13464 l  p ef
21550 13858 m  21550 14055 l  21500 14055 l  21450 14055 l  21450 13858 l 
21500 13858 l  21550 13858 l  p ef
21550 14252 m  21550 14449 l  21500 14449 l  21450 14449 l  21450 14252 l 
21500 14252 l  21550 14252 l  p ef
21550 14646 m  21550 14843 l  21500 14843 l  21450 14843 l  21450 14646 l 
21500 14646 l  21550 14646 l  p ef
21550 15040 m  21550 15237 l  21500 15237 l  21450 15237 l  21450 15040 l 
21500 15040 l  21550 15040 l  p ef
21550 15434 m  21550 15631 l  21500 15631 l  21450 15631 l  21450 15434 l 
21500 15434 l  21550 15434 l  p ef
21550 15828 m  21550 16025 l  21500 16025 l  21450 16025 l  21450 15828 l 
21500 15828 l  21550 15828 l  p ef
21550 16222 m  21550 16419 l  21500 16419 l  21450 16419 l  21450 16222 l 
21500 16222 l  21550 16222 l  p ef
21550 16616 m  21550 16813 l  21500 16813 l  21450 16813 l  21450 16616 l 
21500 16616 l  21550 16616 l  p ef
21550 17010 m  21550 17207 l  21500 17207 l  21450 17207 l  21450 17010 l 
21500 17010 l  21550 17010 l  p ef
21550 17404 m  21550 17601 l  21500 17601 l  21450 17601 l  21450 17404 l 
21500 17404 l  21550 17404 l  p ef
21550 17798 m  21550 17995 l  21500 17995 l  21450 17995 l  21450 17798 l 
21500 17798 l  21550 17798 l  p ef
21550 18192 m  21550 18389 l  21500 18389 l  21450 18389 l  21450 18192 l 
21500 18192 l  21550 18192 l  p ef
21550 18586 m  21550 18783 l  21500 18783 l  21450 18783 l  21450 18586 l 
21500 18586 l  21550 18586 l  p ef
21550 18980 m  21550 19177 l  21500 19177 l  21450 19177 l  21450 18980 l 
21500 18980 l  21550 18980 l  p ef
21550 19374 m  21550 19500 l  21500 19500 l  21450 19500 l  21450 19374 l 
21500 19374 l  21550 19374 l  p ef
21550 19500 m  21550 19528 21528 19550 21500 19550 ct 21500 19500 l  21550 19500 l 
p ef
21500 19550 m  21429 19550 l  21429 19500 l  21429 19450 l  21500 19450 l 
21500 19500 l  21500 19550 l  p ef
21232 19550 m  21035 19550 l  21035 19500 l  21035 19450 l  21232 19450 l 
21232 19500 l  21232 19550 l  p ef
20838 19550 m  20641 19550 l  20641 19500 l  20641 19450 l  20838 19450 l 
20838 19500 l  20838 19550 l  p ef
20444 19550 m  20247 19550 l  20247 19500 l  20247 19450 l  20444 19450 l 
20444 19500 l  20444 19550 l  p ef
20050 19550 m  19853 19550 l  19853 19500 l  19853 19450 l  20050 19450 l 
20050 19500 l  20050 19550 l  p ef
19656 19550 m  19459 19550 l  19459 19500 l  19459 19450 l  19656 19450 l 
19656 19500 l  19656 19550 l  p ef
19262 19550 m  19065 19550 l  19065 19500 l  19065 19450 l  19262 19450 l 
19262 19500 l  19262 19550 l  p ef
18868 19550 m  18671 19550 l  18671 19500 l  18671 19450 l  18868 19450 l 
18868 19500 l  18868 19550 l  p ef
18474 19550 m  18277 19550 l  18277 19500 l  18277 19450 l  18474 19450 l 
18474 19500 l  18474 19550 l  p ef
18080 19550 m  17883 19550 l  17883 19500 l  17883 19450 l  18080 19450 l 
18080 19500 l  18080 19550 l  p ef
17686 19550 m  17489 19550 l  17489 19500 l  17489 19450 l  17686 19450 l 
17686 19500 l  17686 19550 l  p ef
17292 19550 m  17095 19550 l  17095 19500 l  17095 19450 l  17292 19450 l 
17292 19500 l  17292 19550 l  p ef
16898 19550 m  16701 19550 l  16701 19500 l  16701 19450 l  16898 19450 l 
16898 19500 l  16898 19550 l  p ef
16504 19550 m  16307 19550 l  16307 19500 l  16307 19450 l  16504 19450 l 
16504 19500 l  16504 19550 l  p ef
16110 19550 m  15913 19550 l  15913 19500 l  15913 19450 l  16110 19450 l 
16110 19500 l  16110 19550 l  p ef
15716 19550 m  15519 19550 l  15519 19500 l  15519 19450 l  15716 19450 l 
15716 19500 l  15716 19550 l  p ef
15322 19550 m  15125 19550 l  15125 19500 l  15125 19450 l  15322 19450 l 
15322 19500 l  15322 19550 l  p ef
14928 19550 m  14731 19550 l  14731 19500 l  14731 19450 l  14928 19450 l 
14928 19500 l  14928 19550 l  p ef
14534 19550 m  14337 19550 l  14337 19500 l  14337 19450 l  14534 19450 l 
14534 19500 l  14534 19550 l  p ef
14140 19550 m  13943 19550 l  13943 19500 l  13943 19450 l  14140 19450 l 
14140 19500 l  14140 19550 l  p ef
13746 19550 m  13549 19550 l  13549 19500 l  13549 19450 l  13746 19450 l 
13746 19500 l  13746 19550 l  p ef
13352 19550 m  13155 19550 l  13155 19500 l  13155 19450 l  13352 19450 l 
13352 19500 l  13352 19550 l  p ef
12958 19550 m  12761 19550 l  12761 19500 l  12761 19450 l  12958 19450 l 
12958 19500 l  12958 19550 l  p ef
12564 19550 m  12367 19550 l  12367 19500 l  12367 19450 l  12564 19450 l 
12564 19500 l  12564 19550 l  p ef
12170 19550 m  11973 19550 l  11973 19500 l  11973 19450 l  12170 19450 l 
12170 19500 l  12170 19550 l  p ef
1 lw 0 lj 0.000 c 9550 8000 m  9550 9250 l  5550 9250 l  5550 10640 l  ps
5550 11000 m  5700 10550 l  5400 10550 l  5550 11000 l  p ef
9550 8000 m  9550 9250 l  12150 9250 l  12150 11140 l  ps
12150 11500 m  12300 11050 l  12000 11050 l  12150 11500 l  p ef
0.996 c 19750 10462 m  18500 10462 l  18500 9500 l  21000 9500 l  21000 10462 l 
19750 10462 l  p ef

pum
18750 10201 t
pom
pum
19101 10201 t
0.000 c 115 0 m  53 0 l  53 -454 l  221 -454 l  250 -454 273 -453 288 -450 ct 
310 -446 329 -439 343 -429 ct 358 -418 370 -404 379 -385 ct 388 -366 392 -346 392 -323 ct 
392 -285 381 -252 357 -225 ct 333 -199 290 -185 228 -185 ct 115 -185 l  115 0 l 
p
115 -401 m  115 -238 l  228 -238 l  265 -238 292 -245 307 -260 ct 323 -274 331 -295 331 -321 ct 
331 -340 326 -357 317 -370 ct 308 -384 295 -393 280 -397 ct 271 -400 253 -401 226 -401 ct 
115 -401 l  p ef
754 0 m  476 0 l  476 -454 l  538 -454 l  538 -53 l  754 -53 l  754 0 l 
p ef
832 0 m  767 0 l  948 -454 l  1012 -454 l  1193 0 l  1128 0 l  1076 -141 l 
884 -141 l  832 0 l  p
955 -320 m  904 -194 l  1056 -194 l  1013 -313 l  998 -351 988 -381 980 -401 ct 
974 -376 965 -349 955 -320 ct p ef
pom
0 lw 1 lj 22500 15750 m  22847 15750 l  22847 15375 l  23194 15375 l  23194 15000 l 
27501 15000 l  27501 18002 l  27153 18002 l  27153 18377 l  26806 18377 l 
26806 18752 l  25188 18728 25156 19342 23618 19485 ct 23067 19399 22868 19330 22500 19230 ct 
22500 15750 l  pc
22847 15750 m  26806 15750 l  26806 18377 l  ps
23194 15375 m  27153 15375 l  27153 18002 l  ps
pum
23059 17116 t
115 0 m  53 0 l  53 -454 l  221 -454 l  250 -454 273 -453 288 -450 ct 310 -446 329 -439 343 -429 ct 
358 -418 370 -404 379 -385 ct 388 -366 392 -346 392 -323 ct 392 -285 381 -252 357 -225 ct 
333 -199 290 -185 228 -185 ct 115 -185 l  115 0 l  p
115 -401 m  115 -238 l  228 -238 l  265 -238 292 -245 307 -260 ct 323 -274 331 -295 331 -321 ct 
331 -340 326 -357 317 -370 ct 308 -384 295 -393 280 -397 ct 271 -400 253 -401 226 -401 ct 
115 -401 l  p ef
450 -165 m  450 -226 467 -270 500 -299 ct 527 -323 561 -335 601 -335 ct 645 -335 680 -321 708 -291 ct 
736 -262 750 -222 750 -170 ct 750 -128 744 -95 732 -71 ct 719 -47 701 -29 678 -15 ct 
654 -2 628 4 601 4 ct 556 4 520 -10 492 -39 ct 464 -69 450 -111 450 -165 ct p
508 -166 m  508 -126 517 -97 534 -78 ct 552 -58 574 -49 601 -49 ct 627 -49 649 -58 667 -78 ct 
684 -97 693 -127 693 -167 ct 693 -205 684 -234 666 -253 ct 649 -272 627 -282 601 -282 ct 
574 -282 552 -273 534 -253 ct 517 -234 508 -205 508 -166 ct p ef
939 0 m  876 0 l  775 -331 l  835 -331 l  889 -139 l  906 -69 l  907 -72 912 -95 923 -137 ct 
974 -331 l  1035 -331 l  1086 -139 l  1101 -76 l  1119 -139 l  1174 -331 l 
1233 -331 l  1132 0 l  1069 0 l  1018 -197 l  1004 -254 l  939 0 l  p ef
1503 -106 m  1559 -97 l  1550 -65 1533 -40 1509 -22 ct 1484 -4 1453 4 1414 4 ct 
1366 4 1328 -10 1299 -39 ct 1271 -69 1257 -110 1257 -163 ct 1257 -217 1271 -260 1300 -290 ct 
1329 -320 1366 -335 1411 -335 ct 1455 -335 1491 -320 1519 -290 ct 1547 -261 1561 -219 1561 -165 ct 
1561 -161 1561 -156 1561 -150 ct 1314 -150 l  1316 -117 1327 -92 1346 -75 ct 
1364 -57 1387 -49 1415 -49 ct 1436 -49 1454 -53 1468 -62 ct 1483 -71 1495 -86 1503 -106 ct 
p
1314 -203 m  1504 -203 l  1501 -226 1494 -244 1482 -255 ct 1464 -273 1440 -282 1411 -282 ct 
1385 -282 1362 -275 1344 -261 ct 1326 -246 1316 -227 1314 -203 ct p ef
1689 0 m  1632 0 l  1632 -331 l  1681 -331 l  1681 -283 l  1693 -304 1705 -318 1716 -325 ct 
1727 -332 1739 -335 1752 -335 ct 1770 -335 1789 -330 1808 -321 ct 1789 -269 l 
1776 -278 1763 -282 1750 -282 ct 1738 -282 1728 -279 1718 -271 ct 1709 -264 1702 -253 1698 -240 ct 
1692 -220 1689 -198 1689 -174 ct 1689 0 l  p ef
2190 0 m  2128 0 l  2128 -401 l  1978 -401 l  1978 -454 l  2340 -454 l 
2340 -401 l  2190 -401 l  2190 0 l  p ef
2363 0 m  2298 0 l  2479 -454 l  2543 -454 l  2724 0 l  2659 0 l  2607 -141 l 
2415 -141 l  2363 0 l  p
2486 -320 m  2435 -194 l  2587 -194 l  2544 -313 l  2529 -351 2519 -381 2511 -401 ct 
2505 -376 2496 -349 2486 -320 ct p ef
3095 -159 m  3157 -144 l  3144 -94 3122 -57 3090 -30 ct 3057 -4 3018 9 2971 9 ct 
2922 9 2883 -1 2853 -21 ct 2822 -41 2799 -70 2784 -108 ct 2768 -146 2760 -187 2760 -231 ct 
2760 -278 2769 -319 2787 -355 ct 2804 -390 2830 -417 2863 -435 ct 2895 -454 2932 -463 2971 -463 ct 
3016 -463 3054 -451 3084 -428 ct 3115 -405 3136 -372 3148 -329 ct 3086 -316 l 
3076 -348 3061 -372 3042 -388 ct 3022 -403 2998 -410 2968 -410 ct 2934 -410 2906 -402 2883 -385 ct 
2861 -368 2845 -346 2835 -318 ct 2826 -290 2822 -261 2822 -231 ct 2822 -192 2827 -159 2838 -130 ct 
2849 -101 2866 -80 2890 -65 ct 2913 -51 2938 -44 2965 -44 ct 2998 -44 3026 -54 3049 -73 ct 
3071 -93 3087 -121 3095 -159 ct p ef
pom
pum
23364 17827 t
331 0 m  53 0 l  53 -454 l  115 -454 l  115 -53 l  331 -53 l  331 0 l 
p ef
379 -165 m  379 -226 396 -270 429 -299 ct 456 -323 490 -335 530 -335 ct 574 -335 609 -321 637 -291 ct 
665 -262 679 -222 679 -170 ct 679 -128 673 -95 661 -71 ct 648 -47 630 -29 607 -15 ct 
583 -2 557 4 530 4 ct 485 4 449 -10 421 -39 ct 393 -69 379 -111 379 -165 ct p
437 -166 m  437 -126 446 -97 463 -78 ct 481 -58 503 -49 530 -49 ct 556 -49 578 -58 596 -78 ct 
613 -97 622 -127 622 -167 ct 622 -205 613 -234 595 -253 ct 578 -272 556 -282 530 -282 ct 
503 -282 481 -273 463 -253 ct 446 -234 437 -205 437 -166 ct p ef
733 22 m  791 31 l  793 46 799 58 809 65 ct 822 75 841 79 864 79 ct 889 79 908 75 922 65 ct 
936 56 945 43 950 26 ct 953 15 954 -7 954 -40 ct 930 -13 900 0 864 0 ct 820 0 785 -16 761 -49 ct 
737 -81 724 -120 724 -166 ct 724 -197 730 -226 741 -252 ct 752 -279 768 -299 788 -314 ct 
809 -328 833 -335 861 -335 ct 899 -335 929 -319 954 -287 ct 954 -331 l  1011 -331 l 
1011 -46 l  1011 5 1006 42 995 63 ct 985 84 969 101 946 114 ct 924 126 896 132 863 132 ct 
824 132 792 123 768 105 ct 744 86 732 59 733 22 ct p
782 -170 m  782 -129 790 -99 806 -81 ct 823 -62 843 -53 868 -53 ct 892 -53 912 -62 929 -81 ct 
945 -99 954 -128 954 -168 ct 954 -206 945 -234 928 -253 ct 911 -273 891 -282 867 -282 ct 
843 -282 823 -273 806 -254 ct 790 -235 782 -207 782 -170 ct p ef
1351 0 m  1289 0 l  1289 -454 l  1593 -454 l  1593 -401 l  1351 -401 l 
1351 -260 l  1558 -260 l  1558 -207 l  1351 -207 l  1351 0 l  p ef
1725 -397 m  1668 -397 l  1668 -454 l  1725 -454 l  1725 -397 l  p
1725 0 m  1668 0 l  1668 -331 l  1725 -331 l  1725 0 l  p ef
1866 0 m  1809 0 l  1809 -454 l  1866 -454 l  1866 0 l  p ef
2174 -106 m  2230 -97 l  2221 -65 2204 -40 2180 -22 ct 2155 -4 2124 4 2085 4 ct 
2037 4 1999 -10 1970 -39 ct 1942 -69 1928 -110 1928 -163 ct 1928 -217 1942 -260 1971 -290 ct 
2000 -320 2037 -335 2082 -335 ct 2126 -335 2162 -320 2190 -290 ct 2218 -261 2232 -219 2232 -165 ct 
2232 -161 2232 -156 2232 -150 ct 1985 -150 l  1987 -117 1998 -92 2017 -75 ct 
2035 -57 2058 -49 2086 -49 ct 2107 -49 2125 -53 2139 -62 ct 2154 -71 2166 -86 2174 -106 ct 
p
1985 -203 m  2175 -203 l  2172 -226 2165 -244 2153 -255 ct 2135 -273 2111 -282 2082 -282 ct 
2056 -282 2033 -275 2015 -261 ct 1997 -246 1987 -227 1985 -203 ct p ef
2281 -101 m  2338 -110 l  2341 -90 2350 -75 2363 -64 ct 2377 -54 2396 -49 2420 -49 ct 
2445 -49 2463 -53 2475 -62 ct 2487 -71 2493 -82 2493 -94 ct 2493 -105 2486 -114 2473 -120 ct 
2463 -125 2445 -130 2418 -137 ct 2382 -147 2355 -156 2339 -164 ct 2323 -171 2311 -182 2302 -195 ct 
2294 -209 2290 -223 2290 -240 ct 2290 -255 2293 -268 2300 -281 ct 2306 -293 2315 -304 2326 -312 ct 
2334 -318 2346 -324 2360 -328 ct 2375 -333 2390 -335 2407 -335 ct 2432 -335 2453 -331 2472 -323 ct 
2491 -316 2505 -305 2514 -292 ct 2523 -278 2529 -260 2532 -238 ct 2475 -229 l 
2473 -246 2466 -259 2456 -268 ct 2445 -278 2430 -282 2411 -282 ct 2388 -282 2372 -279 2362 -271 ct 
2352 -264 2347 -255 2347 -245 ct 2347 -239 2349 -234 2353 -229 ct 2357 -223 2364 -219 2372 -216 ct 
2377 -214 2392 -210 2416 -203 ct 2452 -193 2478 -184 2495 -177 ct 2512 -171 2526 -161 2535 -148 ct 
2545 -135 2550 -119 2550 -100 ct 2550 -81 2545 -64 2534 -47 ct 2523 -31 2508 -18 2488 -9 ct 
2468 0 2445 4 2420 4 ct 2377 4 2345 -4 2323 -22 ct 2301 -40 2287 -66 2281 -101 ct 
p ef
pom
18000 18000 m  15500 18000 l  15500 16500 l  20500 16500 l  20500 18000 l 
18000 18000 l  pc
pum
15864 17471 t
119 0 m  57 0 l  57 -454 l  119 -454 l  119 0 l  p ef
275 0 m  218 0 l  218 -331 l  275 -331 l  275 -277 l  285 -295 298 -309 315 -319 ct 
331 -330 350 -335 371 -335 ct 394 -335 414 -330 429 -319 ct 444 -308 454 -293 460 -273 ct 
486 -314 520 -335 562 -335 ct 594 -335 619 -326 637 -308 ct 655 -290 663 -262 663 -225 ct 
663 0 l  606 0 l  606 -203 l  606 -225 604 -241 601 -250 ct 597 -260 591 -268 581 -273 ct 
572 -279 561 -282 548 -282 ct 526 -282 507 -275 492 -260 ct 477 -245 469 -220 469 -187 ct 
469 0 l  412 0 l  412 -209 l  412 -234 407 -252 399 -264 ct 390 -276 375 -282 355 -282 ct 
340 -282 325 -278 312 -270 ct 299 -262 290 -250 284 -235 ct 278 -219 275 -197 275 -167 ct 
275 0 l  p ef
802 128 m  745 128 l  745 -331 l  802 -331 l  802 -276 l  814 -296 827 -311 842 -320 ct 
856 -330 874 -335 895 -335 ct 923 -335 947 -328 968 -314 ct 989 -299 1005 -279 1015 -253 ct 
1026 -227 1031 -199 1031 -168 ct 1031 -135 1025 -105 1013 -78 ct 1001 -51 984 -31 961 -17 ct 
938 -3 914 4 888 4 ct 870 4 853 0 838 -9 ct 824 -18 811 -30 802 -44 ct 802 128 l 
p
802 -163 m  802 -124 810 -95 827 -76 ct 843 -58 863 -49 887 -49 ct 911 -49 931 -58 948 -77 ct 
965 -97 974 -127 974 -167 ct 974 -205 966 -234 949 -253 ct 932 -273 912 -282 889 -282 ct 
866 -282 846 -272 828 -252 ct 811 -231 802 -202 802 -163 ct p ef
1085 -165 m  1085 -226 1102 -270 1135 -299 ct 1162 -323 1196 -335 1236 -335 ct 
1280 -335 1315 -321 1343 -291 ct 1371 -262 1385 -222 1385 -170 ct 1385 -128 1379 -95 1367 -71 ct 
1354 -47 1336 -29 1313 -15 ct 1289 -2 1263 4 1236 4 ct 1191 4 1155 -10 1127 -39 ct 
1099 -69 1085 -111 1085 -165 ct p
1143 -166 m  1143 -126 1152 -97 1169 -78 ct 1187 -58 1209 -49 1236 -49 ct 1262 -49 1284 -58 1302 -78 ct 
1319 -97 1328 -127 1328 -167 ct 1328 -205 1319 -234 1301 -253 ct 1284 -272 1262 -282 1236 -282 ct 
1209 -282 1187 -273 1169 -253 ct 1152 -234 1143 -205 1143 -166 ct p ef
1513 0 m  1456 0 l  1456 -331 l  1505 -331 l  1505 -283 l  1517 -304 1529 -318 1540 -325 ct 
1551 -332 1563 -335 1576 -335 ct 1594 -335 1613 -330 1632 -321 ct 1613 -269 l 
1600 -278 1587 -282 1574 -282 ct 1562 -282 1552 -279 1542 -271 ct 1533 -264 1526 -253 1522 -240 ct 
1516 -220 1513 -198 1513 -174 ct 1513 0 l  p ef
1786 -50 m  1795 -1 l  1779 3 1765 4 1753 4 ct 1733 4 1717 1 1706 -5 ct 1695 -11 1687 -19 1683 -29 ct 
1678 -40 1676 -61 1676 -94 ct 1676 -278 l  1636 -278 l  1636 -331 l  1676 -331 l 
1676 -412 l  1733 -446 l  1733 -331 l  1786 -331 l  1786 -278 l  1733 -278 l 
1733 -92 l  1733 -77 1734 -67 1736 -63 ct 1738 -58 1741 -55 1745 -52 ct 1749 -50 1755 -49 1763 -49 ct 
1769 -49 1777 -49 1786 -50 ct p ef
2091 0 m  2029 0 l  2029 -454 l  2197 -454 l  2226 -454 2249 -453 2264 -450 ct 
2286 -446 2305 -439 2319 -429 ct 2334 -418 2346 -404 2355 -385 ct 2364 -366 2368 -346 2368 -323 ct 
2368 -285 2357 -252 2333 -225 ct 2309 -199 2266 -185 2204 -185 ct 2091 -185 l 
2091 0 l  p
2091 -401 m  2091 -238 l  2204 -238 l  2241 -238 2268 -245 2283 -260 ct 2299 -274 2307 -295 2307 -321 ct 
2307 -340 2302 -357 2293 -370 ct 2284 -384 2271 -393 2256 -397 ct 2247 -400 2229 -401 2202 -401 ct 
2091 -401 l  p ef
2501 0 m  2444 0 l  2444 -331 l  2493 -331 l  2493 -283 l  2505 -304 2517 -318 2528 -325 ct 
2539 -332 2551 -335 2564 -335 ct 2582 -335 2601 -330 2620 -321 ct 2601 -269 l 
2588 -278 2575 -282 2562 -282 ct 2550 -282 2540 -279 2530 -271 ct 2521 -264 2514 -253 2510 -240 ct 
2504 -220 2501 -198 2501 -174 ct 2501 0 l  p ef
2637 -165 m  2637 -226 2654 -270 2687 -299 ct 2714 -323 2748 -335 2788 -335 ct 
2832 -335 2867 -321 2895 -291 ct 2923 -262 2937 -222 2937 -170 ct 2937 -128 2931 -95 2919 -71 ct 
2906 -47 2888 -29 2865 -15 ct 2841 -2 2815 4 2788 4 ct 2743 4 2707 -10 2679 -39 ct 
2651 -69 2637 -111 2637 -165 ct p
2695 -166 m  2695 -126 2704 -97 2721 -78 ct 2739 -58 2761 -49 2788 -49 ct 2814 -49 2836 -58 2854 -78 ct 
2871 -97 2880 -127 2880 -167 ct 2880 -205 2871 -234 2853 -253 ct 2836 -272 2814 -282 2788 -282 ct 
2761 -282 2739 -273 2721 -253 ct 2704 -234 2695 -205 2695 -166 ct p ef
3220 -123 m  3277 -115 l  3271 -77 3256 -48 3231 -27 ct 3206 -6 3176 4 3140 4 ct 
3095 4 3059 -10 3032 -39 ct 3004 -68 2990 -110 2990 -164 ct 2990 -199 2996 -230 3008 -256 ct 
3020 -283 3037 -302 3061 -315 ct 3085 -329 3111 -335 3139 -335 ct 3174 -335 3203 -326 3225 -309 ct 
3248 -291 3262 -266 3268 -234 ct 3211 -225 l  3206 -244 3197 -258 3185 -268 ct 
3172 -277 3157 -282 3139 -282 ct 3112 -282 3090 -273 3073 -254 ct 3056 -236 3048 -206 3048 -166 ct 
3048 -125 3056 -95 3073 -76 ct 3090 -58 3111 -49 3138 -49 ct 3160 -49 3178 -55 3192 -67 ct 
3207 -79 3216 -98 3220 -123 ct p ef
3550 -106 m  3606 -97 l  3597 -65 3580 -40 3556 -22 ct 3531 -4 3500 4 3461 4 ct 
3413 4 3375 -10 3346 -39 ct 3318 -69 3304 -110 3304 -163 ct 3304 -217 3318 -260 3347 -290 ct 
3376 -320 3413 -335 3458 -335 ct 3502 -335 3538 -320 3566 -290 ct 3594 -261 3608 -219 3608 -165 ct 
3608 -161 3608 -156 3608 -150 ct 3361 -150 l  3363 -117 3374 -92 3393 -75 ct 
3411 -57 3434 -49 3462 -49 ct 3483 -49 3501 -53 3515 -62 ct 3530 -71 3542 -86 3550 -106 ct 
p
3361 -203 m  3551 -203 l  3548 -226 3541 -244 3529 -255 ct 3511 -273 3487 -282 3458 -282 ct 
3432 -282 3409 -275 3391 -261 ct 3373 -246 3363 -227 3361 -203 ct p ef
3657 -101 m  3714 -110 l  3717 -90 3726 -75 3739 -64 ct 3753 -54 3772 -49 3796 -49 ct 
3821 -49 3839 -53 3851 -62 ct 3863 -71 3869 -82 3869 -94 ct 3869 -105 3862 -114 3849 -120 ct 
3839 -125 3821 -130 3794 -137 ct 3758 -147 3731 -156 3715 -164 ct 3699 -171 3687 -182 3678 -195 ct 
3670 -209 3666 -223 3666 -240 ct 3666 -255 3669 -268 3676 -281 ct 3682 -293 3691 -304 3702 -312 ct 
3710 -318 3722 -324 3736 -328 ct 3751 -333 3766 -335 3783 -335 ct 3808 -335 3829 -331 3848 -323 ct 
3867 -316 3881 -305 3890 -292 ct 3899 -278 3905 -260 3908 -238 ct 3851 -229 l 
3849 -246 3842 -259 3832 -268 ct 3821 -278 3806 -282 3787 -282 ct 3764 -282 3748 -279 3738 -271 ct 
3728 -264 3723 -255 3723 -245 ct 3723 -239 3725 -234 3729 -229 ct 3733 -223 3740 -219 3748 -216 ct 
3753 -214 3768 -210 3792 -203 ct 3828 -193 3854 -184 3871 -177 ct 3888 -171 3902 -161 3911 -148 ct 
3921 -135 3926 -119 3926 -100 ct 3926 -81 3921 -64 3910 -47 ct 3899 -31 3884 -18 3864 -9 ct 
3844 0 3821 4 3796 4 ct 3753 4 3721 -4 3699 -22 ct 3677 -40 3663 -66 3657 -101 ct 
p ef
3974 -101 m  4031 -110 l  4034 -90 4043 -75 4056 -64 ct 4070 -54 4089 -49 4113 -49 ct 
4138 -49 4156 -53 4168 -62 ct 4180 -71 4186 -82 4186 -94 ct 4186 -105 4179 -114 4166 -120 ct 
4156 -125 4138 -130 4111 -137 ct 4075 -147 4048 -156 4032 -164 ct 4016 -171 4004 -182 3995 -195 ct 
3987 -209 3983 -223 3983 -240 ct 3983 -255 3986 -268 3993 -281 ct 3999 -293 4008 -304 4019 -312 ct 
4027 -318 4039 -324 4053 -328 ct 4068 -333 4083 -335 4100 -335 ct 4125 -335 4146 -331 4165 -323 ct 
4184 -316 4198 -305 4207 -292 ct 4216 -278 4222 -260 4225 -238 ct 4168 -229 l 
4166 -246 4159 -259 4149 -268 ct 4138 -278 4123 -282 4104 -282 ct 4081 -282 4065 -279 4055 -271 ct 
4045 -264 4040 -255 4040 -245 ct 4040 -239 4042 -234 4046 -229 ct 4050 -223 4057 -219 4065 -216 ct 
4070 -214 4085 -210 4109 -203 ct 4145 -193 4171 -184 4188 -177 ct 4205 -171 4219 -161 4228 -148 ct 
4238 -135 4243 -119 4243 -100 ct 4243 -81 4238 -64 4227 -47 ct 4216 -31 4201 -18 4181 -9 ct 
4161 0 4138 4 4113 4 ct 4070 4 4038 -4 4016 -22 ct 3994 -40 3980 -66 3974 -101 ct 
p ef
pom
1 lw 0 lj 15500 17250 m  14860 17250 l  ps
14500 17250 m  14950 17400 l  14950 17100 l  14500 17250 l  p ef
22500 17250 m  20860 17250 l  ps
20500 17250 m  20950 17400 l  20950 17100 l  20500 17250 l  p ef
0 14552 t 
pom
count op_count sub {pop} repeat countdictstack dict_count sub {end} repeat b4_inc_state restore
%%PageTrailer
%%Trailer
%%EOF
