%!PS-Adobe-3.0 EPSF-3.0
%%DocumentNeededResources: font Helvetica
%%+ font Helvetica-Bold
%%+ font Helvetica-Oblique
%%+ font Helvetica-BoldOblique
%%+ font Symbol
%%Title: R Graphics Output
%%Creator: R Software
%%Pages: (atend)
%%BoundingBox: 0 0 736 570
%%EndComments
%%BeginProlog
/bp  { gs sRGB gs } def
% begin .ps.prolog
/gs  { gsave } bind def
/gr  { grestore } bind def
/ep  { showpage gr gr } bind def
/m   { moveto } bind def
/l  { rlineto } bind def
/np  { newpath } bind def
/cp  { closepath } bind def
/f   { fill } bind def
/o   { stroke } bind def
/c   { newpath 0 360 arc } bind def
/r   { 4 2 roll moveto 1 copy 3 -1 roll exch 0 exch rlineto 0 rlineto -1 mul 0 exch rlineto closepath } bind def
/p1  { stroke } bind def
/p2  { gsave bg fill grestore newpath } bind def
/p3  { gsave bg fill grestore stroke } bind def
/p6  { gsave bg eofill grestore newpath } bind def
/p7  { gsave bg eofill grestore stroke } bind def
/t   { 5 -2 roll moveto gsave rotate
       1 index stringwidth pop
       mul neg 0 rmoveto show grestore } bind def
/ta  { 4 -2 roll moveto gsave rotate show } bind def
/tb  { 2 -1 roll 0 rmoveto show } bind def
/cl  { grestore gsave newpath 3 index 3 index moveto 1 index
       4 -1 roll lineto  exch 1 index lineto lineto
       closepath clip newpath } bind def
/rgb { setrgbcolor } bind def
/s   { scalefont setfont } bind def
% end   .ps.prolog
/sRGB { [ /CIEBasedABC
          << /DecodeLMN
               [ { dup 0.03928 le
                        {12.92321 div}
                        {0.055 add 1.055 div 2.4 exp }
                     ifelse
                 } bind dup dup
               ]
             /MatrixLMN [0.412457 0.212673 0.019334
                         0.357576 0.715152 0.119192
                         0.180437 0.072175 0.950301]
             /WhitePoint [0.9505 1.0 1.0890]
           >>
         ] setcolorspace } bind def
/srgb { setcolor } bind def
%%IncludeResource: font Helvetica
/Helvetica findfont
dup length dict begin
  {1 index /FID ne {def} {pop pop} ifelse} forall
  /Encoding ISOLatin1Encoding def
  currentdict
  end
/Font1 exch definefont pop
%%IncludeResource: font Helvetica-Bold
/Helvetica-Bold findfont
dup length dict begin
  {1 index /FID ne {def} {pop pop} ifelse} forall
  /Encoding ISOLatin1Encoding def
  currentdict
  end
/Font2 exch definefont pop
%%IncludeResource: font Helvetica-Oblique
/Helvetica-Oblique findfont
dup length dict begin
  {1 index /FID ne {def} {pop pop} ifelse} forall
  /Encoding ISOLatin1Encoding def
  currentdict
  end
/Font3 exch definefont pop
%%IncludeResource: font Helvetica-BoldOblique
/Helvetica-BoldOblique findfont
dup length dict begin
  {1 index /FID ne {def} {pop pop} ifelse} forall
  /Encoding ISOLatin1Encoding def
  currentdict
  end
/Font4 exch definefont pop
%%IncludeResource: font Symbol
/Symbol findfont
dup length dict begin
  {1 index /FID ne {def} {pop pop} ifelse} forall
  currentdict
  end
/Font5 exch definefont pop
%%EndProlog
%%Page: 1 1
bp
0.00 0.00 736.00 570.00 cl
0.00 0.00 736.00 570.00 cl
0.00 0.00 736.00 570.00 cl
/bg { 1 1 1 srgb } def
1 1 1 srgb
1.06 setlinewidth
[] 0 setdash
1 setlinecap
1 setlinejoin
10.00 setmiterlimit
0.00 0.00 736.00 570.00 r p3
0.00 0.00 736.00 570.00 cl
0.00 0.00 736.00 570.00 cl
0.00 0.00 736.00 570.00 cl
65.66 37.28 614.68 555.60 cl
/bg { 0.8980 0.8980 0.8980 srgb } def
65.66 37.28 549.01 518.32 r p2
0.9490 0.9490 0.9490 srgb
0.53 setlinewidth
[] 0 setdash
0 setlinecap
1 setlinejoin
10.00 setmiterlimit
np
65.66 135.81 m
549.02 0 l
o
np
65.66 242.90 m
549.02 0 l
o
np
65.66 349.99 m
549.02 0 l
o
np
65.66 457.08 m
549.02 0 l
o
np
236.19 37.28 m
0 518.32 l
o
np
444.15 37.28 m
0 518.32 l
o
1 1 1 srgb
1.06 setlinewidth
[] 0 setdash
np
65.66 82.26 m
549.02 0 l
o
np
65.66 189.35 m
549.02 0 l
o
np
65.66 296.44 m
549.02 0 l
o
np
65.66 403.53 m
549.02 0 l
o
np
65.66 510.62 m
549.02 0 l
o
np
132.21 37.28 m
0 518.32 l
o
np
340.17 37.28 m
0 518.32 l
o
np
548.13 37.28 m
0 518.32 l
o
/Font1 findfont 14 s
0 0 0 srgb
323.86 265.58 (AstonT) 0 ta
-1.680 (A) tb
-0.420 (C) tb gr
91.99 184.32 (def) 0 ta
-0.420 (ault brok) tb
-0.280 (er) tb gr
179.05 248.05 (LARGEpo) 0 ta
-0.210 (w) tb
-0.140 (er) tb gr
410.40 274.62 (Mer) 0 ta
0.560 (tacor) tb gr
108.04 205.74 (MinerT) 0 ta
-1.680 (A) tb gr
144.25 239.94 (SotonP) 0 ta
-0.700 (o) tb
-0.210 (w) tb
-0.140 (er) tb gr
285.09 270.63 (UT) 0 ta
-1.680 (est) tb gr
492.03 440.23 (AstonT) 0 ta
-1.680 (A) tb
-0.420 (C) tb gr
308.96 391.04 (def) 0 ta
-0.420 (ault brok) tb
-0.280 (er) tb gr
114.59 505.60 (UT) 0 ta
-1.680 (est) tb gr
np
65.66 296.44 m
549.02 0 l
o
0.00 0.00 736.00 570.00 cl
0.00 0.00 736.00 570.00 cl
0.00 0.00 736.00 570.00 cl
/Font1 findfont 10 s
0.4980 0.4980 0.4980 srgb
58.58 78.67 (High) 1 0 t
58.58 185.76 (Medium) 1 0 t
58.58 399.94 (Medium) 1 0 t
58.58 507.03 (High) 1 0 t
0.00 0.00 736.00 570.00 cl
0.00 0.00 736.00 570.00 cl
0.4980 0.4980 0.4980 srgb
1.06 setlinewidth
[] 0 setdash
0 setlinecap
1 setlinejoin
10.00 setmiterlimit
np
61.41 82.26 m
4.25 0 l
o
np
61.41 189.35 m
4.25 0 l
o
np
61.41 296.44 m
4.25 0 l
o
np
61.41 403.53 m
4.25 0 l
o
np
61.41 510.62 m
4.25 0 l
o
0.00 0.00 736.00 570.00 cl
0.00 0.00 736.00 570.00 cl
0.00 0.00 736.00 570.00 cl
0.00 0.00 736.00 570.00 cl
0.00 0.00 736.00 570.00 cl
0.00 0.00 736.00 570.00 cl
0.4980 0.4980 0.4980 srgb
1.06 setlinewidth
[] 0 setdash
0 setlinecap
1 setlinejoin
10.00 setmiterlimit
np
132.21 33.03 m
0 4.25 l
o
np
340.17 33.03 m
0 4.25 l
o
np
548.13 33.03 m
0 4.25 l
o
0.00 0.00 736.00 570.00 cl
0.00 0.00 736.00 570.00 cl
/Font1 findfont 10 s
0.4980 0.4980 0.4980 srgb
132.21 23.02 (0%) .5 0 t
340.17 23.02 (50%) .5 0 t
548.13 23.02 (100%) .5 0 t
0.00 0.00 736.00 570.00 cl
0.00 0.00 736.00 570.00 cl
0.00 0.00 736.00 570.00 cl
0.00 0.00 736.00 570.00 cl
0.00 0.00 736.00 570.00 cl
/Font1 findfont 12 s
0 0 0 srgb
280.15 10.80 (A) 0 ta
-0.480 (v) tb
-0.300 (er) tb
-0.120 (age Mar) tb
0.180 (k) tb
-0.240 (et Share) tb gr
0.00 0.00 736.00 570.00 cl
0.00 0.00 736.00 570.00 cl
/Font1 findfont 12 s
0 0 0 srgb
19.42 158.38 (Consumption  -  A) 90 ta
-0.480 (v) tb
-0.300 (er) tb
-0.120 (age Pr) tb
0.180 (ice Le) tb
-0.360 (v) tb
-0.300 (el  -  Production) tb gr
0.00 0.00 736.00 570.00 cl
0.00 0.00 736.00 570.00 cl
0.00 0.00 736.00 570.00 cl
0.00 0.00 736.00 570.00 cl
0.00 0.00 736.00 570.00 cl
0.00 0.00 736.00 570.00 cl
/bg { 1 1 1 srgb } def
624.71 269.16 86.85 54.56 r p2
0.00 0.00 736.00 570.00 cl
0.00 0.00 736.00 570.00 cl
/Font2 findfont 10 s
0 0 0 srgb
628.96 312.29 (T) 0 ta
-0.800 (ariff T) tb
-0.600 (ype) tb gr
0.00 0.00 736.00 570.00 cl
0.00 0.00 736.00 570.00 cl
/bg { 0.9490 0.9490 0.9490 srgb } def
1 1 1 srgb
1.06 setlinewidth
[] 0 setdash
1 setlinecap
1 setlinejoin
10.00 setmiterlimit
628.96 290.69 17.28 17.28 r p3
0.00 0.00 736.00 570.00 cl
0.00 0.00 736.00 570.00 cl
/bg { 0.3020 0.3020 0.3020 srgb } def
628.96 290.69 17.28 17.28 r p2
0.00 0.00 736.00 570.00 cl
0.00 0.00 736.00 570.00 cl
/bg { 0.9490 0.9490 0.9490 srgb } def
1 1 1 srgb
1.06 setlinewidth
[] 0 setdash
1 setlinecap
1 setlinejoin
10.00 setmiterlimit
628.96 273.41 17.28 17.28 r p3
0.00 0.00 736.00 570.00 cl
0.00 0.00 736.00 570.00 cl
/bg { 0.8000 0.8000 0.8000 srgb } def
628.96 273.41 17.28 17.28 r p2
0.00 0.00 736.00 570.00 cl
0.00 0.00 736.00 570.00 cl
/Font1 findfont 10 s
0 0 0 srgb
648.40 295.74 (Consumption) 0 0 t
0.00 0.00 736.00 570.00 cl
0.00 0.00 736.00 570.00 cl
/Font1 findfont 10 s
0 0 0 srgb
648.40 278.46 (Production) 0 0 t
0.00 0.00 736.00 570.00 cl
0.00 0.00 736.00 570.00 cl
0.00 0.00 736.00 570.00 cl
0.00 0.00 736.00 570.00 cl
0.00 0.00 736.00 570.00 cl
0.00 0.00 736.00 570.00 cl
0.00 0.00 736.00 570.00 cl
0.00 0.00 736.00 570.00 cl
0.00 0.00 736.00 570.00 cl
0.00 0.00 736.00 570.00 cl
0.00 0.00 736.00 570.00 cl
0.00 0.00 736.00 570.00 cl
ep
%%Trailer
%%Pages: 1
%%EOF
