%!PS-Adobe-3.0 EPSF-3.0
%%DocumentNeededResources: font Helvetica
%%+ font Helvetica-Bold
%%+ font Helvetica-Oblique
%%+ font Helvetica-BoldOblique
%%+ font Symbol
%%Title: R Graphics Output
%%Creator: R Software
%%Pages: (atend)
%%BoundingBox: 0 0 990 570
%%EndComments
%%BeginProlog
/bp  { gs sRGB gs } def
% begin .ps.prolog
/gs  { gsave } bind def
/gr  { grestore } bind def
/ep  { showpage gr gr } bind def
/m   { moveto } bind def
/l  { rlineto } bind def
/np  { newpath } bind def
/cp  { closepath } bind def
/f   { fill } bind def
/o   { stroke } bind def
/c   { newpath 0 360 arc } bind def
/r   { 4 2 roll moveto 1 copy 3 -1 roll exch 0 exch rlineto 0 rlineto -1 mul 0 exch rlineto closepath } bind def
/p1  { stroke } bind def
/p2  { gsave bg fill grestore newpath } bind def
/p3  { gsave bg fill grestore stroke } bind def
/p6  { gsave bg eofill grestore newpath } bind def
/p7  { gsave bg eofill grestore stroke } bind def
/t   { 5 -2 roll moveto gsave rotate
       1 index stringwidth pop
       mul neg 0 rmoveto show grestore } bind def
/ta  { 4 -2 roll moveto gsave rotate show } bind def
/tb  { 2 -1 roll 0 rmoveto show } bind def
/cl  { grestore gsave newpath 3 index 3 index moveto 1 index
       4 -1 roll lineto  exch 1 index lineto lineto
       closepath clip newpath } bind def
/rgb { setrgbcolor } bind def
/s   { scalefont setfont } bind def
% end   .ps.prolog
/sRGB { [ /CIEBasedABC
          << /DecodeLMN
               [ { dup 0.03928 le
                        {12.92321 div}
                        {0.055 add 1.055 div 2.4 exp }
                     ifelse
                 } bind dup dup
               ]
             /MatrixLMN [0.412457 0.212673 0.019334
                         0.357576 0.715152 0.119192
                         0.180437 0.072175 0.950301]
             /WhitePoint [0.9505 1.0 1.0890]
           >>
         ] setcolorspace } bind def
/srgb { setcolor } bind def
%%IncludeResource: font Helvetica
/Helvetica findfont
dup length dict begin
  {1 index /FID ne {def} {pop pop} ifelse} forall
  /Encoding ISOLatin1Encoding def
  currentdict
  end
/Font1 exch definefont pop
%%IncludeResource: font Helvetica-Bold
/Helvetica-Bold findfont
dup length dict begin
  {1 index /FID ne {def} {pop pop} ifelse} forall
  /Encoding ISOLatin1Encoding def
  currentdict
  end
/Font2 exch definefont pop
%%IncludeResource: font Helvetica-Oblique
/Helvetica-Oblique findfont
dup length dict begin
  {1 index /FID ne {def} {pop pop} ifelse} forall
  /Encoding ISOLatin1Encoding def
  currentdict
  end
/Font3 exch definefont pop
%%IncludeResource: font Helvetica-BoldOblique
/Helvetica-BoldOblique findfont
dup length dict begin
  {1 index /FID ne {def} {pop pop} ifelse} forall
  /Encoding ISOLatin1Encoding def
  currentdict
  end
/Font4 exch definefont pop
%%IncludeResource: font Symbol
/Symbol findfont
dup length dict begin
  {1 index /FID ne {def} {pop pop} ifelse} forall
  currentdict
  end
/Font5 exch definefont pop
%%EndProlog
%%Page: 1 1
bp
0.00 0.00 990.00 570.00 cl
0.00 0.00 990.00 570.00 cl
0.00 0.00 990.00 570.00 cl
/bg { 1 1 1 srgb } def
1 1 1 srgb
1.06 setlinewidth
[] 0 setdash
1 setlinecap
1 setlinejoin
10.00 setmiterlimit
0.00 0.00 990.00 570.00 r p3
0.00 0.00 990.00 570.00 cl
0.00 0.00 990.00 570.00 cl
0.00 0.00 990.00 570.00 cl
63.46 37.28 759.34 555.60 cl
/bg { 0.8980 0.8980 0.8980 srgb } def
63.46 37.28 695.87 518.32 r p2
0.9490 0.9490 0.9490 srgb
0.53 setlinewidth
[] 0 setdash
0 setlinecap
1 setlinejoin
10.00 setmiterlimit
np
63.46 120.57 m
695.88 0 l
o
np
63.46 240.02 m
695.88 0 l
o
np
63.46 359.48 m
695.88 0 l
o
np
63.46 478.93 m
695.88 0 l
o
np
134.80 37.28 m
0 518.32 l
o
np
267.14 37.28 m
0 518.32 l
o
np
399.49 37.28 m
0 518.32 l
o
np
531.83 37.28 m
0 518.32 l
o
np
664.18 37.28 m
0 518.32 l
o
1 1 1 srgb
1.06 setlinewidth
[] 0 setdash
np
63.46 60.84 m
695.88 0 l
o
np
63.46 180.30 m
695.88 0 l
o
np
63.46 299.75 m
695.88 0 l
o
np
63.46 419.20 m
695.88 0 l
o
np
63.46 538.65 m
695.88 0 l
o
np
68.62 37.28 m
0 518.32 l
o
np
200.97 37.28 m
0 518.32 l
o
np
333.32 37.28 m
0 518.32 l
o
np
465.66 37.28 m
0 518.32 l
o
np
598.01 37.28 m
0 518.32 l
o
np
730.35 37.28 m
0 518.32 l
o
/bg { 0.9686 0.9843 1 srgb } def
0.9686 0.9843 1 srgb
1 setlinecap
np
 95.09 100.79 m
2.65 12.71 l
2.65 16.95 l
2.64 53.30 l
2.65 15.59 l
2.65 2.88 l
2.64 -75.76 l
2.65 36.26 l
2.65 -15.36 l
2.65 -4.86 l
2.64 -8.90 l
2.65 -9.73 l
2.65 0.81 l
2.64 2.11 l
2.65 8.39 l
2.65 14.01 l
2.64 -42.89 l
2.65 48.56 l
2.65 -7.72 l
2.64 -3.13 l
2.65 -15.79 l
2.65 -7.12 l
2.65 -3.26 l
2.64 -1.57 l
2.65 0.87 l
2.65 4.51 l
2.64 19.35 l
2.65 23.10 l
2.65 25.27 l
2.64 13.82 l
2.65 -68.06 l
2.65 63.16 l
2.64 -16.24 l
2.65 -22.08 l
2.65 -14.79 l
2.65 -12.38 l
2.64 1.88 l
2.65 21.75 l
2.65 7.53 l
2.64 2.76 l
2.65 -61.54 l
2.65 35.56 l
2.64 -8.46 l
2.65 -7.14 l
2.65 -2.68 l
2.64 -0.16 l
2.65 -3.26 l
2.65 -2.48 l
2.65 5.18 l
2.64 4.14 l
2.65 5.67 l
2.65 2.83 l
2.64 37.87 l
2.65 0.97 l
2.65 -28.01 l
2.64 40.27 l
2.65 -24.44 l
2.65 9.71 l
2.64 -21.37 l
2.65 -17.08 l
2.65 -2.67 l
2.65 44.86 l
2.64 6.76 l
2.65 -4.30 l
2.65 -58.87 l
2.64 41.09 l
2.65 -29.72 l
2.65 -16.15 l
2.64 -3.94 l
2.65 2.40 l
2.65 3.57 l
2.64 17.16 l
2.65 -3.95 l
2.65 1.17 l
2.65 -0.85 l
2.64 4.40 l
2.65 36.49 l
2.65 10.17 l
2.64 -43.02 l
2.65 35.41 l
2.65 -30.65 l
2.64 10.40 l
2.65 -31.44 l
2.65 6.22 l
2.64 10.86 l
2.65 7.83 l
2.65 29.54 l
2.64 20.83 l
2.65 -65.17 l
2.65 59.51 l
2.65 -34.06 l
2.64 -20.14 l
2.65 -21.72 l
2.65 8.11 l
2.64 -5.33 l
2.65 15.24 l
2.65 -15.39 l
2.64 21.18 l
2.65 -7.53 l
2.65 2.91 l
359.78 147.41 lineto
2.65 33.01 l
2.65 -50.35 l
2.65 37.38 l
2.64 -23.68 l
2.65 12.14 l
2.65 -41.13 l
2.64 10.48 l
2.65 11.75 l
2.65 -12.87 l
2.64 25.78 l
2.65 16.31 l
2.65 -29.75 l
2.64 89.65 l
2.65 -37.99 l
2.65 -21.08 l
2.65 -37.89 l
2.64 -4.93 l
2.65 -7.24 l
2.65 11.60 l
2.64 -10.21 l
2.65 0.88 l
2.65 -2.37 l
2.64 33.51 l
2.65 1.31 l
2.65 15.27 l
2.64 -49.71 l
2.65 48.95 l
2.65 -21.49 l
2.65 7.74 l
2.64 -30.90 l
2.65 5.53 l
2.65 -1.09 l
2.64 -17.79 l
2.65 46.75 l
2.65 5.16 l
2.64 -16.51 l
2.65 82.43 l
2.65 -52.19 l
2.64 -29.50 l
2.65 -17.14 l
2.65 -1.90 l
2.65 -9.42 l
2.64 -3.05 l
2.65 -7.89 l
2.65 10.95 l
2.64 11.81 l
2.65 -0.51 l
2.65 17.48 l
2.64 25.10 l
2.65 -49.17 l
2.65 22.72 l
2.64 12.20 l
2.65 -10.04 l
2.65 -31.73 l
2.65 19.06 l
2.64 9.14 l
2.65 -17.73 l
2.65 16.28 l
2.64 -2.08 l
2.65 -23.41 l
2.65 55.69 l
2.64 -26.85 l
2.65 -9.87 l
2.65 -3.39 l
2.64 -2.14 l
2.65 -2.65 l
2.65 -15.96 l
2.65 -7.41 l
2.64 12.49 l
2.65 17.02 l
2.65 -3.59 l
2.64 26.61 l
2.65 19.27 l
2.65 -49.83 l
2.64 18.59 l
2.65 13.72 l
2.65 -18.23 l
2.64 -23.27 l
2.65 20.70 l
2.65 1.87 l
2.65 -11.18 l
2.64 17.40 l
2.65 1.41 l
2.65 -19.95 l
2.64 83.58 l
2.65 -30.96 l
2.65 -25.87 l
2.64 -34.98 l
2.65 3.29 l
2.65 -2.48 l
2.64 1.21 l
2.65 -5.19 l
2.65 3.63 l
2.64 8.96 l
2.65 -3.72 l
2.65 19.03 l
2.65 16.52 l
2.64 -27.44 l
2.65 22.07 l
624.48 155.95 lineto
2.64 -20.25 l
2.65 -27.90 l
2.65 10.84 l
2.64 20.05 l
2.65 -7.65 l
2.65 42.82 l
2.64 -18.92 l
2.65 -32.82 l
2.65 89.35 l
2.65 -36.00 l
2.64 -25.66 l
2.65 -33.73 l
2.65 11.62 l
2.64 5.41 l
2.65 1.11 l
2.65 -3.52 l
2.64 -9.74 l
2.65 -5.48 l
2.65 -3.57 l
2.64 22.45 l
2.65 3.19 l
2.65 -0.76 l
2.65 21.58 l
2.64 -21.89 l
2.65 -11.10 l
2.65 -22.73 l
2.64 4.78 l
2.65 29.66 l
2.65 2.21 l
2.64 36.43 l
2.65 -16.95 l
2.65 -31.71 l
2.64 66.46 l
2.65 -27.66 l
2.65 -19.72 l
2.65 -35.12 l
2.64 4.70 l
2.65 0.39 l
2.65 3.63 l
0 -58.91 l
-2.65 0 l
-2.65 0 l
-2.64 0 l
-2.65 0 l
-2.65 0 l
-2.65 0 l
-2.64 0 l
-2.65 0 l
-2.65 0 l
-2.64 0 l
-2.65 0 l
-2.65 0 l
-2.64 0 l
-2.65 0 l
-2.65 0 l
-2.64 0 l
-2.65 0 l
-2.65 0 l
-2.65 0 l
-2.64 0 l
-2.65 0 l
-2.65 0 l
-2.64 0 l
-2.65 0 l
-2.65 0 l
-2.64 0 l
-2.65 0 l
-2.65 0 l
-2.64 0 l
-2.65 0 l
-2.65 0 l
-2.65 0 l
-2.64 0 l
-2.65 0 l
-2.65 0 l
-2.64 0 l
-2.65 0 l
-2.65 0 l
-2.64 0 l
-2.65 0 l
-2.65 0 l
-2.64 0 l
-2.65 0 l
-2.65 0 l
-2.65 0 l
-2.64 0 l
-2.65 0 l
-2.65 0 l
-2.64 0 l
-2.65 0 l
-2.65 0 l
-2.64 0 l
-2.65 0 l
-2.65 0 l
-2.64 0 l
-2.65 0 l
-2.65 0 l
-2.64 0 l
-2.65 0 l
568.89 60.84 lineto
-2.65 0 l
-2.64 0 l
-2.65 0 l
-2.65 0 l
-2.64 0 l
-2.65 0 l
-2.65 0 l
-2.64 0 l
-2.65 0 l
-2.65 0 l
-2.64 0 l
-2.65 0 l
-2.65 0 l
-2.65 0 l
-2.64 0 l
-2.65 0 l
-2.65 0 l
-2.64 0 l
-2.65 0 l
-2.65 0 l
-2.64 0 l
-2.65 0 l
-2.65 0 l
-2.64 0 l
-2.65 0 l
-2.65 0 l
-2.65 0 l
-2.64 0 l
-2.65 0 l
-2.65 0 l
-2.64 0 l
-2.65 0 l
-2.65 0 l
-2.64 0 l
-2.65 0 l
-2.65 0 l
-2.64 0 l
-2.65 0 l
-2.65 0 l
-2.65 0 l
-2.64 0 l
-2.65 0 l
-2.65 0 l
-2.64 0 l
-2.65 0 l
-2.65 0 l
-2.64 0 l
-2.65 0 l
-2.65 0 l
-2.64 0 l
-2.65 0 l
-2.65 0 l
-2.65 0 l
-2.64 0 l
-2.65 0 l
-2.65 0 l
-2.64 0 l
-2.65 0 l
-2.65 0 l
-2.64 0 l
-2.65 0 l
-2.65 0 l
-2.64 0 l
-2.65 0 l
-2.65 0 l
-2.65 0 l
-2.64 0 l
-2.65 0 l
-2.65 0 l
-2.64 0 l
-2.65 0 l
-2.65 0 l
-2.64 0 l
-2.65 0 l
-2.65 0 l
-2.64 0 l
-2.65 0 l
-2.65 0 l
-2.65 0 l
-2.64 0 l
-2.65 0 l
-2.65 0 l
-2.64 0 l
-2.65 0 l
-2.65 0 l
-2.64 0 l
-2.65 0 l
-2.65 0 l
-2.64 0 l
-2.65 0 l
-2.65 0 l
-2.65 0 l
-2.64 0 l
-2.65 0 l
-2.65 0 l
-2.64 0 l
-2.65 0 l
-2.65 0 l
-2.64 0 l
304.20 60.84 lineto
-2.65 0 l
-2.64 0 l
-2.65 0 l
-2.65 0 l
-2.64 0 l
-2.65 0 l
-2.65 0 l
-2.65 0 l
-2.64 0 l
-2.65 0 l
-2.65 0 l
-2.64 0 l
-2.65 0 l
-2.65 0 l
-2.64 0 l
-2.65 0 l
-2.65 0 l
-2.64 0 l
-2.65 0 l
-2.65 0 l
-2.65 0 l
-2.64 0 l
-2.65 0 l
-2.65 0 l
-2.64 0 l
-2.65 0 l
-2.65 0 l
-2.64 0 l
-2.65 0 l
-2.65 0 l
-2.64 0 l
-2.65 0 l
-2.65 0 l
-2.65 0 l
-2.64 0 l
-2.65 0 l
-2.65 0 l
-2.64 0 l
-2.65 0 l
-2.65 0 l
-2.64 0 l
-2.65 0 l
-2.65 0 l
-2.64 0 l
-2.65 0 l
-2.65 0 l
-2.65 0 l
-2.64 0 l
-2.65 0 l
-2.65 0 l
-2.64 0 l
-2.65 0 l
-2.65 0 l
-2.64 0 l
-2.65 0 l
-2.65 0 l
-2.64 0 l
-2.65 0 l
-2.65 0 l
-2.65 0 l
-2.64 0 l
-2.65 0 l
-2.65 0 l
-2.64 0 l
-2.65 0 l
-2.65 0 l
-2.64 0 l
-2.65 0 l
-2.65 0 l
-2.64 0 l
-2.65 0 l
-2.65 0 l
-2.65 0 l
-2.64 0 l
-2.65 0 l
-2.65 0 l
-2.64 0 l
-2.65 0 l
-2.65 0 l
cp p3
/bg { 0.8706 0.9216 0.9686 srgb } def
0.8706 0.9216 0.9686 srgb
np
 95.09 140.84 m
2.65 6.21 l
2.65 19.32 l
2.64 77.56 l
2.65 15.95 l
2.65 14.17 l
2.64 -82.40 l
2.65 29.26 l
2.65 -7.60 l
2.65 -3.07 l
2.64 -15.68 l
2.65 -22.35 l
2.65 -1.58 l
2.64 3.39 l
2.65 14.34 l
2.65 23.07 l
2.64 -30.46 l
2.65 62.58 l
2.65 4.89 l
2.64 3.60 l
2.65 -19.60 l
2.65 -18.84 l
2.65 -28.53 l
2.64 -16.71 l
2.65 7.92 l
2.65 -9.04 l
2.64 23.48 l
2.65 32.17 l
2.65 19.35 l
2.64 23.83 l
2.65 -63.91 l
2.65 57.63 l
2.64 0.58 l
2.65 -31.16 l
2.65 -16.08 l
2.65 -11.45 l
2.64 1.91 l
2.65 26.39 l
2.65 2.20 l
2.64 5.70 l
2.65 -57.68 l
2.65 46.60 l
2.64 9.84 l
2.65 10.46 l
2.65 -10.05 l
2.64 -11.82 l
2.65 -27.80 l
2.65 -23.72 l
2.65 -1.11 l
2.64 -3.24 l
2.65 3.96 l
2.65 17.19 l
2.64 38.69 l
2.65 8.04 l
2.65 -30.38 l
2.64 40.99 l
2.65 -8.23 l
2.65 -2.39 l
2.64 -17.20 l
2.65 -20.53 l
2.65 -0.75 l
2.65 47.47 l
2.64 -2.51 l
2.65 -6.48 l
2.65 -38.34 l
2.64 47.01 l
2.65 -19.15 l
2.65 -5.57 l
2.64 -7.31 l
2.65 0.48 l
2.65 -21.92 l
2.64 -2.08 l
2.65 -6.57 l
2.65 -18.72 l
2.65 3.41 l
2.64 18.14 l
2.65 34.72 l
2.65 28.56 l
2.64 -47.43 l
2.65 32.96 l
2.65 -8.54 l
2.64 -6.44 l
2.65 -32.35 l
2.65 4.58 l
2.64 15.92 l
2.65 4.90 l
2.65 23.49 l
2.64 21.87 l
2.65 -48.72 l
2.65 68.83 l
2.65 -28.09 l
2.64 -5.91 l
2.65 -12.55 l
2.65 -14.64 l
2.64 -26.18 l
2.65 -0.96 l
2.65 -14.57 l
2.64 11.50 l
2.65 -13.08 l
2.65 13.64 l
359.78 202.08 lineto
2.65 46.67 l
2.65 -53.39 l
2.65 34.72 l
2.64 -12.03 l
2.65 5.44 l
2.65 -44.70 l
2.64 13.71 l
2.65 9.06 l
2.65 -7.82 l
2.64 23.50 l
2.65 16.11 l
2.65 -21.97 l
2.64 108.12 l
2.65 -34.42 l
2.65 -3.16 l
2.65 -38.46 l
2.64 -11.74 l
2.65 -29.07 l
2.65 -22.44 l
2.64 4.31 l
2.65 -9.33 l
2.65 -2.43 l
2.64 49.02 l
2.65 7.25 l
2.65 30.98 l
2.64 -68.96 l
2.65 51.56 l
2.65 -5.75 l
2.65 -7.88 l
2.64 -29.46 l
2.65 16.10 l
2.65 -3.02 l
2.64 -20.86 l
2.65 46.46 l
2.65 12.07 l
2.64 -1.81 l
2.65 89.27 l
2.65 -31.97 l
2.64 -10.51 l
2.65 -26.31 l
2.65 -31.55 l
2.65 -33.77 l
2.64 -27.29 l
2.65 -8.23 l
2.65 -3.94 l
2.64 15.45 l
2.65 12.26 l
2.65 12.84 l
2.64 39.17 l
2.65 -48.55 l
2.65 25.17 l
2.64 19.27 l
2.65 -10.37 l
2.65 -35.75 l
2.65 9.17 l
2.64 9.90 l
2.65 -14.63 l
2.65 19.80 l
2.64 -0.68 l
2.65 -15.70 l
2.65 63.85 l
2.64 -7.52 l
2.65 -23.23 l
2.65 8.69 l
2.64 -6.69 l
2.65 -33.99 l
2.65 -28.64 l
2.65 -15.32 l
2.64 2.06 l
2.65 19.29 l
2.65 7.27 l
2.64 20.52 l
2.65 34.37 l
2.65 -44.40 l
2.64 11.33 l
2.65 20.65 l
2.65 -21.88 l
2.64 -23.69 l
2.65 19.95 l
2.65 2.60 l
2.65 -18.65 l
2.64 26.58 l
2.65 0.02 l
2.65 -14.57 l
2.64 90.44 l
2.65 -13.01 l
2.65 -22.56 l
2.64 -26.23 l
2.65 -15.56 l
2.65 -26.27 l
2.64 -15.23 l
2.65 -4.97 l
2.65 -1.47 l
2.64 10.29 l
2.65 -0.11 l
2.65 19.65 l
2.65 35.57 l
2.64 -27.00 l
2.65 22.73 l
624.48 237.65 lineto
2.64 -34.20 l
2.65 -30.19 l
2.65 13.20 l
2.64 21.60 l
2.65 -4.56 l
2.65 38.28 l
2.64 -21.24 l
2.65 -24.18 l
2.65 93.38 l
2.65 -23.50 l
2.64 -19.69 l
2.65 -22.09 l
2.65 6.59 l
2.64 -19.51 l
2.65 -18.31 l
2.65 -3.39 l
2.64 -17.98 l
2.65 -9.81 l
2.65 9.73 l
2.64 15.85 l
2.65 17.47 l
2.65 -5.61 l
2.65 24.64 l
2.64 -7.21 l
2.65 -23.29 l
2.65 -26.39 l
2.64 14.32 l
2.65 17.36 l
2.65 3.24 l
2.64 38.06 l
2.65 -11.36 l
2.65 -16.32 l
2.64 72.87 l
2.65 -14.79 l
2.65 -13.27 l
2.65 -36.51 l
2.64 -4.07 l
2.65 -19.09 l
2.65 -22.83 l
0 -55.10 l
-2.65 -3.63 l
-2.65 -0.39 l
-2.64 -4.70 l
-2.65 35.12 l
-2.65 19.72 l
-2.65 27.66 l
-2.64 -66.46 l
-2.65 31.71 l
-2.65 16.95 l
-2.64 -36.43 l
-2.65 -2.21 l
-2.65 -29.66 l
-2.64 -4.78 l
-2.65 22.73 l
-2.65 11.10 l
-2.64 21.89 l
-2.65 -21.58 l
-2.65 0.76 l
-2.65 -3.19 l
-2.64 -22.45 l
-2.65 3.57 l
-2.65 5.48 l
-2.64 9.74 l
-2.65 3.52 l
-2.65 -1.11 l
-2.64 -5.41 l
-2.65 -11.62 l
-2.65 33.73 l
-2.64 25.66 l
-2.65 36.00 l
-2.65 -89.35 l
-2.65 32.82 l
-2.64 18.92 l
-2.65 -42.82 l
-2.65 7.65 l
-2.64 -20.05 l
-2.65 -10.84 l
-2.65 27.90 l
-2.64 20.25 l
-2.65 -2.81 l
-2.65 -22.07 l
-2.64 27.44 l
-2.65 -16.52 l
-2.65 -19.03 l
-2.65 3.72 l
-2.64 -8.96 l
-2.65 -3.63 l
-2.65 5.19 l
-2.64 -1.21 l
-2.65 2.48 l
-2.65 -3.29 l
-2.64 34.98 l
-2.65 25.87 l
-2.65 30.96 l
-2.64 -83.58 l
-2.65 19.95 l
-2.65 -1.41 l
-2.64 -17.40 l
-2.65 11.18 l
568.89 135.94 lineto
-2.65 -20.70 l
-2.64 23.27 l
-2.65 18.23 l
-2.65 -13.72 l
-2.64 -18.59 l
-2.65 49.83 l
-2.65 -19.27 l
-2.64 -26.61 l
-2.65 3.59 l
-2.65 -17.02 l
-2.64 -12.49 l
-2.65 7.41 l
-2.65 15.96 l
-2.65 2.65 l
-2.64 2.14 l
-2.65 3.39 l
-2.65 9.87 l
-2.64 26.85 l
-2.65 -55.69 l
-2.65 23.41 l
-2.64 2.08 l
-2.65 -16.28 l
-2.65 17.73 l
-2.64 -9.14 l
-2.65 -19.06 l
-2.65 31.73 l
-2.65 10.04 l
-2.64 -12.20 l
-2.65 -22.72 l
-2.65 49.17 l
-2.64 -25.10 l
-2.65 -17.48 l
-2.65 0.51 l
-2.64 -11.81 l
-2.65 -10.95 l
-2.65 7.89 l
-2.64 3.05 l
-2.65 9.42 l
-2.65 1.90 l
-2.65 17.14 l
-2.64 29.50 l
-2.65 52.19 l
-2.65 -82.43 l
-2.64 16.51 l
-2.65 -5.16 l
-2.65 -46.75 l
-2.64 17.79 l
-2.65 1.09 l
-2.65 -5.53 l
-2.64 30.90 l
-2.65 -7.74 l
-2.65 21.49 l
-2.65 -48.95 l
-2.64 49.71 l
-2.65 -15.27 l
-2.65 -1.31 l
-2.64 -33.51 l
-2.65 2.37 l
-2.65 -0.88 l
-2.64 10.21 l
-2.65 -11.60 l
-2.65 7.24 l
-2.64 4.93 l
-2.65 37.89 l
-2.65 21.08 l
-2.65 37.99 l
-2.64 -89.65 l
-2.65 29.75 l
-2.65 -16.31 l
-2.64 -25.78 l
-2.65 12.87 l
-2.65 -11.75 l
-2.64 -10.48 l
-2.65 41.13 l
-2.65 -12.14 l
-2.64 23.68 l
-2.65 -37.38 l
-2.65 50.35 l
-2.65 -33.01 l
-2.64 -13.90 l
-2.65 -2.91 l
-2.65 7.53 l
-2.64 -21.18 l
-2.65 15.39 l
-2.65 -15.24 l
-2.64 5.33 l
-2.65 -8.11 l
-2.65 21.72 l
-2.64 20.14 l
-2.65 34.06 l
-2.65 -59.51 l
-2.65 65.17 l
-2.64 -20.83 l
-2.65 -29.54 l
-2.65 -7.83 l
-2.64 -10.86 l
-2.65 -6.22 l
-2.65 31.44 l
-2.64 -10.40 l
304.20 172.31 lineto
-2.65 -35.41 l
-2.64 43.02 l
-2.65 -10.17 l
-2.65 -36.49 l
-2.64 -4.40 l
-2.65 0.85 l
-2.65 -1.17 l
-2.65 3.95 l
-2.64 -17.16 l
-2.65 -3.57 l
-2.65 -2.40 l
-2.64 3.94 l
-2.65 16.15 l
-2.65 29.72 l
-2.64 -41.09 l
-2.65 58.87 l
-2.65 4.30 l
-2.64 -6.76 l
-2.65 -44.86 l
-2.65 2.67 l
-2.65 17.08 l
-2.64 21.37 l
-2.65 -9.71 l
-2.65 24.44 l
-2.64 -40.27 l
-2.65 28.01 l
-2.65 -0.97 l
-2.64 -37.87 l
-2.65 -2.83 l
-2.65 -5.67 l
-2.64 -4.14 l
-2.65 -5.18 l
-2.65 2.48 l
-2.65 3.26 l
-2.64 0.16 l
-2.65 2.68 l
-2.65 7.14 l
-2.64 8.46 l
-2.65 -35.56 l
-2.65 61.54 l
-2.64 -2.76 l
-2.65 -7.53 l
-2.65 -21.75 l
-2.64 -1.88 l
-2.65 12.38 l
-2.65 14.79 l
-2.65 22.08 l
-2.64 16.24 l
-2.65 -63.16 l
-2.65 68.06 l
-2.64 -13.82 l
-2.65 -25.27 l
-2.65 -23.10 l
-2.64 -19.35 l
-2.65 -4.51 l
-2.65 -0.87 l
-2.64 1.57 l
-2.65 3.26 l
-2.65 7.12 l
-2.65 15.79 l
-2.64 3.13 l
-2.65 7.72 l
-2.65 -48.56 l
-2.64 42.89 l
-2.65 -14.01 l
-2.65 -8.39 l
-2.64 -2.11 l
-2.65 -0.81 l
-2.65 9.73 l
-2.64 8.90 l
-2.65 4.86 l
-2.65 15.36 l
-2.65 -36.26 l
-2.64 75.76 l
-2.65 -2.88 l
-2.65 -15.59 l
-2.64 -53.30 l
-2.65 -16.95 l
-2.65 -12.71 l
cp p3
/bg { 0.7765 0.8588 0.9373 srgb } def
0.7765 0.8588 0.9373 srgb
np
 95.09 152.53 m
2.65 6.04 l
2.65 19.29 l
2.64 81.64 l
2.65 21.36 l
2.65 19.13 l
2.64 -77.19 l
2.65 41.25 l
2.65 1.97 l
2.65 -0.67 l
2.64 -16.13 l
2.65 -24.88 l
2.65 -3.09 l
2.64 6.64 l
2.65 10.75 l
2.65 23.78 l
2.64 -28.99 l
2.65 54.33 l
2.65 -6.14 l
2.64 -4.91 l
2.65 -24.15 l
2.65 -23.09 l
2.65 -29.16 l
2.64 -16.68 l
2.65 8.22 l
2.65 -9.21 l
2.64 23.86 l
2.65 31.60 l
2.65 24.77 l
2.64 28.62 l
2.65 -56.72 l
2.65 66.81 l
2.64 8.34 l
2.65 -31.32 l
2.65 -14.16 l
2.65 -10.89 l
2.64 2.02 l
2.65 26.04 l
2.65 3.19 l
2.64 3.63 l
2.65 -56.89 l
2.65 38.55 l
2.64 0.56 l
2.65 3.07 l
2.65 -15.50 l
2.64 -17.41 l
2.65 -27.96 l
2.65 -23.86 l
2.65 -0.82 l
2.64 -3.54 l
2.65 3.87 l
2.65 17.29 l
2.64 42.54 l
2.65 11.44 l
2.65 -22.12 l
2.64 51.34 l
2.65 0.46 l
2.65 -0.07 l
2.64 -18.83 l
2.65 -21.39 l
2.65 -0.14 l
2.65 48.08 l
2.64 0.42 l
2.65 -8.31 l
2.65 -39.94 l
2.64 42.24 l
2.65 -26.17 l
2.65 -16.34 l
2.64 -14.32 l
2.65 -5.25 l
2.65 -21.69 l
2.64 -1.62 l
2.65 -7.45 l
2.65 -18.26 l
2.65 2.81 l
2.64 18.20 l
2.65 39.50 l
2.65 33.34 l
2.64 -40.70 l
2.65 43.25 l
2.65 1.54 l
2.64 -6.65 l
2.65 -31.93 l
2.65 8.67 l
2.64 14.91 l
2.65 2.71 l
2.65 21.66 l
2.64 20.13 l
2.65 -46.87 l
2.65 63.75 l
2.65 -41.01 l
2.64 -15.62 l
2.65 -14.76 l
2.65 -19.85 l
2.64 -26.86 l
2.65 -1.16 l
2.65 -15.22 l
2.64 13.12 l
2.65 -13.08 l
2.65 13.14 l
359.78 222.00 lineto
2.65 52.08 l
2.65 -46.86 l
2.65 44.92 l
2.64 -1.99 l
2.65 6.94 l
2.65 -46.91 l
2.64 10.12 l
2.65 9.24 l
2.65 -3.03 l
2.64 24.70 l
2.65 7.86 l
2.65 -17.69 l
2.64 106.96 l
2.65 -44.12 l
2.65 -16.31 l
2.65 -44.48 l
2.64 -17.09 l
2.65 -26.85 l
2.65 -22.30 l
2.64 -1.95 l
2.65 -9.44 l
2.65 -2.72 l
2.64 48.64 l
2.65 10.22 l
2.65 33.81 l
2.64 -65.61 l
2.65 56.56 l
2.65 0.02 l
2.65 -9.33 l
2.64 -28.86 l
2.65 16.63 l
2.65 -2.26 l
2.64 -19.86 l
2.65 45.80 l
2.65 16.64 l
2.64 -4.05 l
2.65 84.10 l
2.65 -37.98 l
2.64 -17.98 l
2.65 -29.09 l
2.65 -34.03 l
2.65 -34.20 l
2.64 -27.59 l
2.65 -8.47 l
2.65 -3.37 l
2.64 15.05 l
2.65 12.74 l
2.65 16.30 l
2.64 42.06 l
2.65 -46.65 l
2.65 29.88 l
2.64 25.84 l
2.65 -8.79 l
2.65 -34.92 l
2.65 7.45 l
2.64 7.36 l
2.65 -12.05 l
2.65 19.89 l
2.64 -1.84 l
2.65 -15.10 l
2.65 61.00 l
2.64 -12.82 l
2.65 -29.00 l
2.65 6.01 l
2.64 -9.64 l
2.65 -33.70 l
2.65 -29.27 l
2.65 -8.91 l
2.64 2.04 l
2.65 19.38 l
2.65 7.76 l
2.64 25.11 l
2.65 38.66 l
2.65 -37.46 l
2.64 19.00 l
2.65 27.10 l
2.65 -17.89 l
2.64 -22.75 l
2.65 21.51 l
2.65 5.94 l
2.65 -23.01 l
2.64 29.36 l
2.65 -1.35 l
2.65 -16.97 l
2.64 85.05 l
2.65 -23.33 l
2.65 -30.88 l
2.64 -32.03 l
2.65 -20.69 l
2.65 -25.19 l
2.64 -15.70 l
2.65 -4.45 l
2.65 -1.20 l
2.64 10.02 l
2.65 -0.31 l
2.65 24.61 l
2.65 39.82 l
2.64 -20.33 l
2.65 35.23 l
624.48 291.24 lineto
2.64 -34.00 l
2.65 -33.60 l
2.65 13.26 l
2.64 22.82 l
2.65 -3.11 l
2.65 39.42 l
2.64 -25.21 l
2.65 -23.46 l
2.65 89.10 l
2.65 -32.31 l
2.64 -28.65 l
2.65 -29.63 l
2.65 1.51 l
2.64 -19.65 l
2.65 -18.88 l
2.65 -2.96 l
2.64 -18.06 l
2.65 -9.76 l
2.65 10.37 l
2.64 20.52 l
2.65 21.92 l
2.65 -0.55 l
2.65 33.85 l
2.64 3.10 l
2.65 -24.92 l
2.65 -28.44 l
2.64 17.01 l
2.65 15.78 l
2.65 5.60 l
2.64 37.21 l
2.65 -13.53 l
2.65 -13.73 l
2.64 68.38 l
2.65 -23.80 l
2.65 -23.40 l
2.65 -41.47 l
2.64 -9.83 l
2.65 -19.00 l
2.65 -22.83 l
0 -15.46 l
-2.65 22.83 l
-2.65 19.09 l
-2.64 4.07 l
-2.65 36.51 l
-2.65 13.27 l
-2.65 14.79 l
-2.64 -72.87 l
-2.65 16.32 l
-2.65 11.36 l
-2.64 -38.06 l
-2.65 -3.24 l
-2.65 -17.36 l
-2.64 -14.32 l
-2.65 26.39 l
-2.65 23.29 l
-2.64 7.21 l
-2.65 -24.64 l
-2.65 5.61 l
-2.65 -17.47 l
-2.64 -15.85 l
-2.65 -9.73 l
-2.65 9.81 l
-2.64 17.98 l
-2.65 3.39 l
-2.65 18.31 l
-2.64 19.51 l
-2.65 -6.59 l
-2.65 22.09 l
-2.64 19.69 l
-2.65 23.50 l
-2.65 -93.38 l
-2.65 24.18 l
-2.64 21.24 l
-2.65 -38.28 l
-2.65 4.56 l
-2.64 -21.60 l
-2.65 -13.20 l
-2.65 30.19 l
-2.64 34.20 l
-2.65 -11.27 l
-2.65 -22.73 l
-2.64 27.00 l
-2.65 -35.57 l
-2.65 -19.65 l
-2.65 0.11 l
-2.64 -10.29 l
-2.65 1.47 l
-2.65 4.97 l
-2.64 15.23 l
-2.65 26.27 l
-2.65 15.56 l
-2.64 26.23 l
-2.65 22.56 l
-2.65 13.01 l
-2.64 -90.44 l
-2.65 14.57 l
-2.65 -0.02 l
-2.64 -26.58 l
-2.65 18.65 l
568.89 204.13 lineto
-2.65 -19.95 l
-2.64 23.69 l
-2.65 21.88 l
-2.65 -20.65 l
-2.64 -11.33 l
-2.65 44.40 l
-2.65 -34.37 l
-2.64 -20.52 l
-2.65 -7.27 l
-2.65 -19.29 l
-2.64 -2.06 l
-2.65 15.32 l
-2.65 28.64 l
-2.65 33.99 l
-2.64 6.69 l
-2.65 -8.69 l
-2.65 23.23 l
-2.64 7.52 l
-2.65 -63.85 l
-2.65 15.70 l
-2.64 0.68 l
-2.65 -19.80 l
-2.65 14.63 l
-2.64 -9.90 l
-2.65 -9.17 l
-2.65 35.75 l
-2.65 10.37 l
-2.64 -19.27 l
-2.65 -25.17 l
-2.65 48.55 l
-2.64 -39.17 l
-2.65 -12.84 l
-2.65 -12.26 l
-2.64 -15.45 l
-2.65 3.94 l
-2.65 8.23 l
-2.64 27.29 l
-2.65 33.77 l
-2.65 31.55 l
-2.65 26.31 l
-2.64 10.51 l
-2.65 31.97 l
-2.65 -89.27 l
-2.64 1.81 l
-2.65 -12.07 l
-2.65 -46.46 l
-2.64 20.86 l
-2.65 3.02 l
-2.65 -16.10 l
-2.64 29.46 l
-2.65 7.88 l
-2.65 5.75 l
-2.65 -51.56 l
-2.64 68.96 l
-2.65 -30.98 l
-2.65 -7.25 l
-2.64 -49.02 l
-2.65 2.43 l
-2.65 9.33 l
-2.64 -4.31 l
-2.65 22.44 l
-2.65 29.07 l
-2.64 11.74 l
-2.65 38.46 l
-2.65 3.16 l
-2.65 34.42 l
-2.64 -108.12 l
-2.65 21.97 l
-2.65 -16.11 l
-2.64 -23.50 l
-2.65 7.82 l
-2.65 -9.06 l
-2.64 -13.71 l
-2.65 44.70 l
-2.65 -5.44 l
-2.64 12.03 l
-2.65 -34.72 l
-2.65 53.39 l
-2.65 -46.67 l
-2.64 -13.96 l
-2.65 -13.64 l
-2.65 13.08 l
-2.64 -11.50 l
-2.65 14.57 l
-2.65 0.96 l
-2.64 26.18 l
-2.65 14.64 l
-2.65 12.55 l
-2.64 5.91 l
-2.65 28.09 l
-2.65 -68.83 l
-2.65 48.72 l
-2.64 -21.87 l
-2.65 -23.49 l
-2.65 -4.90 l
-2.64 -15.92 l
-2.65 -4.58 l
-2.65 32.35 l
-2.64 6.44 l
304.20 235.42 lineto
-2.65 -32.96 l
-2.64 47.43 l
-2.65 -28.56 l
-2.65 -34.72 l
-2.64 -18.14 l
-2.65 -3.41 l
-2.65 18.72 l
-2.65 6.57 l
-2.64 2.08 l
-2.65 21.92 l
-2.65 -0.48 l
-2.64 7.31 l
-2.65 5.57 l
-2.65 19.15 l
-2.64 -47.01 l
-2.65 38.34 l
-2.65 6.48 l
-2.64 2.51 l
-2.65 -47.47 l
-2.65 0.75 l
-2.65 20.53 l
-2.64 17.20 l
-2.65 2.39 l
-2.65 8.23 l
-2.64 -40.99 l
-2.65 30.38 l
-2.65 -8.04 l
-2.64 -38.69 l
-2.65 -17.19 l
-2.65 -3.96 l
-2.64 3.24 l
-2.65 1.11 l
-2.65 23.72 l
-2.65 27.80 l
-2.64 11.82 l
-2.65 10.05 l
-2.65 -10.46 l
-2.64 -9.84 l
-2.65 -46.60 l
-2.65 57.68 l
-2.64 -5.70 l
-2.65 -2.20 l
-2.65 -26.39 l
-2.64 -1.91 l
-2.65 11.45 l
-2.65 16.08 l
-2.65 31.16 l
-2.64 -0.58 l
-2.65 -57.63 l
-2.65 63.91 l
-2.64 -23.83 l
-2.65 -19.35 l
-2.65 -32.17 l
-2.64 -23.48 l
-2.65 9.04 l
-2.65 -7.92 l
-2.64 16.71 l
-2.65 28.53 l
-2.65 18.84 l
-2.65 19.60 l
-2.64 -3.60 l
-2.65 -4.89 l
-2.65 -62.58 l
-2.64 30.46 l
-2.65 -23.07 l
-2.65 -14.34 l
-2.64 -3.39 l
-2.65 1.58 l
-2.65 22.35 l
-2.64 15.68 l
-2.65 3.07 l
-2.65 7.60 l
-2.65 -29.26 l
-2.64 82.40 l
-2.65 -14.17 l
-2.65 -15.95 l
-2.64 -77.56 l
-2.65 -19.32 l
-2.65 -6.21 l
cp p3
/bg { 0.6196 0.7922 0.8824 srgb } def
0.6196 0.7922 0.8824 srgb
np
 95.09 163.74 m
2.65 5.81 l
2.65 18.99 l
2.64 82.06 l
2.65 25.26 l
2.65 21.62 l
2.64 -73.56 l
2.65 48.00 l
2.65 10.96 l
2.65 7.60 l
2.64 -18.00 l
2.65 -24.23 l
2.65 -4.09 l
2.64 5.49 l
2.65 11.27 l
2.65 24.87 l
2.64 -30.05 l
2.65 51.97 l
2.65 -16.95 l
2.64 -13.50 l
2.65 -27.07 l
2.65 -26.74 l
2.65 -29.53 l
2.64 -16.50 l
2.65 8.06 l
2.65 -9.16 l
2.64 23.80 l
2.65 31.46 l
2.65 28.07 l
2.64 34.64 l
2.65 -52.51 l
2.65 76.35 l
2.64 15.01 l
2.65 -28.83 l
2.65 -13.51 l
2.65 -11.48 l
2.64 0.75 l
2.65 27.28 l
2.65 3.46 l
2.64 3.76 l
2.65 -55.45 l
2.65 31.58 l
2.64 -9.54 l
2.65 -4.00 l
2.65 -19.94 l
2.64 -22.73 l
2.65 -29.15 l
2.65 -23.12 l
2.65 -0.62 l
2.64 -3.22 l
2.65 2.93 l
2.65 16.94 l
2.64 47.29 l
2.65 16.77 l
2.65 -17.24 l
2.64 58.87 l
2.65 9.48 l
2.65 -0.84 l
2.64 -16.68 l
2.65 -20.88 l
2.65 0.23 l
2.65 49.20 l
2.64 1.29 l
2.65 -9.38 l
2.65 -40.17 l
2.64 35.72 l
2.65 -36.44 l
2.65 -23.11 l
2.64 -20.50 l
2.65 -9.48 l
2.65 -20.74 l
2.64 -2.45 l
2.65 -7.04 l
2.65 -18.54 l
2.65 2.54 l
2.64 18.49 l
2.65 43.45 l
2.65 38.24 l
2.64 -36.43 l
2.65 51.71 l
2.65 12.01 l
2.64 -9.93 l
2.65 -31.13 l
2.65 10.13 l
2.64 14.61 l
2.65 2.00 l
2.65 23.94 l
2.64 20.97 l
2.65 -49.21 l
2.65 58.81 l
2.65 -50.20 l
2.64 -22.33 l
2.65 -18.54 l
2.65 -24.98 l
2.64 -27.84 l
2.65 -0.42 l
2.65 -15.17 l
2.64 13.79 l
2.65 -13.23 l
2.65 13.26 l
359.78 241.21 lineto
2.65 57.87 l
2.65 -44.50 l
2.65 54.59 l
2.64 5.17 l
2.65 8.35 l
2.65 -46.91 l
2.64 5.93 l
2.65 12.18 l
2.65 -5.51 l
2.64 25.17 l
2.65 7.37 l
2.65 -16.44 l
2.64 103.45 l
2.65 -53.96 l
2.65 -23.47 l
2.65 -49.62 l
2.64 -21.72 l
2.65 -26.99 l
2.65 -22.30 l
2.64 -6.97 l
2.65 -9.79 l
2.65 -2.02 l
2.64 48.46 l
2.65 13.61 l
2.65 35.35 l
2.64 -62.12 l
2.65 60.52 l
2.65 4.30 l
2.65 -10.48 l
2.64 -26.48 l
2.65 17.52 l
2.65 -2.34 l
2.64 -19.48 l
2.65 46.20 l
2.65 14.89 l
2.64 -3.67 l
2.65 79.54 l
2.65 -41.60 l
2.64 -23.31 l
2.65 -31.10 l
2.65 -36.20 l
2.65 -34.14 l
2.64 -27.68 l
2.65 -8.53 l
2.65 -3.21 l
2.64 15.97 l
2.65 12.25 l
2.65 18.65 l
2.64 44.99 l
2.65 -44.18 l
2.65 35.49 l
2.64 29.25 l
2.65 -7.17 l
2.65 -34.78 l
2.65 6.42 l
2.64 7.61 l
2.65 -10.99 l
2.65 19.88 l
2.64 -1.97 l
2.65 -16.95 l
2.65 58.47 l
2.64 -16.98 l
2.65 -34.55 l
2.65 3.69 l
2.64 -12.67 l
2.65 -33.84 l
2.65 -29.03 l
2.65 -3.50 l
2.64 2.03 l
2.65 19.70 l
2.65 8.03 l
2.64 29.03 l
2.65 43.82 l
2.65 -35.06 l
2.64 29.09 l
2.65 35.24 l
2.65 -16.03 l
2.64 -26.45 l
2.65 22.08 l
2.65 6.79 l
2.65 -24.16 l
2.64 34.72 l
2.65 -3.55 l
2.65 -15.43 l
2.64 78.40 l
2.65 -31.22 l
2.65 -40.88 l
2.64 -36.69 l
2.65 -25.14 l
2.65 -25.06 l
2.64 -15.90 l
2.65 -4.39 l
2.65 -1.62 l
2.64 10.52 l
2.65 0.47 l
2.65 28.57 l
2.65 42.98 l
2.64 -13.32 l
2.65 46.06 l
624.48 339.55 lineto
2.64 -38.22 l
2.65 -33.33 l
2.65 15.02 l
2.64 18.80 l
2.65 -1.94 l
2.65 37.24 l
2.64 -24.00 l
2.65 -22.05 l
2.65 84.66 l
2.65 -40.55 l
2.64 -38.11 l
2.65 -33.06 l
2.65 -2.11 l
2.64 -20.37 l
2.65 -19.09 l
2.65 -3.33 l
2.64 -17.39 l
2.65 -10.64 l
2.65 11.86 l
2.64 25.33 l
2.65 26.87 l
2.65 1.66 l
2.65 41.91 l
2.64 13.67 l
2.65 -23.77 l
2.65 -28.94 l
2.64 19.53 l
2.65 12.72 l
2.65 5.44 l
2.64 35.66 l
2.65 -13.16 l
2.65 -13.11 l
2.64 63.24 l
2.65 -32.82 l
2.65 -31.82 l
2.65 -45.67 l
2.64 -14.58 l
2.65 -19.21 l
2.65 -21.83 l
0 -13.75 l
-2.65 22.83 l
-2.65 19.00 l
-2.64 9.83 l
-2.65 41.47 l
-2.65 23.40 l
-2.65 23.80 l
-2.64 -68.38 l
-2.65 13.73 l
-2.65 13.53 l
-2.64 -37.21 l
-2.65 -5.60 l
-2.65 -15.78 l
-2.64 -17.01 l
-2.65 28.44 l
-2.65 24.92 l
-2.64 -3.10 l
-2.65 -33.85 l
-2.65 0.55 l
-2.65 -21.92 l
-2.64 -20.52 l
-2.65 -10.37 l
-2.65 9.76 l
-2.64 18.06 l
-2.65 2.96 l
-2.65 18.88 l
-2.64 19.65 l
-2.65 -1.51 l
-2.65 29.63 l
-2.64 28.65 l
-2.65 32.31 l
-2.65 -89.10 l
-2.65 23.46 l
-2.64 25.21 l
-2.65 -39.42 l
-2.65 3.11 l
-2.64 -22.82 l
-2.65 -13.26 l
-2.65 33.60 l
-2.64 34.00 l
-2.65 -20.48 l
-2.65 -35.23 l
-2.64 20.33 l
-2.65 -39.82 l
-2.65 -24.61 l
-2.65 0.31 l
-2.64 -10.02 l
-2.65 1.20 l
-2.65 4.45 l
-2.64 15.70 l
-2.65 25.19 l
-2.65 20.69 l
-2.64 32.03 l
-2.65 30.88 l
-2.65 23.33 l
-2.64 -85.05 l
-2.65 16.97 l
-2.65 1.35 l
-2.64 -29.36 l
-2.65 23.01 l
568.89 256.17 lineto
-2.65 -21.51 l
-2.64 22.75 l
-2.65 17.89 l
-2.65 -27.10 l
-2.64 -19.00 l
-2.65 37.46 l
-2.65 -38.66 l
-2.64 -25.11 l
-2.65 -7.76 l
-2.65 -19.38 l
-2.64 -2.04 l
-2.65 8.91 l
-2.65 29.27 l
-2.65 33.70 l
-2.64 9.64 l
-2.65 -6.01 l
-2.65 29.00 l
-2.64 12.82 l
-2.65 -61.00 l
-2.65 15.10 l
-2.64 1.84 l
-2.65 -19.89 l
-2.65 12.05 l
-2.64 -7.36 l
-2.65 -7.45 l
-2.65 34.92 l
-2.65 8.79 l
-2.64 -25.84 l
-2.65 -29.88 l
-2.65 46.65 l
-2.64 -42.06 l
-2.65 -16.30 l
-2.65 -12.74 l
-2.64 -15.05 l
-2.65 3.37 l
-2.65 8.47 l
-2.64 27.59 l
-2.65 34.20 l
-2.65 34.03 l
-2.65 29.09 l
-2.64 17.98 l
-2.65 37.98 l
-2.65 -84.10 l
-2.64 4.05 l
-2.65 -16.64 l
-2.65 -45.80 l
-2.64 19.86 l
-2.65 2.26 l
-2.65 -16.63 l
-2.64 28.86 l
-2.65 9.33 l
-2.65 -0.02 l
-2.65 -56.56 l
-2.64 65.61 l
-2.65 -33.81 l
-2.65 -10.22 l
-2.64 -48.64 l
-2.65 2.72 l
-2.65 9.44 l
-2.64 1.95 l
-2.65 22.30 l
-2.65 26.85 l
-2.64 17.09 l
-2.65 44.48 l
-2.65 16.31 l
-2.65 44.12 l
-2.64 -106.96 l
-2.65 17.69 l
-2.65 -7.86 l
-2.64 -24.70 l
-2.65 3.03 l
-2.65 -9.24 l
-2.64 -10.12 l
-2.65 46.91 l
-2.65 -6.94 l
-2.64 1.99 l
-2.65 -44.92 l
-2.65 46.86 l
-2.65 -52.08 l
-2.64 -18.57 l
-2.65 -13.14 l
-2.65 13.08 l
-2.64 -13.12 l
-2.65 15.22 l
-2.65 1.16 l
-2.64 26.86 l
-2.65 19.85 l
-2.65 14.76 l
-2.64 15.62 l
-2.65 41.01 l
-2.65 -63.75 l
-2.65 46.87 l
-2.64 -20.13 l
-2.65 -21.66 l
-2.65 -2.71 l
-2.64 -14.91 l
-2.65 -8.67 l
-2.65 31.93 l
-2.64 6.65 l
304.20 276.81 lineto
-2.65 -43.25 l
-2.64 40.70 l
-2.65 -33.34 l
-2.65 -39.50 l
-2.64 -18.20 l
-2.65 -2.81 l
-2.65 18.26 l
-2.65 7.45 l
-2.64 1.62 l
-2.65 21.69 l
-2.65 5.25 l
-2.64 14.32 l
-2.65 16.34 l
-2.65 26.17 l
-2.64 -42.24 l
-2.65 39.94 l
-2.65 8.31 l
-2.64 -0.42 l
-2.65 -48.08 l
-2.65 0.14 l
-2.65 21.39 l
-2.64 18.83 l
-2.65 0.07 l
-2.65 -0.46 l
-2.64 -51.34 l
-2.65 22.12 l
-2.65 -11.44 l
-2.64 -42.54 l
-2.65 -17.29 l
-2.65 -3.87 l
-2.64 3.54 l
-2.65 0.82 l
-2.65 23.86 l
-2.65 27.96 l
-2.64 17.41 l
-2.65 15.50 l
-2.65 -3.07 l
-2.64 -0.56 l
-2.65 -38.55 l
-2.65 56.89 l
-2.64 -3.63 l
-2.65 -3.19 l
-2.65 -26.04 l
-2.64 -2.02 l
-2.65 10.89 l
-2.65 14.16 l
-2.65 31.32 l
-2.64 -8.34 l
-2.65 -66.81 l
-2.65 56.72 l
-2.64 -28.62 l
-2.65 -24.77 l
-2.65 -31.60 l
-2.64 -23.86 l
-2.65 9.21 l
-2.65 -8.22 l
-2.64 16.68 l
-2.65 29.16 l
-2.65 23.09 l
-2.65 24.15 l
-2.64 4.91 l
-2.65 6.14 l
-2.65 -54.33 l
-2.64 28.99 l
-2.65 -23.78 l
-2.65 -10.75 l
-2.64 -6.64 l
-2.65 3.09 l
-2.65 24.88 l
-2.64 16.13 l
-2.65 0.67 l
-2.65 -1.97 l
-2.65 -41.25 l
-2.64 77.19 l
-2.65 -19.13 l
-2.65 -21.36 l
-2.64 -81.64 l
-2.65 -19.29 l
-2.65 -6.04 l
cp p3
/bg { 0.4196 0.6824 0.8392 srgb } def
0.4196 0.6824 0.8392 srgb
np
 95.09 203.15 m
2.65 0.17 l
2.65 18.33 l
2.64 97.24 l
2.65 24.64 l
2.65 29.18 l
2.64 -73.09 l
2.65 56.93 l
2.65 9.86 l
2.65 9.44 l
2.64 -17.94 l
2.65 -26.01 l
2.65 -3.66 l
2.64 12.15 l
2.65 11.93 l
2.65 31.97 l
2.64 -28.31 l
2.65 45.28 l
2.65 -26.13 l
2.64 -13.52 l
2.65 -25.46 l
2.65 -35.44 l
2.65 -29.63 l
2.64 -16.56 l
2.65 6.77 l
2.65 -16.75 l
2.64 23.32 l
2.65 30.79 l
2.65 29.53 l
2.64 43.04 l
2.65 -52.46 l
2.65 83.53 l
2.64 15.68 l
2.65 -28.52 l
2.65 -14.22 l
2.65 -10.65 l
2.64 -1.25 l
2.65 35.31 l
2.65 2.84 l
2.64 12.10 l
2.65 -55.57 l
2.65 23.53 l
2.64 -17.76 l
2.65 -2.59 l
2.65 -25.10 l
2.64 -28.82 l
2.65 -30.52 l
2.65 -23.22 l
2.65 -1.72 l
2.64 -10.64 l
2.65 3.33 l
2.65 22.02 l
2.64 48.33 l
2.65 23.91 l
2.65 -17.25 l
2.64 66.68 l
2.65 10.75 l
2.65 -1.27 l
2.64 -16.69 l
2.65 -20.24 l
2.65 -1.06 l
2.65 55.67 l
2.64 2.52 l
2.65 -2.49 l
2.65 -38.56 l
2.64 26.43 l
2.65 -42.87 l
2.65 -24.30 l
2.64 -18.32 l
2.65 -18.09 l
2.65 -20.52 l
2.64 -2.41 l
2.65 -8.67 l
2.65 -26.43 l
2.65 2.38 l
2.64 18.33 l
2.65 42.87 l
2.65 46.31 l
2.64 -36.33 l
2.65 61.53 l
2.65 12.37 l
2.64 -10.14 l
2.65 -30.27 l
2.65 9.52 l
2.64 14.88 l
2.65 8.60 l
2.65 24.08 l
2.64 29.64 l
2.65 -50.57 l
2.65 51.88 l
2.65 -60.60 l
2.64 -20.86 l
2.65 -17.58 l
2.65 -32.77 l
2.64 -28.06 l
2.65 -0.70 l
2.65 -14.39 l
2.64 6.41 l
2.65 -13.52 l
2.65 12.62 l
359.78 290.99 lineto
2.65 65.06 l
2.65 -43.06 l
2.65 62.59 l
2.64 5.39 l
2.65 8.24 l
2.65 -46.75 l
2.64 4.85 l
2.65 14.20 l
2.65 2.60 l
2.64 25.02 l
2.65 14.04 l
2.65 -19.95 l
2.64 96.61 l
2.65 -65.20 l
2.65 -22.06 l
2.65 -52.52 l
2.64 -28.74 l
2.65 -27.82 l
2.65 -23.08 l
2.64 -9.88 l
2.65 -16.04 l
2.65 -2.91 l
2.64 47.63 l
2.65 14.55 l
2.65 40.70 l
2.64 -60.25 l
2.65 68.56 l
2.65 6.74 l
2.65 -7.39 l
2.64 -24.08 l
2.65 18.46 l
2.65 -1.67 l
2.64 -13.11 l
2.65 48.76 l
2.65 22.73 l
2.64 -3.64 l
2.65 71.68 l
2.65 -50.68 l
2.64 -23.58 l
2.65 -30.49 l
2.65 -43.82 l
2.65 -33.43 l
2.64 -28.73 l
2.65 -7.60 l
2.65 -11.90 l
2.64 15.62 l
2.65 12.79 l
2.65 19.66 l
2.64 52.60 l
2.65 -44.71 l
2.65 43.94 l
2.64 28.29 l
2.65 -7.73 l
2.65 -34.27 l
2.65 6.37 l
2.64 7.49 l
2.65 -2.53 l
2.65 19.91 l
2.64 6.18 l
2.65 -16.66 l
2.65 50.09 l
2.64 -23.98 l
2.65 -34.32 l
2.65 2.55 l
2.64 -20.32 l
2.65 -34.11 l
2.65 -28.99 l
2.65 -3.01 l
2.64 -7.00 l
2.65 19.80 l
2.65 8.01 l
2.64 28.38 l
2.65 50.38 l
2.65 -32.77 l
2.64 35.73 l
2.65 35.81 l
2.65 -16.17 l
2.64 -25.78 l
2.65 20.21 l
2.65 6.29 l
2.65 -15.81 l
2.64 35.02 l
2.65 2.89 l
2.65 -16.69 l
2.64 71.94 l
2.65 -39.72 l
2.65 -40.64 l
2.64 -37.82 l
2.65 -33.59 l
2.65 -24.13 l
2.64 -16.74 l
2.65 -4.59 l
2.65 -10.03 l
2.64 10.01 l
2.65 0.83 l
2.65 26.55 l
2.65 49.76 l
2.64 -13.88 l
2.65 50.89 l
624.48 396.16 lineto
2.64 -36.53 l
2.65 -31.84 l
2.65 17.55 l
2.64 20.48 l
2.65 7.42 l
2.65 35.59 l
2.64 -17.94 l
2.65 -24.76 l
2.65 74.26 l
2.65 -49.67 l
2.64 -38.21 l
2.65 -34.08 l
2.65 -9.13 l
2.64 -18.54 l
2.65 -16.02 l
2.65 -3.99 l
2.64 -22.76 l
2.65 -11.34 l
2.65 13.79 l
2.64 25.10 l
2.65 35.19 l
2.65 1.56 l
2.65 50.94 l
2.64 13.70 l
2.65 -21.46 l
2.65 -29.82 l
2.64 19.27 l
2.65 12.75 l
2.65 14.28 l
2.64 35.77 l
2.65 -4.95 l
2.65 -11.43 l
2.64 53.93 l
2.65 -42.38 l
2.65 -31.89 l
2.65 -47.97 l
2.64 -21.91 l
2.65 -21.10 l
2.65 -22.02 l
0 -53.94 l
-2.65 21.83 l
-2.65 19.21 l
-2.64 14.58 l
-2.65 45.67 l
-2.65 31.82 l
-2.65 32.82 l
-2.64 -63.24 l
-2.65 13.11 l
-2.65 13.16 l
-2.64 -35.66 l
-2.65 -5.44 l
-2.65 -12.72 l
-2.64 -19.53 l
-2.65 28.94 l
-2.65 23.77 l
-2.64 -13.67 l
-2.65 -41.91 l
-2.65 -1.66 l
-2.65 -26.87 l
-2.64 -25.33 l
-2.65 -11.86 l
-2.65 10.64 l
-2.64 17.39 l
-2.65 3.33 l
-2.65 19.09 l
-2.64 20.37 l
-2.65 2.11 l
-2.65 33.06 l
-2.64 38.11 l
-2.65 40.55 l
-2.65 -84.66 l
-2.65 22.05 l
-2.64 24.00 l
-2.65 -37.24 l
-2.65 1.94 l
-2.64 -18.80 l
-2.65 -15.02 l
-2.65 33.33 l
-2.64 38.22 l
-2.65 -29.72 l
-2.65 -46.06 l
-2.64 13.32 l
-2.65 -42.98 l
-2.65 -28.57 l
-2.65 -0.47 l
-2.64 -10.52 l
-2.65 1.62 l
-2.65 4.39 l
-2.64 15.90 l
-2.65 25.06 l
-2.65 25.14 l
-2.64 36.69 l
-2.65 40.88 l
-2.65 31.22 l
-2.64 -78.40 l
-2.65 15.43 l
-2.65 3.55 l
-2.64 -34.72 l
-2.65 24.16 l
568.89 298.68 lineto
-2.65 -22.08 l
-2.64 26.45 l
-2.65 16.03 l
-2.65 -35.24 l
-2.64 -29.09 l
-2.65 35.06 l
-2.65 -43.82 l
-2.64 -29.03 l
-2.65 -8.03 l
-2.65 -19.70 l
-2.64 -2.03 l
-2.65 3.50 l
-2.65 29.03 l
-2.65 33.84 l
-2.64 12.67 l
-2.65 -3.69 l
-2.65 34.55 l
-2.64 16.98 l
-2.65 -58.47 l
-2.65 16.95 l
-2.64 1.97 l
-2.65 -19.88 l
-2.65 10.99 l
-2.64 -7.61 l
-2.65 -6.42 l
-2.65 34.78 l
-2.65 7.17 l
-2.64 -29.25 l
-2.65 -35.49 l
-2.65 44.18 l
-2.64 -44.99 l
-2.65 -18.65 l
-2.65 -12.25 l
-2.64 -15.97 l
-2.65 3.21 l
-2.65 8.53 l
-2.64 27.68 l
-2.65 34.14 l
-2.65 36.20 l
-2.65 31.10 l
-2.64 23.31 l
-2.65 41.60 l
-2.65 -79.54 l
-2.64 3.67 l
-2.65 -14.89 l
-2.65 -46.20 l
-2.64 19.48 l
-2.65 2.34 l
-2.65 -17.52 l
-2.64 26.48 l
-2.65 10.48 l
-2.65 -4.30 l
-2.65 -60.52 l
-2.64 62.12 l
-2.65 -35.35 l
-2.65 -13.61 l
-2.64 -48.46 l
-2.65 2.02 l
-2.65 9.79 l
-2.64 6.97 l
-2.65 22.30 l
-2.65 26.99 l
-2.64 21.72 l
-2.65 49.62 l
-2.65 23.47 l
-2.65 53.96 l
-2.64 -103.45 l
-2.65 16.44 l
-2.65 -7.37 l
-2.64 -25.17 l
-2.65 5.51 l
-2.65 -12.18 l
-2.64 -5.93 l
-2.65 46.91 l
-2.65 -8.35 l
-2.64 -5.17 l
-2.65 -54.59 l
-2.65 44.50 l
-2.65 -57.87 l
-2.64 -23.06 l
-2.65 -13.26 l
-2.65 13.23 l
-2.64 -13.79 l
-2.65 15.17 l
-2.65 0.42 l
-2.64 27.84 l
-2.65 24.98 l
-2.65 18.54 l
-2.64 22.33 l
-2.65 50.20 l
-2.65 -58.81 l
-2.65 49.21 l
-2.64 -20.97 l
-2.65 -23.94 l
-2.65 -2.00 l
-2.64 -14.61 l
-2.65 -10.13 l
-2.65 31.13 l
-2.64 9.93 l
304.20 311.61 lineto
-2.65 -51.71 l
-2.64 36.43 l
-2.65 -38.24 l
-2.65 -43.45 l
-2.64 -18.49 l
-2.65 -2.54 l
-2.65 18.54 l
-2.65 7.04 l
-2.64 2.45 l
-2.65 20.74 l
-2.65 9.48 l
-2.64 20.50 l
-2.65 23.11 l
-2.65 36.44 l
-2.64 -35.72 l
-2.65 40.17 l
-2.65 9.38 l
-2.64 -1.29 l
-2.65 -49.20 l
-2.65 -0.23 l
-2.65 20.88 l
-2.64 16.68 l
-2.65 0.84 l
-2.65 -9.48 l
-2.64 -58.87 l
-2.65 17.24 l
-2.65 -16.77 l
-2.64 -47.29 l
-2.65 -16.94 l
-2.65 -2.93 l
-2.64 3.22 l
-2.65 0.62 l
-2.65 23.12 l
-2.65 29.15 l
-2.64 22.73 l
-2.65 19.94 l
-2.65 4.00 l
-2.64 9.54 l
-2.65 -31.58 l
-2.65 55.45 l
-2.64 -3.76 l
-2.65 -3.46 l
-2.65 -27.28 l
-2.64 -0.75 l
-2.65 11.48 l
-2.65 13.51 l
-2.65 28.83 l
-2.64 -15.01 l
-2.65 -76.35 l
-2.65 52.51 l
-2.64 -34.64 l
-2.65 -28.07 l
-2.65 -31.46 l
-2.64 -23.80 l
-2.65 9.16 l
-2.65 -8.06 l
-2.64 16.50 l
-2.65 29.53 l
-2.65 26.74 l
-2.65 27.07 l
-2.64 13.50 l
-2.65 16.95 l
-2.65 -51.97 l
-2.64 30.05 l
-2.65 -24.87 l
-2.65 -11.27 l
-2.64 -5.49 l
-2.65 4.09 l
-2.65 24.23 l
-2.64 18.00 l
-2.65 -7.60 l
-2.65 -10.96 l
-2.65 -48.00 l
-2.64 73.56 l
-2.65 -21.62 l
-2.65 -25.26 l
-2.64 -82.06 l
-2.65 -18.99 l
-2.65 -5.81 l
cp p3
/bg { 0.2588 0.5725 0.7765 srgb } def
0.2588 0.5725 0.7765 srgb
np
 95.09 220.91 m
2.65 -0.56 l
2.65 17.84 l
2.64 96.68 l
2.65 24.83 l
2.65 29.09 l
2.64 -72.66 l
2.65 57.49 l
2.65 8.71 l
2.65 13.62 l
2.64 -16.91 l
2.65 -26.75 l
2.65 -4.05 l
2.64 11.96 l
2.65 12.10 l
2.65 31.96 l
2.64 -28.13 l
2.65 45.46 l
2.65 -25.88 l
2.64 -12.78 l
2.65 -25.31 l
2.65 -36.07 l
2.65 -30.64 l
2.64 -15.84 l
2.65 6.69 l
2.65 -17.08 l
2.64 23.23 l
2.65 32.01 l
2.65 29.43 l
2.64 41.97 l
2.65 -53.08 l
2.65 83.36 l
2.64 16.49 l
2.65 -28.60 l
2.65 -14.33 l
2.65 -10.09 l
2.64 -1.08 l
2.65 34.58 l
2.65 2.90 l
2.64 12.43 l
2.65 -56.93 l
2.65 23.79 l
2.64 -17.35 l
2.65 -1.99 l
2.65 -24.93 l
2.64 -27.42 l
2.65 -32.39 l
2.65 -23.48 l
2.65 -3.13 l
2.64 -9.40 l
2.65 3.76 l
2.65 22.34 l
2.64 48.18 l
2.65 23.38 l
2.65 -16.93 l
2.64 67.48 l
2.65 10.46 l
2.65 -0.94 l
2.64 -16.91 l
2.65 -21.69 l
2.65 0.02 l
2.65 55.90 l
2.64 2.51 l
2.65 -2.57 l
2.65 -39.45 l
2.64 26.78 l
2.65 -42.54 l
2.65 -23.99 l
2.64 -17.98 l
2.65 -18.33 l
2.65 -20.80 l
2.64 -2.51 l
2.65 -8.85 l
2.65 -25.50 l
2.65 2.42 l
2.64 17.53 l
2.65 42.88 l
2.65 47.28 l
2.64 -37.19 l
2.65 62.09 l
2.65 12.23 l
2.64 -9.38 l
2.65 -31.50 l
2.65 9.85 l
2.64 15.19 l
2.65 7.64 l
2.65 25.63 l
2.64 29.83 l
2.65 -51.14 l
2.65 52.46 l
2.65 -61.37 l
2.64 -19.95 l
2.65 -19.06 l
2.65 -33.52 l
2.64 -26.92 l
2.65 -1.18 l
2.65 -14.49 l
2.64 6.52 l
2.65 -13.64 l
2.65 13.36 l
359.78 311.32 lineto
2.65 64.93 l
2.65 -42.60 l
2.65 62.55 l
2.64 5.87 l
2.65 7.80 l
2.65 -47.26 l
2.64 4.66 l
2.65 13.97 l
2.65 3.72 l
2.64 24.68 l
2.65 14.58 l
2.65 -21.23 l
2.64 97.09 l
2.65 -64.92 l
2.65 -21.13 l
2.65 -53.26 l
2.64 -28.89 l
2.65 -28.43 l
2.65 -23.34 l
2.64 -28.62 l
2.65 -16.05 l
2.65 -2.87 l
2.64 47.66 l
2.65 14.54 l
2.65 40.71 l
2.64 -60.29 l
2.65 68.61 l
2.65 6.70 l
2.65 -7.34 l
2.64 -24.07 l
2.65 18.38 l
2.65 -1.64 l
2.64 -13.11 l
2.65 48.78 l
2.65 22.69 l
2.64 -3.63 l
2.65 71.68 l
2.65 -50.65 l
2.64 -23.55 l
2.65 -30.53 l
2.65 -43.86 l
2.65 -33.40 l
2.64 -28.75 l
2.65 -7.55 l
2.65 -11.92 l
2.64 15.61 l
2.65 12.78 l
2.65 19.72 l
2.64 52.55 l
2.65 -44.73 l
2.65 43.97 l
2.64 28.35 l
2.65 -7.77 l
2.65 -34.22 l
2.65 6.34 l
2.64 7.44 l
2.65 -2.51 l
2.65 19.93 l
2.64 6.20 l
2.65 -16.68 l
2.65 50.07 l
2.64 -23.94 l
2.65 -34.36 l
2.65 2.53 l
2.64 -20.31 l
2.65 -34.07 l
2.65 -29.00 l
2.65 17.10 l
2.64 -7.27 l
2.65 19.17 l
2.65 7.75 l
2.64 28.49 l
2.65 50.78 l
2.65 -32.59 l
2.64 35.70 l
2.65 35.04 l
2.65 -15.79 l
2.64 -25.75 l
2.65 20.69 l
2.65 6.27 l
2.65 -15.93 l
2.64 35.66 l
2.65 2.27 l
2.65 -16.29 l
2.64 71.14 l
2.65 -39.80 l
2.65 -40.66 l
2.64 -36.72 l
2.65 -34.02 l
2.65 -25.27 l
2.64 -17.36 l
2.65 -4.04 l
2.65 -9.51 l
2.64 9.89 l
2.65 0.63 l
2.65 27.33 l
2.65 49.60 l
2.64 -13.97 l
2.65 50.53 l
624.48 416.29 lineto
2.64 -36.64 l
2.65 -31.61 l
2.65 18.09 l
2.64 19.57 l
2.65 7.85 l
2.65 35.55 l
2.64 -18.65 l
2.65 -24.88 l
2.65 75.02 l
2.65 -50.51 l
2.64 -38.17 l
2.65 -33.16 l
2.65 -9.22 l
2.64 -18.43 l
2.65 -15.59 l
2.65 -4.71 l
2.64 -23.11 l
2.65 -10.78 l
2.65 14.36 l
2.64 24.46 l
2.65 35.00 l
2.65 1.50 l
2.65 50.84 l
2.64 13.57 l
2.65 -21.42 l
2.65 -28.80 l
2.64 19.26 l
2.65 12.25 l
2.65 15.20 l
2.64 35.41 l
2.65 -4.59 l
2.65 -12.45 l
2.64 53.43 l
2.65 -41.45 l
2.65 -32.55 l
2.65 -47.80 l
2.64 -22.21 l
2.65 -21.39 l
2.65 -22.26 l
0 -19.27 l
-2.65 22.02 l
-2.65 21.10 l
-2.64 21.91 l
-2.65 47.97 l
-2.65 31.89 l
-2.65 42.38 l
-2.64 -53.93 l
-2.65 11.43 l
-2.65 4.95 l
-2.64 -35.77 l
-2.65 -14.28 l
-2.65 -12.75 l
-2.64 -19.27 l
-2.65 29.82 l
-2.65 21.46 l
-2.64 -13.70 l
-2.65 -50.94 l
-2.65 -1.56 l
-2.65 -35.19 l
-2.64 -25.10 l
-2.65 -13.79 l
-2.65 11.34 l
-2.64 22.76 l
-2.65 3.99 l
-2.65 16.02 l
-2.64 18.54 l
-2.65 9.13 l
-2.65 34.08 l
-2.64 38.21 l
-2.65 49.67 l
-2.65 -74.26 l
-2.65 24.76 l
-2.64 17.94 l
-2.65 -35.59 l
-2.65 -7.42 l
-2.64 -20.48 l
-2.65 -17.55 l
-2.65 31.84 l
-2.64 36.53 l
-2.65 -33.14 l
-2.65 -50.89 l
-2.64 13.88 l
-2.65 -49.76 l
-2.65 -26.55 l
-2.65 -0.83 l
-2.64 -10.01 l
-2.65 10.03 l
-2.65 4.59 l
-2.64 16.74 l
-2.65 24.13 l
-2.65 33.59 l
-2.64 37.82 l
-2.65 40.64 l
-2.65 39.72 l
-2.64 -71.94 l
-2.65 16.69 l
-2.65 -2.89 l
-2.64 -35.02 l
-2.65 15.81 l
568.89 362.48 lineto
-2.65 -20.21 l
-2.64 25.78 l
-2.65 16.17 l
-2.65 -35.81 l
-2.64 -35.73 l
-2.65 32.77 l
-2.65 -50.38 l
-2.64 -28.38 l
-2.65 -8.01 l
-2.65 -19.80 l
-2.64 7.00 l
-2.65 3.01 l
-2.65 28.99 l
-2.65 34.11 l
-2.64 20.32 l
-2.65 -2.55 l
-2.65 34.32 l
-2.64 23.98 l
-2.65 -50.09 l
-2.65 16.66 l
-2.64 -6.18 l
-2.65 -19.91 l
-2.65 2.53 l
-2.64 -7.49 l
-2.65 -6.37 l
-2.65 34.27 l
-2.65 7.73 l
-2.64 -28.29 l
-2.65 -43.94 l
-2.65 44.71 l
-2.64 -52.60 l
-2.65 -19.66 l
-2.65 -12.79 l
-2.64 -15.62 l
-2.65 11.90 l
-2.65 7.60 l
-2.64 28.73 l
-2.65 33.43 l
-2.65 43.82 l
-2.65 30.49 l
-2.64 23.58 l
-2.65 50.68 l
-2.65 -71.68 l
-2.64 3.64 l
-2.65 -22.73 l
-2.65 -48.76 l
-2.64 13.11 l
-2.65 1.67 l
-2.65 -18.46 l
-2.64 24.08 l
-2.65 7.39 l
-2.65 -6.74 l
-2.65 -68.56 l
-2.64 60.25 l
-2.65 -40.70 l
-2.65 -14.55 l
-2.64 -47.63 l
-2.65 2.91 l
-2.65 16.04 l
-2.64 9.88 l
-2.65 23.08 l
-2.65 27.82 l
-2.64 28.74 l
-2.65 52.52 l
-2.65 22.06 l
-2.65 65.20 l
-2.64 -96.61 l
-2.65 19.95 l
-2.65 -14.04 l
-2.64 -25.02 l
-2.65 -2.60 l
-2.65 -14.20 l
-2.64 -4.85 l
-2.65 46.75 l
-2.65 -8.24 l
-2.64 -5.39 l
-2.65 -62.59 l
-2.65 43.06 l
-2.65 -65.06 l
-2.64 -23.72 l
-2.65 -12.62 l
-2.65 13.52 l
-2.64 -6.41 l
-2.65 14.39 l
-2.65 0.70 l
-2.64 28.06 l
-2.65 32.77 l
-2.65 17.58 l
-2.64 20.86 l
-2.65 60.60 l
-2.65 -51.88 l
-2.65 50.57 l
-2.64 -29.64 l
-2.65 -24.08 l
-2.65 -8.60 l
-2.64 -14.88 l
-2.65 -9.52 l
-2.65 30.27 l
-2.64 10.14 l
304.20 376.73 lineto
-2.65 -61.53 l
-2.64 36.33 l
-2.65 -46.31 l
-2.65 -42.87 l
-2.64 -18.33 l
-2.65 -2.38 l
-2.65 26.43 l
-2.65 8.67 l
-2.64 2.41 l
-2.65 20.52 l
-2.65 18.09 l
-2.64 18.32 l
-2.65 24.30 l
-2.65 42.87 l
-2.64 -26.43 l
-2.65 38.56 l
-2.65 2.49 l
-2.64 -2.52 l
-2.65 -55.67 l
-2.65 1.06 l
-2.65 20.24 l
-2.64 16.69 l
-2.65 1.27 l
-2.65 -10.75 l
-2.64 -66.68 l
-2.65 17.25 l
-2.65 -23.91 l
-2.64 -48.33 l
-2.65 -22.02 l
-2.65 -3.33 l
-2.64 10.64 l
-2.65 1.72 l
-2.65 23.22 l
-2.65 30.52 l
-2.64 28.82 l
-2.65 25.10 l
-2.65 2.59 l
-2.64 17.76 l
-2.65 -23.53 l
-2.65 55.57 l
-2.64 -12.10 l
-2.65 -2.84 l
-2.65 -35.31 l
-2.64 1.25 l
-2.65 10.65 l
-2.65 14.22 l
-2.65 28.52 l
-2.64 -15.68 l
-2.65 -83.53 l
-2.65 52.46 l
-2.64 -43.04 l
-2.65 -29.53 l
-2.65 -30.79 l
-2.64 -23.32 l
-2.65 16.75 l
-2.65 -6.77 l
-2.64 16.56 l
-2.65 29.63 l
-2.65 35.44 l
-2.65 25.46 l
-2.64 13.52 l
-2.65 26.13 l
-2.65 -45.28 l
-2.64 28.31 l
-2.65 -31.97 l
-2.65 -11.93 l
-2.64 -12.15 l
-2.65 3.66 l
-2.65 26.01 l
-2.64 17.94 l
-2.65 -9.44 l
-2.65 -9.86 l
-2.65 -56.93 l
-2.64 73.09 l
-2.65 -29.18 l
-2.65 -24.64 l
-2.64 -97.24 l
-2.65 -18.33 l
-2.65 -0.17 l
cp p3
/bg { 0.1294 0.4431 0.7098 srgb } def
0.1294 0.4431 0.7098 srgb
np
 95.09 237.12 m
2.65 -1.00 l
2.65 16.71 l
2.64 99.54 l
2.65 24.12 l
2.65 29.35 l
2.64 -68.06 l
2.65 58.00 l
2.65 9.15 l
2.65 11.84 l
2.64 -15.81 l
2.65 -26.79 l
2.65 -2.99 l
2.64 11.48 l
2.65 11.64 l
2.65 41.65 l
2.64 -28.94 l
2.65 48.93 l
2.65 -24.96 l
2.64 -18.64 l
2.65 -31.34 l
2.65 -36.17 l
2.65 -31.40 l
2.64 -13.32 l
2.65 4.61 l
2.65 -17.60 l
2.64 21.50 l
2.65 31.68 l
2.65 30.36 l
2.64 45.10 l
2.65 -50.38 l
2.65 82.85 l
2.64 18.24 l
2.65 -28.27 l
2.65 -12.46 l
2.65 -9.78 l
2.64 -0.79 l
2.65 34.27 l
2.65 5.34 l
2.64 12.52 l
2.65 -57.06 l
2.65 21.95 l
2.64 -16.19 l
2.65 -6.58 l
2.65 -28.50 l
2.64 -31.75 l
2.65 -33.51 l
2.65 -23.47 l
2.65 -0.13 l
2.64 -9.48 l
2.65 5.17 l
2.65 22.75 l
2.64 47.41 l
2.65 25.31 l
2.65 -13.12 l
2.64 72.17 l
2.65 10.96 l
2.65 -0.57 l
2.64 -18.02 l
2.65 -23.84 l
2.65 0.61 l
2.65 58.89 l
2.64 1.43 l
2.65 -5.16 l
2.65 -42.96 l
2.64 30.31 l
2.65 -44.19 l
2.65 -25.37 l
2.64 -19.59 l
2.65 -22.68 l
2.65 -20.21 l
2.64 -3.61 l
2.65 -10.28 l
2.65 -22.64 l
2.65 2.98 l
2.64 15.96 l
2.65 45.30 l
2.65 47.48 l
2.64 -33.84 l
2.65 65.28 l
2.65 11.57 l
2.64 -8.10 l
2.65 -31.94 l
2.65 12.72 l
2.64 14.68 l
2.65 8.77 l
2.65 25.10 l
2.64 27.92 l
2.65 -50.62 l
2.65 50.05 l
2.65 -56.69 l
2.64 -25.83 l
2.65 -22.61 l
2.65 -35.76 l
2.64 -27.79 l
2.65 -2.99 l
2.65 -14.22 l
2.64 4.32 l
2.65 -14.01 l
2.65 15.25 l
359.78 332.36 lineto
2.65 65.85 l
2.65 -37.56 l
2.65 67.44 l
2.64 4.64 l
2.65 12.20 l
2.65 -49.57 l
2.64 5.82 l
2.65 12.20 l
2.65 5.24 l
2.64 23.47 l
2.65 13.05 l
2.65 -17.25 l
2.64 94.08 l
2.65 -64.76 l
2.65 -22.67 l
2.65 -58.63 l
2.64 -31.10 l
2.65 -27.28 l
2.65 -23.81 l
2.64 -31.30 l
2.65 -17.04 l
2.65 -2.83 l
2.64 49.31 l
2.65 14.31 l
2.65 44.38 l
2.64 -58.08 l
2.65 73.07 l
2.65 1.86 l
2.65 -6.19 l
2.64 -23.44 l
2.65 17.91 l
2.65 -1.56 l
2.64 -13.45 l
2.65 48.63 l
2.65 22.71 l
2.64 -2.69 l
2.65 72.30 l
2.65 -49.36 l
2.64 -28.18 l
2.65 -32.33 l
2.65 -48.58 l
2.65 -33.47 l
2.64 -28.53 l
2.65 -6.51 l
2.65 -13.07 l
2.64 16.86 l
2.65 14.37 l
2.65 18.68 l
2.64 54.22 l
2.65 -41.82 l
2.65 48.96 l
2.64 26.13 l
2.65 -10.38 l
2.65 -32.56 l
2.65 4.96 l
2.64 7.67 l
2.65 -5.97 l
2.65 20.97 l
2.64 6.02 l
2.65 -12.03 l
2.65 47.29 l
2.64 -20.97 l
2.65 -38.20 l
2.65 -0.10 l
2.64 -22.64 l
2.65 -34.17 l
2.65 -28.00 l
2.65 17.41 l
2.64 -7.52 l
2.65 19.06 l
2.65 8.67 l
2.64 29.38 l
2.65 52.06 l
2.65 -28.19 l
2.64 36.76 l
2.65 35.72 l
2.65 -12.79 l
2.64 -25.99 l
2.65 18.87 l
2.65 3.42 l
2.65 -13.87 l
2.64 36.10 l
2.65 3.52 l
2.65 -13.84 l
2.64 69.88 l
2.65 -38.01 l
2.65 -45.67 l
2.64 -38.57 l
2.65 -38.84 l
2.65 -24.51 l
2.64 -17.88 l
2.65 -3.49 l
2.65 -6.90 l
2.64 7.24 l
2.65 1.63 l
2.65 26.87 l
2.65 53.49 l
2.64 -9.36 l
2.65 50.54 l
624.48 449.29 lineto
2.64 -35.89 l
2.65 -30.96 l
2.65 16.65 l
2.64 20.27 l
2.65 8.12 l
2.65 33.42 l
2.64 -18.28 l
2.65 -25.14 l
2.65 77.96 l
2.65 -50.00 l
2.64 -44.18 l
2.65 -32.04 l
2.65 -14.94 l
2.64 -19.50 l
2.65 -14.50 l
2.65 -7.81 l
2.64 -24.09 l
2.65 -9.47 l
2.65 14.41 l
2.64 26.31 l
2.65 34.42 l
2.65 2.71 l
2.65 56.81 l
2.64 11.26 l
2.65 -19.79 l
2.65 -28.82 l
2.64 18.66 l
2.65 11.66 l
2.65 18.61 l
2.64 35.13 l
2.65 -3.53 l
2.65 -12.63 l
2.64 50.69 l
2.65 -41.72 l
2.65 -33.97 l
2.65 -52.36 l
2.64 -23.22 l
2.65 -21.74 l
2.65 -23.94 l
0 -20.59 l
-2.65 22.26 l
-2.65 21.39 l
-2.64 22.21 l
-2.65 47.80 l
-2.65 32.55 l
-2.65 41.45 l
-2.64 -53.43 l
-2.65 12.45 l
-2.65 4.59 l
-2.64 -35.41 l
-2.65 -15.20 l
-2.65 -12.25 l
-2.64 -19.26 l
-2.65 28.80 l
-2.65 21.42 l
-2.64 -13.57 l
-2.65 -50.84 l
-2.65 -1.50 l
-2.65 -35.00 l
-2.64 -24.46 l
-2.65 -14.36 l
-2.65 10.78 l
-2.64 23.11 l
-2.65 4.71 l
-2.65 15.59 l
-2.64 18.43 l
-2.65 9.22 l
-2.65 33.16 l
-2.64 38.17 l
-2.65 50.51 l
-2.65 -75.02 l
-2.65 24.88 l
-2.64 18.65 l
-2.65 -35.55 l
-2.65 -7.85 l
-2.64 -19.57 l
-2.65 -18.09 l
-2.65 31.61 l
-2.64 36.64 l
-2.65 -33.29 l
-2.65 -50.53 l
-2.64 13.97 l
-2.65 -49.60 l
-2.65 -27.33 l
-2.65 -0.63 l
-2.64 -9.89 l
-2.65 9.51 l
-2.65 4.04 l
-2.64 17.36 l
-2.65 25.27 l
-2.65 34.02 l
-2.64 36.72 l
-2.65 40.66 l
-2.65 39.80 l
-2.64 -71.14 l
-2.65 16.29 l
-2.65 -2.27 l
-2.64 -35.66 l
-2.65 15.93 l
568.89 383.25 lineto
-2.65 -20.69 l
-2.64 25.75 l
-2.65 15.79 l
-2.65 -35.04 l
-2.64 -35.70 l
-2.65 32.59 l
-2.65 -50.78 l
-2.64 -28.49 l
-2.65 -7.75 l
-2.65 -19.17 l
-2.64 7.27 l
-2.65 -17.10 l
-2.65 29.00 l
-2.65 34.07 l
-2.64 20.31 l
-2.65 -2.53 l
-2.65 34.36 l
-2.64 23.94 l
-2.65 -50.07 l
-2.65 16.68 l
-2.64 -6.20 l
-2.65 -19.93 l
-2.65 2.51 l
-2.64 -7.44 l
-2.65 -6.34 l
-2.65 34.22 l
-2.65 7.77 l
-2.64 -28.35 l
-2.65 -43.97 l
-2.65 44.73 l
-2.64 -52.55 l
-2.65 -19.72 l
-2.65 -12.78 l
-2.64 -15.61 l
-2.65 11.92 l
-2.65 7.55 l
-2.64 28.75 l
-2.65 33.40 l
-2.65 43.86 l
-2.65 30.53 l
-2.64 23.55 l
-2.65 50.65 l
-2.65 -71.68 l
-2.64 3.63 l
-2.65 -22.69 l
-2.65 -48.78 l
-2.64 13.11 l
-2.65 1.64 l
-2.65 -18.38 l
-2.64 24.07 l
-2.65 7.34 l
-2.65 -6.70 l
-2.65 -68.61 l
-2.64 60.29 l
-2.65 -40.71 l
-2.65 -14.54 l
-2.64 -47.66 l
-2.65 2.87 l
-2.65 16.05 l
-2.64 28.62 l
-2.65 23.34 l
-2.65 28.43 l
-2.64 28.89 l
-2.65 53.26 l
-2.65 21.13 l
-2.65 64.92 l
-2.64 -97.09 l
-2.65 21.23 l
-2.65 -14.58 l
-2.64 -24.68 l
-2.65 -3.72 l
-2.65 -13.97 l
-2.64 -4.66 l
-2.65 47.26 l
-2.65 -7.80 l
-2.64 -5.87 l
-2.65 -62.55 l
-2.65 42.60 l
-2.65 -64.93 l
-2.64 -23.26 l
-2.65 -13.36 l
-2.65 13.64 l
-2.64 -6.52 l
-2.65 14.49 l
-2.65 1.18 l
-2.64 26.92 l
-2.65 33.52 l
-2.65 19.06 l
-2.64 19.95 l
-2.65 61.37 l
-2.65 -52.46 l
-2.65 51.14 l
-2.64 -29.83 l
-2.65 -25.63 l
-2.65 -7.64 l
-2.64 -15.19 l
-2.65 -9.85 l
-2.65 31.50 l
-2.64 9.38 l
304.20 397.50 lineto
-2.65 -62.09 l
-2.64 37.19 l
-2.65 -47.28 l
-2.65 -42.88 l
-2.64 -17.53 l
-2.65 -2.42 l
-2.65 25.50 l
-2.65 8.85 l
-2.64 2.51 l
-2.65 20.80 l
-2.65 18.33 l
-2.64 17.98 l
-2.65 23.99 l
-2.65 42.54 l
-2.64 -26.78 l
-2.65 39.45 l
-2.65 2.57 l
-2.64 -2.51 l
-2.65 -55.90 l
-2.65 -0.02 l
-2.65 21.69 l
-2.64 16.91 l
-2.65 0.94 l
-2.65 -10.46 l
-2.64 -67.48 l
-2.65 16.93 l
-2.65 -23.38 l
-2.64 -48.18 l
-2.65 -22.34 l
-2.65 -3.76 l
-2.64 9.40 l
-2.65 3.13 l
-2.65 23.48 l
-2.65 32.39 l
-2.64 27.42 l
-2.65 24.93 l
-2.65 1.99 l
-2.64 17.35 l
-2.65 -23.79 l
-2.65 56.93 l
-2.64 -12.43 l
-2.65 -2.90 l
-2.65 -34.58 l
-2.64 1.08 l
-2.65 10.09 l
-2.65 14.33 l
-2.65 28.60 l
-2.64 -16.49 l
-2.65 -83.36 l
-2.65 53.08 l
-2.64 -41.97 l
-2.65 -29.43 l
-2.65 -32.01 l
-2.64 -23.23 l
-2.65 17.08 l
-2.65 -6.69 l
-2.64 15.84 l
-2.65 30.64 l
-2.65 36.07 l
-2.65 25.31 l
-2.64 12.78 l
-2.65 25.88 l
-2.65 -45.46 l
-2.64 28.13 l
-2.65 -31.96 l
-2.65 -12.10 l
-2.64 -11.96 l
-2.65 4.05 l
-2.65 26.75 l
-2.64 16.91 l
-2.65 -13.62 l
-2.65 -8.71 l
-2.65 -57.49 l
-2.64 72.66 l
-2.65 -29.09 l
-2.65 -24.83 l
-2.64 -96.68 l
-2.65 -17.84 l
-2.65 0.56 l
cp p3
/bg { 0.0314 0.2706 0.5804 srgb } def
0.0314 0.2706 0.5804 srgb
np
 95.09 237.13 m
2.65 -0.99 l
2.65 16.70 l
2.64 99.55 l
2.65 24.11 l
2.65 29.36 l
2.64 -68.06 l
2.65 58.08 l
2.65 9.24 l
2.65 11.93 l
2.64 -15.81 l
2.65 -26.80 l
2.65 -3.03 l
2.64 11.47 l
2.65 11.57 l
2.65 41.72 l
2.64 -29.01 l
2.65 48.83 l
2.65 -25.00 l
2.64 -18.63 l
2.65 -31.35 l
2.65 -36.17 l
2.65 -31.40 l
2.64 -13.32 l
2.65 4.61 l
2.65 -17.60 l
2.64 21.50 l
2.65 31.68 l
2.65 30.37 l
2.64 45.09 l
2.65 -50.37 l
2.65 82.93 l
2.64 18.33 l
2.65 -28.19 l
2.65 -12.45 l
2.65 -9.80 l
2.64 -0.80 l
2.65 34.24 l
5.29 17.85 l
2.65 -57.11 l
2.65 21.86 l
2.64 -16.24 l
2.65 -6.59 l
2.65 -28.50 l
2.64 -31.75 l
2.65 -33.50 l
2.65 -23.47 l
2.65 -0.14 l
2.64 -9.47 l
2.65 5.16 l
2.65 22.76 l
2.64 47.40 l
2.65 25.31 l
2.65 -13.12 l
2.64 72.26 l
2.65 11.04 l
2.65 -0.48 l
2.64 -18.02 l
2.65 -23.84 l
2.65 0.59 l
2.65 58.84 l
2.64 1.38 l
2.65 -5.11 l
2.65 -43.01 l
2.64 30.22 l
2.65 -44.24 l
2.65 -25.36 l
2.64 -19.60 l
2.65 -22.68 l
2.65 -20.20 l
2.64 -3.62 l
2.65 -10.28 l
2.65 -22.63 l
2.65 2.97 l
2.64 15.96 l
2.65 45.30 l
2.65 47.49 l
2.64 -33.84 l
2.65 65.35 l
2.65 11.64 l
2.64 -7.98 l
2.65 -31.95 l
2.65 12.71 l
2.64 14.64 l
2.65 8.76 l
2.65 25.03 l
2.64 27.98 l
2.65 -50.67 l
2.65 49.97 l
2.65 -56.74 l
2.64 -25.84 l
2.65 -22.61 l
2.65 -35.76 l
2.64 -27.79 l
2.65 -2.99 l
2.65 -14.22 l
2.64 4.32 l
2.65 -14.01 l
2.65 15.25 l
2.64 24.03 l
362.43 398.22 lineto
2.65 -37.56 l
2.65 67.53 l
2.64 4.71 l
2.65 12.30 l
2.65 -49.57 l
2.64 5.83 l
2.65 12.16 l
2.65 5.23 l
2.64 23.46 l
2.65 13.03 l
2.65 -17.30 l
2.64 94.00 l
2.65 -64.82 l
2.65 -22.66 l
2.65 -58.64 l
2.64 -31.10 l
2.65 -27.27 l
2.65 -23.82 l
2.64 -31.29 l
2.65 -17.05 l
5.29 46.49 l
2.65 14.30 l
2.65 44.38 l
2.64 -58.07 l
2.65 73.09 l
2.65 1.88 l
2.65 -6.16 l
2.64 -23.43 l
2.65 17.90 l
2.65 -1.56 l
2.64 -13.46 l
2.65 48.59 l
2.65 22.74 l
2.64 -2.71 l
2.65 72.27 l
2.65 -49.36 l
2.64 -28.19 l
2.65 -32.33 l
2.65 -48.58 l
2.65 -33.47 l
2.64 -28.52 l
2.65 -6.52 l
2.65 -13.07 l
2.64 16.86 l
2.65 14.37 l
2.65 18.69 l
2.64 54.21 l
2.65 -41.82 l
2.65 48.99 l
2.64 26.15 l
2.65 -10.34 l
2.65 -32.56 l
2.65 4.97 l
2.64 7.67 l
2.65 -5.98 l
2.65 20.93 l
2.64 6.02 l
2.65 -12.08 l
2.65 47.29 l
2.64 -20.97 l
2.65 -38.20 l
2.65 -0.10 l
2.64 -22.63 l
2.65 -34.18 l
2.65 -27.99 l
2.65 17.40 l
2.64 -7.51 l
2.65 19.05 l
2.65 8.67 l
2.64 29.38 l
2.65 52.06 l
2.65 -28.18 l
2.64 36.85 l
2.65 35.80 l
2.65 -12.70 l
2.64 -25.99 l
2.65 18.87 l
2.65 3.38 l
2.65 -13.89 l
2.64 36.04 l
2.65 3.56 l
2.65 -13.89 l
2.64 69.80 l
2.65 -38.07 l
2.65 -45.67 l
2.64 -38.57 l
2.65 -38.84 l
2.65 -24.51 l
2.64 -17.88 l
2.65 -3.48 l
2.65 -6.90 l
2.64 7.23 l
2.65 1.63 l
2.65 26.88 l
2.65 53.48 l
2.64 -9.35 l
2.65 50.62 l
2.65 33.30 l
2.64 -35.80 l
629.77 382.72 lineto
2.65 16.63 l
2.64 20.25 l
2.65 8.11 l
2.65 33.42 l
2.64 -18.29 l
2.65 -25.21 l
2.65 77.88 l
2.65 -50.05 l
2.64 -44.18 l
2.65 -32.05 l
2.65 -14.94 l
2.64 -19.50 l
2.65 -14.50 l
2.65 -7.81 l
2.64 -24.08 l
2.65 -9.48 l
2.65 14.42 l
2.64 26.30 l
2.65 34.42 l
2.65 2.72 l
2.65 56.90 l
2.64 11.32 l
2.65 -19.70 l
2.65 -28.81 l
2.64 18.65 l
2.65 11.63 l
2.65 18.61 l
2.64 35.04 l
2.65 -3.47 l
2.65 -12.67 l
2.64 50.59 l
2.65 -41.76 l
2.65 -33.97 l
2.65 -52.37 l
2.64 -23.22 l
2.65 -21.73 l
2.65 -23.95 l
0 -0.01 l
-2.65 23.94 l
-2.65 21.74 l
-2.64 23.22 l
-2.65 52.36 l
-2.65 33.97 l
-2.65 41.72 l
-2.64 -50.69 l
-2.65 12.63 l
-2.65 3.53 l
-2.64 -35.13 l
-2.65 -18.61 l
-2.65 -11.66 l
-2.64 -18.66 l
-2.65 28.82 l
-2.65 19.79 l
-2.64 -11.26 l
-2.65 -56.81 l
-2.65 -2.71 l
-2.65 -34.42 l
-2.64 -26.31 l
-2.65 -14.41 l
-2.65 9.47 l
-2.64 24.09 l
-2.65 7.81 l
-2.65 14.50 l
-2.64 19.50 l
-2.65 14.94 l
-2.65 32.04 l
-2.64 44.18 l
-2.65 50.00 l
-2.65 -77.96 l
-2.65 25.14 l
-2.64 18.28 l
-2.65 -33.42 l
-2.65 -8.12 l
-2.64 -20.27 l
-2.65 -16.65 l
-2.65 30.96 l
-2.64 35.89 l
-2.65 -33.22 l
-2.65 -50.54 l
-2.64 9.36 l
-2.65 -53.49 l
-2.65 -26.87 l
-2.65 -1.63 l
-2.64 -7.24 l
-2.65 6.90 l
-2.65 3.49 l
-2.64 17.88 l
-2.65 24.51 l
-2.65 38.84 l
-2.64 38.57 l
-2.65 45.67 l
-2.65 38.01 l
-2.64 -69.88 l
-2.65 13.84 l
-2.65 -3.52 l
-2.64 -36.10 l
-2.65 13.87 l
-2.65 -3.42 l
-2.65 -18.87 l
563.60 421.44 lineto
-2.65 12.79 l
-2.65 -35.72 l
-2.64 -36.76 l
-2.65 28.19 l
-2.65 -52.06 l
-2.64 -29.38 l
-2.65 -8.67 l
-2.65 -19.06 l
-2.64 7.52 l
-2.65 -17.41 l
-2.65 28.00 l
-2.65 34.17 l
-2.64 22.64 l
-2.65 0.10 l
-2.65 38.20 l
-2.64 20.97 l
-2.65 -47.29 l
-2.65 12.03 l
-2.64 -6.02 l
-2.65 -20.97 l
-2.65 5.97 l
-2.64 -7.67 l
-2.65 -4.96 l
-2.65 32.56 l
-2.65 10.38 l
-2.64 -26.13 l
-2.65 -48.96 l
-2.65 41.82 l
-2.64 -54.22 l
-2.65 -18.68 l
-2.65 -14.37 l
-2.64 -16.86 l
-2.65 13.07 l
-2.65 6.51 l
-2.64 28.53 l
-2.65 33.47 l
-2.65 48.58 l
-2.65 32.33 l
-2.64 28.18 l
-2.65 49.36 l
-2.65 -72.30 l
-2.64 2.69 l
-2.65 -22.71 l
-2.65 -48.63 l
-2.64 13.45 l
-2.65 1.56 l
-2.65 -17.91 l
-2.64 23.44 l
-2.65 6.19 l
-2.65 -1.86 l
-2.65 -73.07 l
-2.64 58.08 l
-2.65 -44.38 l
-2.65 -14.31 l
-5.29 -46.48 l
-2.65 17.04 l
-2.64 31.30 l
-2.65 23.81 l
-2.65 27.28 l
-2.64 31.10 l
-2.65 58.63 l
-2.65 22.67 l
-2.65 64.76 l
-2.64 -94.08 l
-2.65 17.25 l
-2.65 -13.05 l
-2.64 -23.47 l
-2.65 -5.24 l
-2.65 -12.20 l
-2.64 -5.82 l
-2.65 49.57 l
-2.65 -12.20 l
-2.64 -4.64 l
-2.65 -67.44 l
-2.65 37.56 l
-2.65 -65.85 l
-2.64 -24.03 l
-2.65 -15.25 l
-2.65 14.01 l
-2.64 -4.32 l
-2.65 14.22 l
-2.65 2.99 l
-2.64 27.79 l
-2.65 35.76 l
-2.65 22.61 l
-2.64 25.83 l
-2.65 56.69 l
-2.65 -50.05 l
-2.65 50.62 l
-2.64 -27.92 l
-2.65 -25.10 l
-2.65 -8.77 l
-2.64 -14.68 l
-2.65 -12.72 l
-2.65 31.94 l
-2.64 8.10 l
-2.65 -11.57 l
-2.65 -65.28 l
-2.64 33.84 l
296.26 349.59 lineto
-2.65 -45.30 l
-2.64 -15.96 l
-2.65 -2.98 l
-2.65 22.64 l
-2.65 10.28 l
-2.64 3.61 l
-2.65 20.21 l
-2.65 22.68 l
-2.64 19.59 l
-2.65 25.37 l
-2.65 44.19 l
-2.64 -30.31 l
-2.65 42.96 l
-2.65 5.16 l
-2.64 -1.43 l
-2.65 -58.89 l
-2.65 -0.61 l
-2.65 23.84 l
-2.64 18.02 l
-2.65 0.57 l
-2.65 -10.96 l
-2.64 -72.17 l
-2.65 13.12 l
-2.65 -25.31 l
-2.64 -47.41 l
-2.65 -22.75 l
-2.65 -5.17 l
-2.64 9.48 l
-2.65 0.13 l
-2.65 23.47 l
-2.65 33.51 l
-2.64 31.75 l
-2.65 28.50 l
-2.65 6.58 l
-2.64 16.19 l
-2.65 -21.95 l
-2.65 57.06 l
-5.29 -17.86 l
-2.65 -34.27 l
-2.64 0.79 l
-2.65 9.78 l
-2.65 12.46 l
-2.65 28.27 l
-2.64 -18.24 l
-2.65 -82.85 l
-2.65 50.38 l
-2.64 -45.10 l
-2.65 -30.36 l
-2.65 -31.68 l
-2.64 -21.50 l
-2.65 17.60 l
-2.65 -4.61 l
-2.64 13.32 l
-2.65 31.40 l
-2.65 36.17 l
-2.65 31.34 l
-2.64 18.64 l
-2.65 24.96 l
-2.65 -48.93 l
-2.64 28.94 l
-2.65 -41.65 l
-2.65 -11.64 l
-2.64 -11.48 l
-2.65 2.99 l
-2.65 26.79 l
-2.64 15.81 l
-2.65 -11.84 l
-2.65 -9.15 l
-2.65 -58.00 l
-2.64 68.06 l
-2.65 -29.35 l
-2.65 -24.12 l
-2.64 -99.54 l
-2.65 -16.71 l
-2.65 1.00 l
cp p3
0.00 0.00 990.00 570.00 cl
0.00 0.00 990.00 570.00 cl
0.00 0.00 990.00 570.00 cl
/Font1 findfont 10 s
0.4980 0.4980 0.4980 srgb
56.38 57.25 (0) 1 0 t
56.38 176.71 (25000) 1 0 t
56.38 296.16 (50000) 1 0 t
56.38 415.61 (75000) 1 0 t
56.38 535.06 (100000) 1 0 t
0.00 0.00 990.00 570.00 cl
0.00 0.00 990.00 570.00 cl
0.4980 0.4980 0.4980 srgb
1.06 setlinewidth
[] 0 setdash
0 setlinecap
1 setlinejoin
10.00 setmiterlimit
np
59.21 60.84 m
4.25 0 l
o
np
59.21 180.30 m
4.25 0 l
o
np
59.21 299.75 m
4.25 0 l
o
np
59.21 419.20 m
4.25 0 l
o
np
59.21 538.65 m
4.25 0 l
o
0.00 0.00 990.00 570.00 cl
0.00 0.00 990.00 570.00 cl
0.00 0.00 990.00 570.00 cl
0.00 0.00 990.00 570.00 cl
0.00 0.00 990.00 570.00 cl
0.00 0.00 990.00 570.00 cl
0.4980 0.4980 0.4980 srgb
1.06 setlinewidth
[] 0 setdash
0 setlinecap
1 setlinejoin
10.00 setmiterlimit
np
68.62 33.03 m
0 4.25 l
o
np
200.97 33.03 m
0 4.25 l
o
np
333.32 33.03 m
0 4.25 l
o
np
465.66 33.03 m
0 4.25 l
o
np
598.01 33.03 m
0 4.25 l
o
np
730.35 33.03 m
0 4.25 l
o
0.00 0.00 990.00 570.00 cl
0.00 0.00 990.00 570.00 cl
/Font1 findfont 10 s
0.4980 0.4980 0.4980 srgb
68.62 23.02 (350) .5 0 t
200.97 23.02 (400) .5 0 t
333.32 23.02 (450) .5 0 t
465.66 23.02 (500) .5 0 t
598.01 23.02 (550) .5 0 t
730.35 23.02 (600) .5 0 t
0.00 0.00 990.00 570.00 cl
0.00 0.00 990.00 570.00 cl
0.00 0.00 990.00 570.00 cl
0.00 0.00 990.00 570.00 cl
0.00 0.00 990.00 570.00 cl
/Font1 findfont 12 s
0 0 0 srgb
411.40 10.80 (Consumption [kWh]) .5 0 t
0.00 0.00 990.00 570.00 cl
0.00 0.00 990.00 570.00 cl
/Font1 findfont 12 s
0 0 0 srgb
19.42 296.44 (Time) .5 90 t
0.00 0.00 990.00 570.00 cl
0.00 0.00 990.00 570.00 cl
0.00 0.00 990.00 570.00 cl
0.00 0.00 990.00 570.00 cl
0.00 0.00 990.00 570.00 cl
0.00 0.00 990.00 570.00 cl
/bg { 1 1 1 srgb } def
769.37 217.32 196.19 158.24 r p2
0.00 0.00 990.00 570.00 cl
0.00 0.00 990.00 570.00 cl
/Font2 findfont 10 s
0 0 0 srgb
773.62 364.13 (Customer) 0 0 t
0.00 0.00 990.00 570.00 cl
0.00 0.00 990.00 570.00 cl
/bg { 0.9490 0.9490 0.9490 srgb } def
1 1 1 srgb
1.06 setlinewidth
[] 0 setdash
1 setlinecap
1 setlinejoin
10.00 setmiterlimit
773.62 342.53 17.28 17.28 r p3
0.00 0.00 990.00 570.00 cl
0.00 0.00 990.00 570.00 cl
/bg { 0.9686 0.9843 1 srgb } def
773.62 342.53 17.28 17.28 r p2
0.00 0.00 990.00 570.00 cl
0.00 0.00 990.00 570.00 cl
/bg { 0.9490 0.9490 0.9490 srgb } def
1 1 1 srgb
1.06 setlinewidth
[] 0 setdash
1 setlinecap
1 setlinejoin
10.00 setmiterlimit
773.62 325.25 17.28 17.28 r p3
0.00 0.00 990.00 570.00 cl
0.00 0.00 990.00 570.00 cl
/bg { 0.8706 0.9216 0.9686 srgb } def
773.62 325.25 17.28 17.28 r p2
0.00 0.00 990.00 570.00 cl
0.00 0.00 990.00 570.00 cl
/bg { 0.9490 0.9490 0.9490 srgb } def
1 1 1 srgb
1.06 setlinewidth
[] 0 setdash
1 setlinecap
1 setlinejoin
10.00 setmiterlimit
773.62 307.97 17.28 17.28 r p3
0.00 0.00 990.00 570.00 cl
0.00 0.00 990.00 570.00 cl
/bg { 0.7765 0.8588 0.9373 srgb } def
773.62 307.97 17.28 17.28 r p2
0.00 0.00 990.00 570.00 cl
0.00 0.00 990.00 570.00 cl
/bg { 0.9490 0.9490 0.9490 srgb } def
1 1 1 srgb
1.06 setlinewidth
[] 0 setdash
1 setlinecap
1 setlinejoin
10.00 setmiterlimit
773.62 290.69 17.28 17.28 r p3
0.00 0.00 990.00 570.00 cl
0.00 0.00 990.00 570.00 cl
/bg { 0.6196 0.7922 0.8824 srgb } def
773.62 290.69 17.28 17.28 r p2
0.00 0.00 990.00 570.00 cl
0.00 0.00 990.00 570.00 cl
/bg { 0.9490 0.9490 0.9490 srgb } def
1 1 1 srgb
1.06 setlinewidth
[] 0 setdash
1 setlinecap
1 setlinejoin
10.00 setmiterlimit
773.62 273.41 17.28 17.28 r p3
0.00 0.00 990.00 570.00 cl
0.00 0.00 990.00 570.00 cl
/bg { 0.4196 0.6824 0.8392 srgb } def
773.62 273.41 17.28 17.28 r p2
0.00 0.00 990.00 570.00 cl
0.00 0.00 990.00 570.00 cl
/bg { 0.9490 0.9490 0.9490 srgb } def
1 1 1 srgb
1.06 setlinewidth
[] 0 setdash
1 setlinecap
1 setlinejoin
10.00 setmiterlimit
773.62 256.13 17.28 17.28 r p3
0.00 0.00 990.00 570.00 cl
0.00 0.00 990.00 570.00 cl
/bg { 0.2588 0.5725 0.7765 srgb } def
773.62 256.13 17.28 17.28 r p2
0.00 0.00 990.00 570.00 cl
0.00 0.00 990.00 570.00 cl
/bg { 0.9490 0.9490 0.9490 srgb } def
1 1 1 srgb
1.06 setlinewidth
[] 0 setdash
1 setlinecap
1 setlinejoin
10.00 setmiterlimit
773.62 238.85 17.28 17.28 r p3
0.00 0.00 990.00 570.00 cl
0.00 0.00 990.00 570.00 cl
/bg { 0.1294 0.4431 0.7098 srgb } def
773.62 238.85 17.28 17.28 r p2
0.00 0.00 990.00 570.00 cl
0.00 0.00 990.00 570.00 cl
/bg { 0.9490 0.9490 0.9490 srgb } def
1 1 1 srgb
1.06 setlinewidth
[] 0 setdash
1 setlinecap
1 setlinejoin
10.00 setmiterlimit
773.62 221.57 17.28 17.28 r p3
0.00 0.00 990.00 570.00 cl
0.00 0.00 990.00 570.00 cl
/bg { 0.0314 0.2706 0.5804 srgb } def
773.62 221.57 17.28 17.28 r p2
0.00 0.00 990.00 570.00 cl
0.00 0.00 990.00 570.00 cl
/Font1 findfont 10 s
0 0 0 srgb
793.06 347.58 (BrooksideHomes) 0 0 t
0.00 0.00 990.00 570.00 cl
0.00 0.00 990.00 570.00 cl
/Font1 findfont 10 s
0 0 0 srgb
793.06 330.30 (Center) 0 ta
0.300 (villeHomes) tb gr
0.00 0.00 990.00 570.00 cl
0.00 0.00 990.00 570.00 cl
/Font1 findfont 10 s
0 0 0 srgb
793.06 313.02 (Do) 0 ta
-0.150 (wnto) tb
-0.150 (wnOffices) tb gr
0.00 0.00 990.00 570.00 cl
0.00 0.00 990.00 570.00 cl
/Font1 findfont 10 s
0 0 0 srgb
793.06 295.74 (EastsideOffices) 0 0 t
0.00 0.00 990.00 570.00 cl
0.00 0.00 990.00 570.00 cl
/Font1 findfont 10 s
0 0 0 srgb
793.06 278.46 (FrostyStor) 0 ta
-0.100 (age) tb gr
0.00 0.00 990.00 570.00 cl
0.00 0.00 990.00 570.00 cl
/Font1 findfont 10 s
0 0 0 srgb
793.06 261.18 (He) 0 ta
-0.300 (xtr) tb
-0.100 (aChemical) tb gr
0.00 0.00 990.00 570.00 cl
0.00 0.00 990.00 570.00 cl
/Font1 findfont 10 s
0 0 0 srgb
793.06 243.90 (MedicalCenter@1) 0 0 t
0.00 0.00 990.00 570.00 cl
0.00 0.00 990.00 570.00 cl
/Font1 findfont 10 s
0 0 0 srgb
793.06 226.62 (OfficeComple) 0 ta
-0.300 (xT) tb
-1.200 (ype1 OfficeComple) tb
-0.300 (x 2) tb gr
0.00 0.00 990.00 570.00 cl
0.00 0.00 990.00 570.00 cl
0.00 0.00 990.00 570.00 cl
0.00 0.00 990.00 570.00 cl
0.00 0.00 990.00 570.00 cl
0.00 0.00 990.00 570.00 cl
0.00 0.00 990.00 570.00 cl
0.00 0.00 990.00 570.00 cl
0.00 0.00 990.00 570.00 cl
0.00 0.00 990.00 570.00 cl
0.00 0.00 990.00 570.00 cl
0.00 0.00 990.00 570.00 cl
ep
%%Trailer
%%Pages: 1
%%EOF
